<svg width="733" height="229" viewBox="0 0 733 229" fill="none" xmlns="http://www.w3.org/2000/svg">
<g filter="url(#filter0_d_915_7)">
<path d="M82.5156 0C105.074 0 122.604 4.54102 135.104 13.623C147.701 22.7051 154 35.5957 154 52.2949C154 63.623 151.021 73.584 145.064 82.1777C139.205 90.6738 129.879 98.0957 117.086 104.443C132.906 113.428 144.039 122.412 150.484 131.396C157.027 140.283 160.299 149.902 160.299 160.254C160.299 179.297 153.414 194.043 139.645 204.492C125.875 214.941 106.637 220.166 81.9297 220.166C56.7344 220.166 37.4473 215.088 24.0684 204.932C10.6895 194.678 4 179.98 4 160.84C4 148.438 6.97852 137.891 12.9355 129.199C18.8926 120.41 28.9023 112.451 42.9648 105.322C31.6367 97.7051 23.3359 89.5508 18.0625 80.8594C12.8867 72.0703 10.2988 62.4512 10.2988 52.002C10.2988 35.5957 16.6953 22.8516 29.4883 13.7695C42.2812 4.58984 59.957 0 82.5156 0ZM57.0273 158.496C57.0273 164.551 59.1758 169.434 63.4727 173.145C67.7695 176.758 73.7266 178.564 81.3438 178.564C98.5312 178.564 107.125 172.266 107.125 159.668C107.125 154.883 105.221 150.195 101.412 145.605C97.7012 140.918 91.0117 135.693 81.3438 129.932C72.6523 134.521 66.4023 139.16 62.5938 143.848C58.8828 148.438 57.0273 153.32 57.0273 158.496ZM82.2227 41.748C77.2422 41.748 73.043 43.2129 69.625 46.1426C66.207 48.9746 64.498 52.6855 64.498 57.2754C64.498 65.6738 70.2109 73.0957 81.6367 79.541C88.5703 75.5371 93.3066 71.875 95.8457 68.5547C98.3848 65.2344 99.6543 61.4746 99.6543 57.2754C99.6543 52.5879 97.9453 48.8281 94.5273 45.9961C91.1094 43.1641 87.0078 41.748 82.2227 41.748Z" fill="#3E8500"/>
<path d="M394.105 217.236H238.686V179.15L290.98 126.27C305.922 110.645 315.688 100 320.277 94.3359C324.867 88.5742 328.041 83.6426 329.799 79.541C331.654 75.4395 332.582 71.1426 332.582 66.6504C332.582 61.084 330.775 56.6895 327.162 53.4668C323.549 50.2441 318.471 48.6328 311.928 48.6328C305.189 48.6328 298.354 50.5859 291.42 54.4922C284.584 58.3008 276.82 63.9648 268.129 71.4844L236.342 34.2773C247.377 24.4141 256.654 17.3828 264.174 13.1836C271.693 8.88672 279.848 5.61523 288.637 3.36914C297.523 1.12305 307.484 0 318.52 0C332.387 0 344.74 2.44141 355.58 7.32422C366.518 12.207 374.965 19.1895 380.922 28.2715C386.977 37.2559 390.004 47.3633 390.004 58.5938C390.004 66.9922 388.93 74.7559 386.781 81.8848C384.73 89.0137 381.508 96.0449 377.113 102.979C372.719 109.814 366.859 117.041 359.535 124.658C352.309 132.275 336.83 146.729 313.1 168.018V169.482H394.105V217.236Z" fill="#3E8500"/>
<path d="M493.797 76.9043C506.102 76.9043 517.186 79.7852 527.049 85.5469C537.01 91.2109 544.725 99.2676 550.193 109.717C555.76 120.166 558.543 132.227 558.543 145.898C558.543 169.824 551.316 188.184 536.863 200.977C522.508 213.77 500.73 220.166 471.531 220.166C446.531 220.166 426.121 216.309 410.301 208.594V161.133C418.797 165.039 428.367 168.262 439.012 170.801C449.754 173.34 458.982 174.609 466.697 174.609C477.439 174.609 485.691 172.363 491.453 167.871C497.215 163.281 500.096 156.543 500.096 147.656C500.096 139.453 497.166 133.057 491.307 128.467C485.447 123.877 476.561 121.582 464.646 121.582C455.564 121.582 445.75 123.291 435.203 126.709L413.963 116.162L422.02 3.07617H544.188V51.2695H471.238L468.602 79.541C476.219 78.0762 481.639 77.2949 484.861 77.1973C488.084 77.002 491.062 76.9043 493.797 76.9043Z" fill="#3E8500"/>
<path d="M728.547 110.449C728.547 148.34 722.199 176.123 709.504 193.799C696.809 211.377 677.375 220.166 651.203 220.166C625.617 220.166 606.33 210.986 593.342 192.627C580.354 174.17 573.859 146.777 573.859 110.449C573.859 72.3633 580.207 44.4336 592.902 26.6602C605.598 8.88672 625.031 0 651.203 0C676.691 0 695.93 9.27734 708.918 27.832C722.004 46.2891 728.547 73.8281 728.547 110.449ZM631.428 110.449C631.428 134.668 632.941 151.318 635.969 160.4C638.996 169.482 644.074 174.023 651.203 174.023C658.43 174.023 663.508 169.336 666.438 159.961C669.465 150.586 670.979 134.082 670.979 110.449C670.979 86.7188 669.465 70.1172 666.438 60.6445C663.41 51.0742 658.332 46.2891 651.203 46.2891C644.074 46.2891 638.996 50.8789 635.969 60.0586C632.941 69.2383 631.428 86.0352 631.428 110.449Z" fill="#3E8500"/>
<path d="M342.039 190.236C378.372 197.403 461.239 207.436 502.039 190.236C542.839 173.036 583.039 108.07 598.039 77.7363C605.039 60.0697 624.239 24.7363 645.039 24.7363" stroke="white" stroke-width="5" stroke-linecap="round" stroke-linejoin="round" stroke-dasharray="20 20"/>
<circle cx="659.039" cy="23.2363" r="5.5" stroke="white" stroke-width="3"/>
<circle cx="326.039" cy="186.236" r="5.5" stroke="white" stroke-width="3"/>
</g>
<defs>
<filter id="filter0_d_915_7" x="0" y="0" width="732.547" height="228.166" filterUnits="userSpaceOnUse" color-interpolation-filters="sRGB">
<feFlood flood-opacity="0" result="BackgroundImageFix"/>
<feColorMatrix in="SourceAlpha" type="matrix" values="0 0 0 0 0 0 0 0 0 0 0 0 0 0 0 0 0 0 127 0" result="hardAlpha"/>
<feOffset dy="4"/>
<feGaussianBlur stdDeviation="2"/>
<feComposite in2="hardAlpha" operator="out"/>
<feColorMatrix type="matrix" values="0 0 0 0 0 0 0 0 0 0 0 0 0 0 0 0 0 0 0.25 0"/>
<feBlend mode="normal" in2="BackgroundImageFix" result="effect1_dropShadow_915_7"/>
<feBlend mode="normal" in="SourceGraphic" in2="effect1_dropShadow_915_7" result="shape"/>
</filter>
</defs>
</svg>
