<svg width="52" height="80" viewBox="0 0 52 80" fill="none" xmlns="http://www.w3.org/2000/svg">
<circle cx="26" cy="26" r="25" stroke="#116AAF" stroke-width="2"/>
<path d="M27 59C27 58.4477 26.5523 58 26 58C25.4477 58 25 58.4477 25 59L27 59ZM25.2929 79.7071C25.6834 80.0976 26.3166 80.0976 26.7071 79.7071L33.0711 73.3431C33.4616 72.9526 33.4616 72.3195 33.0711 71.9289C32.6805 71.5384 32.0474 71.5384 31.6569 71.9289L26 77.5858L20.3431 71.9289C19.9526 71.5384 19.3195 71.5384 18.9289 71.9289C18.5384 72.3195 18.5384 72.9526 18.9289 73.3431L25.2929 79.7071ZM25 59L25 79L27 79L27 59L25 59Z" fill="#116AAF"/>
<rect x="18" y="13" width="16" height="25" rx="8" stroke="#116AAF" stroke-width="2"/>
<path d="M26 13L26 23" stroke="#116AAF" stroke-width="2"/>
</svg>
