<svg width="297" height="52" viewBox="0 0 297 52" fill="none" xmlns="http://www.w3.org/2000/svg">
<rect x="156" y="12" width="138" height="31" fill="white"/>
<path d="M113.402 31.7895C111.182 31.7895 110.542 30.952 110.542 28.3399V18.4806H104.133V30.8049C103.049 31.3946 101.866 31.7895 100.584 31.7895C98.7596 31.7895 97.3324 31.0009 97.3324 28.3399V22.8689C97.3324 20.2051 95.6057 18.0373 92.0567 18.0373C90.0849 18.0373 88.4085 18.3321 87.2265 18.7264L87.6704 23.656C88.0148 23.5083 88.4085 23.4102 88.9015 23.4102C89.9378 23.4102 90.8258 24.1007 90.8258 25.0853V29.3737C90.8258 34.8945 93.1409 37.4096 98.219 37.4096C101.275 37.4096 103.738 36.5231 105.269 35.3874C105.909 36.5231 107.142 37.4096 108.671 37.4096C109.458 37.4096 110.345 37.2624 110.787 37.1128C110.839 37.509 110.935 38.1491 110.935 38.8886C110.935 40.5145 109.556 41.0578 107.287 41.0578H102.161C95.5567 41.0578 93.3886 44.1627 93.3886 48.451C93.3886 49.0912 93.4853 49.8823 93.7318 50.4707L99.9934 52C99.6965 51.1133 99.6965 50.4707 99.6965 49.6346C99.6965 48.1066 100.782 47.1207 102.654 47.1207H108.57C114.83 47.1207 117.245 44.4584 117.245 38.7401C117.245 36.967 116.605 33.1212 115.818 31.1004C115.325 31.3946 114.238 31.7895 113.402 31.7895ZM55.8274 30.3106V22.3264C55.8274 20.3048 54.2491 18.0374 50.1568 18.0374C46.5099 18.0374 38.8184 18.2832 36.7498 18.4807L37.1938 23.6562C38.2438 23.6003 39.4611 23.5521 40.7576 23.5118C40.1666 27.3269 39.2351 32.0373 35.5664 32.0373C34.7794 32.0373 34.1883 31.9856 33.7443 31.7896V36.7193C34.5315 37.0637 36.2568 37.4097 37.6854 37.4097C44.8103 37.4097 46.3056 28.7201 46.8911 23.411C47.041 23.411 47.1962 23.4105 47.346 23.4105C48.5308 23.4105 49.3207 24.0526 49.3207 25.0855V32.5795C49.3207 35.4857 51.3389 37.4099 54.5445 37.4099C56.2712 37.4099 58.1927 37.1634 59.4252 36.7195L58.9812 31.7898C57.256 32.4786 55.8274 31.6425 55.8274 30.3106ZM37.3054 15.7644C38.1374 14.3079 38.866 12.5913 38.866 10.2504C38.866 4.63095 32.2067 0 20.137 0C8.48 0 0 4.63082 0 12.0193C0 19.8238 6.81586 21.9053 10.1973 22.5808C8.48 23.726 7.23267 26.1186 7.23267 28.826C7.23267 31.4257 9.73015 37.4095 20.6029 37.4095C24.766 37.4095 27.2621 36.7845 28.6675 36.4726V30.0734C27.4201 30.49 24.8694 31.0089 22.1636 31.0089C17.4831 31.0089 14.5674 30.0734 14.5674 27.6275C14.5674 25.7019 16.6482 24.6091 20.2394 24.6091H28.6677V18.7828H19.2521C16.1295 18.7828 7.23281 18.4185 7.23281 12.9549C7.23281 8.89735 11.3427 5.82724 19.9793 5.82724C28.0957 5.82724 31.4784 8.58491 31.4784 11.186C31.4784 12.4865 31.1652 13.4247 30.8003 14.2567L37.3054 15.7644ZM128.779 22.7688C127.498 22.7688 126.314 23.0167 125.281 23.4102C125.233 19.8606 123.802 18.0373 120.056 18.0373C117.739 18.0373 116.063 18.5786 115.371 18.9252L115.818 23.656C115.818 23.656 116.507 23.5083 117.295 23.5083C118.332 23.5083 118.725 24.0011 118.725 25.1356V29.7686C118.725 34.2543 122.274 36.967 127.696 36.967C133.413 36.967 136.865 33.6143 136.865 29.1272C136.864 24.9872 133.66 22.7688 128.779 22.7688ZM127.793 32.0372C126.217 32.0372 125.281 31.3469 125.281 29.4716V27.8946C126.019 27.5514 126.857 27.305 127.597 27.305C129.471 27.305 130.407 28.4885 130.407 29.5723C130.407 30.7055 129.569 32.0372 127.793 32.0372ZM85.2056 32.0372C84.1706 32.0372 83.284 31.3469 83.284 30.3595V18.4806H78.2535H77.7619H77.2689L69.8744 28.3714V22.8689C69.8744 20.2051 68.149 18.0373 64.6 18.0373C62.6308 18.0373 60.9518 18.3321 59.7697 18.7264L60.2123 23.656C60.5595 23.5083 60.9518 23.4102 61.4461 23.4102C62.4812 23.4102 63.3689 24.1007 63.3689 25.0853V36.918H68.3967H68.8896H69.3825L76.7771 27.0257V32.5792C76.7771 35.2403 78.5025 37.4096 82.05 37.4096C84.022 37.4096 85.6969 37.1128 86.8818 36.7192L86.4377 31.7895C86.0922 31.9366 85.6973 32.0372 85.2056 32.0372ZM144.949 29.6704V18.4806H138.441V31.2475C138.441 34.7963 139.624 36.967 143.518 36.967C145.886 36.967 147.019 36.4727 147.907 36.0778V31.3469C147.363 31.5444 147.02 31.5919 146.379 31.5919C145.195 31.592 144.949 31.0009 144.949 29.6704Z" fill="#CAA11D"/>
<path d="M290.077 8H160.923C157.1 8 154 11.4542 154 15.7146V39.2854C154 43.5458 157.1 47 160.923 47H290.077C293.9 47 297 43.5458 297 39.2854V15.7146C297 11.4542 293.9 8 290.077 8ZM168.916 37.1221C166.68 37.1221 164.378 36.3885 162.273 34.4097L164.049 31.1484C165.364 32.4309 167.009 32.8707 168.423 32.8707C170.166 32.8707 171.186 32.1378 171.186 30.9285C171.186 29.6826 170.298 28.9863 168.818 28.9863H166.516V25.4312H168.226C169.443 25.4312 170.2 24.8449 170.2 23.7822C170.2 22.7195 169.443 22.0965 168.095 22.0965C167.174 22.0965 165.694 22.3531 164.51 23.1959L163.194 19.7147C165.233 18.3948 167.503 17.8458 169.443 17.8458C173.16 17.8458 175.364 19.6414 175.364 22.8294C175.364 24.7356 174.213 26.2747 172.239 26.861C174.838 27.3007 176.35 29.023 176.35 31.5148C176.35 35.0327 173.587 37.1221 168.916 37.1221ZM193.379 36.3525C192.491 36.7923 191.57 37.1221 190.649 37.1221C189.366 37.1221 188.544 35.9494 188.446 34.2638C187.097 36.3892 185.288 37.1221 183.479 37.1221C180.157 37.1221 178.152 34.96 178.152 31.4415C178.152 27.5566 181.079 25.2846 186.242 25.2846C186.9 25.2846 187.591 25.2846 188.281 25.3213C188.183 23.3052 187.524 22.0959 185.387 22.0959C183.94 22.0959 182.46 22.6089 181.144 23.5617L179.104 20.0432C181.209 18.6134 183.479 17.8445 186.242 17.8445C190.748 17.8445 193.379 20.4096 193.379 24.8076V36.3525ZM212.84 36.7556H207.742V22.4623H202.019V36.755H196.921V18.2109H212.84V36.7556ZM232.338 36.7556H227.24V27.5932L221.616 33.2371V36.7556H216.518V18.614C217.406 18.1743 218.359 17.8451 219.247 17.8451C220.76 17.8451 221.615 18.9445 221.615 20.4835V27.374L227.239 21.7301V18.6147C228.127 18.1749 229.081 17.8458 229.969 17.8458C231.482 17.8458 232.337 18.9451 232.337 20.4842L232.338 36.7556ZM243.771 37.1221C238.377 37.1221 235.153 33.5303 235.153 27.4466C235.153 21.3997 238.706 17.8445 243.343 17.8445C245.382 17.8445 248.671 18.7606 249.724 23.0487L246.007 24.6977C245.58 23.2679 244.791 22.3151 243.607 22.3151C241.534 22.3151 240.318 24.2213 240.318 27.446C240.318 30.7074 241.797 32.6135 244.199 32.6135C245.745 32.6135 247.521 31.9899 248.672 31.0372L250.284 34.9954C248.474 36.4625 246.041 37.1221 243.771 37.1221ZM257.58 36.7556H252.482V18.614C253.37 18.1743 254.324 17.8451 255.211 17.8451C256.725 17.8451 257.579 18.9445 257.579 20.4835L257.58 36.7556ZM266.986 37.1221C265.243 37.1221 264.224 36.5358 263.402 35.3258L257.679 27.0069L264.092 17.8451L268.795 18.688L263.138 26.6038L270.275 36.2792C269.19 36.9388 268.203 37.1221 266.986 37.1221ZM287.806 36.7556H282.708V27.5932L277.084 33.2371V36.7556H271.986V18.614C272.874 18.1743 273.828 17.8451 274.716 17.8451C276.229 17.8451 277.084 18.9445 277.084 20.4835V27.374L282.708 21.7301V18.6147C283.596 18.1749 284.549 17.8458 285.438 17.8458C286.951 17.8458 287.806 18.9451 287.806 20.4842L287.806 36.7556ZM182.985 30.9279C182.985 32.1005 183.577 32.944 184.893 32.944C186.636 32.944 188.281 31.7347 188.281 28.5826C187.59 28.546 186.965 28.546 186.373 28.546C184.202 28.546 182.985 29.4254 182.985 30.9279Z" fill="#CAA11D"/>
</svg>
