<svg width="162" height="162" viewBox="0 0 162 162" fill="none" xmlns="http://www.w3.org/2000/svg">
<path d="M1.2143 69.046C-7.25541 101.355 30.1174 162.344 65.5597 161.999C97.1843 161.688 122.892 121.2 124.923 87.7063C128.392 30.4804 13.9322 20.5285 1.2143 69.046Z" fill="#D95F3B" fill-opacity="0.15"/>
<path d="M95.888 108.908L95.8878 109.058L96.0377 109.058L101.577 109.066V109.066C101.577 109.066 101.577 109.066 101.577 109.066L101.577 108.766C101.683 108.81 101.727 108.915 101.727 108.915L101.727 108.914L101.727 108.906L101.727 108.877L101.727 108.763L101.727 108.329L101.728 106.767L101.731 101.925C101.733 98.3337 101.735 94.5515 101.735 93.7878C101.735 92.1776 100.429 90.8725 98.8197 90.8725C97.2096 90.8725 95.904 92.1776 95.904 93.7878C95.904 94.5513 95.9 98.3313 95.896 101.921L95.8905 106.76L95.8887 108.321L95.8881 108.755L95.888 108.869L95.888 108.898L95.888 108.905L95.888 108.907L95.888 108.908C95.888 108.908 95.888 108.908 96.038 108.908L95.888 108.908Z" fill="#BF271A" stroke="#BF271A" stroke-width="0.3"/>
<mask id="path-3-outside-1_810_7" maskUnits="userSpaceOnUse" x="35.3199" y="-0.200195" width="127" height="142" fill="black">
<rect fill="white" x="35.3199" y="-0.200195" width="127" height="142"/>
<path d="M135.583 103.255C134.056 103.255 132.818 104.493 132.818 106.02C132.818 107.548 132.802 121.141 132.802 121.141L138.341 121.149C138.341 121.149 138.349 107.548 138.349 106.02C138.349 104.493 137.11 103.255 135.583 103.255ZM62.3159 103.255C60.7886 103.255 59.5502 104.493 59.5502 106.02C59.5502 107.548 59.5584 121.149 59.5584 121.149L65.0976 121.141C65.0976 121.141 65.0808 107.548 65.0808 106.02C65.0808 104.493 63.8428 103.255 62.3159 103.255ZM155.926 62.3381C152.711 59.1695 148.787 56.9606 145.561 54.6731C142.433 52.4669 140.255 49.8765 138.868 47.8456C138.175 46.8309 137.68 45.9567 137.363 45.3469C137.204 45.0408 137.09 44.8019 137.017 44.6434C137.003 44.6145 136.992 44.5911 136.982 44.5673V38.5111H142.383V35.3878H136.982V29.726H133.858V35.3878H128.848V38.5111H133.858V44.7996C133.194 46.1734 130.584 50.9806 125.334 54.6755C122.375 56.774 118.83 58.8084 115.782 61.5761V51.2882C116.29 51.0005 116.84 50.6288 117.394 50.1416C119.341 48.4464 121.188 45.3278 121.17 40.2735C121.19 35.1641 119.081 31.4868 116.32 28.7824C113.562 26.0635 110.195 24.1681 107.426 22.2055C104.743 20.3123 102.873 18.0897 101.684 16.3469C101.089 15.4763 100.664 14.7263 100.391 14.2027C100.254 13.9404 100.157 13.735 100.095 13.5992C100.083 13.5742 100.074 13.5543 100.065 13.534V8.33754H104.699V5.65774H100.065V0.799805H97.3845V5.65774H93.0852V8.33754H97.3845V13.7335C96.8145 14.9125 94.5758 19.0373 90.0709 22.2078C87.3028 24.1704 83.9355 26.0659 81.1772 28.7847C78.4146 31.4887 76.3072 35.1661 76.3271 40.2758C76.3087 45.3293 78.1554 48.4491 80.1028 50.1443C80.6501 50.6249 81.1928 50.9935 81.6957 51.2797V61.1985C78.7461 58.6202 75.3874 56.6779 72.5631 54.6755C67.3136 50.9806 64.7036 46.1734 64.0392 44.7996V38.5111H69.0498V35.3878H64.0392V29.726H60.9166V35.3878H55.516V38.5111H60.9166V44.5673C60.9061 44.5911 60.8952 44.6145 60.8815 44.6434C60.8085 44.8019 60.6949 45.0412 60.536 45.3469C60.2186 45.9567 59.7235 46.8309 59.0309 47.8456C57.6442 49.8769 55.4661 52.4669 52.3377 54.6731C49.1113 56.9606 45.188 59.1695 41.9725 62.3381C38.754 65.4896 36.2975 69.7755 36.3201 75.7302C36.2982 81.6207 38.451 85.2551 40.7205 87.2306C41.3666 87.7983 42.0077 88.2312 42.5995 88.567V140.8H45.7229V89.6555L79.2009 89.6574V111.454H82.3242V88.5572C82.9103 88.2238 83.5423 87.794 84.1807 87.2333C86.4502 85.2575 88.6021 81.6223 88.581 75.7325C88.6002 70.711 86.8538 66.8802 84.3759 63.9115V52.2241L113.101 52.2225V64.4316C110.849 67.3241 109.299 70.9999 109.317 75.7325C109.296 81.6223 111.448 85.2575 113.718 87.2333C114.356 87.794 114.988 88.223 115.574 88.5572V111.454H118.697V89.6574L152.175 89.6555V140.8H155.299V88.567C155.891 88.2324 156.531 87.7983 157.178 87.2306C159.447 85.2551 161.599 81.6207 161.578 75.7302C161.601 69.7755 159.145 65.49 155.926 62.3381ZM85.4577 75.7321C85.4398 80.7423 83.8203 83.2882 82.2669 84.7526C80.923 86.0074 79.5152 86.4342 79.1158 86.5333L45.7924 86.5314C45.7666 86.5247 45.7354 86.5173 45.701 86.5072C45.5448 86.4666 45.3016 86.3912 45.0045 86.271C44.4095 86.0285 43.5978 85.6045 42.7877 84.8893C41.1855 83.4483 39.4649 80.9012 39.4446 75.7302C39.4669 70.6227 41.3705 67.3612 44.1702 64.5584C46.9753 61.7736 50.7295 59.6228 54.1402 57.2249C58.3469 54.2464 60.9818 50.7167 62.433 48.3351C63.8974 50.7143 66.5527 54.2468 70.7621 57.2272C74.1728 59.6252 77.9278 61.776 80.7325 64.5608C83.5318 67.3636 85.4355 70.6247 85.4577 75.7321ZM113.044 49.5423L84.4504 49.5439C84.1077 49.4588 82.8997 49.0926 81.7464 48.0162C80.4132 46.7587 79.0233 44.5747 79.0081 40.2758C79.0272 35.8934 80.6599 33.0949 83.0629 30.69C85.4694 28.3002 88.6911 26.4547 91.6181 24.3973C95.2302 21.84 97.5083 18.8089 98.765 16.7674C100.01 18.8108 102.271 21.8396 105.881 24.3953C108.808 26.4532 112.029 28.2983 114.436 30.688C116.838 33.093 118.472 35.8915 118.491 40.2739C118.474 44.7109 116.998 46.8965 115.622 48.1329C114.927 48.7466 114.231 49.1105 113.721 49.3186C113.466 49.4217 113.257 49.4865 113.123 49.522C113.093 49.5302 113.066 49.5368 113.044 49.5423ZM155.112 84.8893C154.302 85.6045 153.491 86.0285 152.896 86.271C152.599 86.3916 152.355 86.4666 152.199 86.508C152.164 86.5169 152.134 86.5247 152.108 86.5318L118.784 86.5337C118.385 86.4345 116.977 86.0078 115.633 84.7534C114.08 83.2878 112.46 80.7427 112.442 75.7325C112.465 70.6251 114.368 67.364 117.168 64.5612C119.973 61.7763 123.728 59.6255 127.138 57.2276C131.348 54.2472 134.003 50.7147 135.468 48.3355C136.919 50.7171 139.554 54.2468 143.76 57.2253C147.171 59.6232 150.926 61.7736 153.73 64.5588C156.53 67.3616 158.434 70.6231 158.456 75.7305C158.434 80.9012 156.714 83.4483 155.112 84.8893Z"/>
</mask>
<path d="M135.583 103.255C134.056 103.255 132.818 104.493 132.818 106.02C132.818 107.548 132.802 121.141 132.802 121.141L138.341 121.149C138.341 121.149 138.349 107.548 138.349 106.02C138.349 104.493 137.11 103.255 135.583 103.255ZM62.3159 103.255C60.7886 103.255 59.5502 104.493 59.5502 106.02C59.5502 107.548 59.5584 121.149 59.5584 121.149L65.0976 121.141C65.0976 121.141 65.0808 107.548 65.0808 106.02C65.0808 104.493 63.8428 103.255 62.3159 103.255ZM155.926 62.3381C152.711 59.1695 148.787 56.9606 145.561 54.6731C142.433 52.4669 140.255 49.8765 138.868 47.8456C138.175 46.8309 137.68 45.9567 137.363 45.3469C137.204 45.0408 137.09 44.8019 137.017 44.6434C137.003 44.6145 136.992 44.5911 136.982 44.5673V38.5111H142.383V35.3878H136.982V29.726H133.858V35.3878H128.848V38.5111H133.858V44.7996C133.194 46.1734 130.584 50.9806 125.334 54.6755C122.375 56.774 118.83 58.8084 115.782 61.5761V51.2882C116.29 51.0005 116.84 50.6288 117.394 50.1416C119.341 48.4464 121.188 45.3278 121.17 40.2735C121.19 35.1641 119.081 31.4868 116.32 28.7824C113.562 26.0635 110.195 24.1681 107.426 22.2055C104.743 20.3123 102.873 18.0897 101.684 16.3469C101.089 15.4763 100.664 14.7263 100.391 14.2027C100.254 13.9404 100.157 13.735 100.095 13.5992C100.083 13.5742 100.074 13.5543 100.065 13.534V8.33754H104.699V5.65774H100.065V0.799805H97.3845V5.65774H93.0852V8.33754H97.3845V13.7335C96.8145 14.9125 94.5758 19.0373 90.0709 22.2078C87.3028 24.1704 83.9355 26.0659 81.1772 28.7847C78.4146 31.4887 76.3072 35.1661 76.3271 40.2758C76.3087 45.3293 78.1554 48.4491 80.1028 50.1443C80.6501 50.6249 81.1928 50.9935 81.6957 51.2797V61.1985C78.7461 58.6202 75.3874 56.6779 72.5631 54.6755C67.3136 50.9806 64.7036 46.1734 64.0392 44.7996V38.5111H69.0498V35.3878H64.0392V29.726H60.9166V35.3878H55.516V38.5111H60.9166V44.5673C60.9061 44.5911 60.8952 44.6145 60.8815 44.6434C60.8085 44.8019 60.6949 45.0412 60.536 45.3469C60.2186 45.9567 59.7235 46.8309 59.0309 47.8456C57.6442 49.8769 55.4661 52.4669 52.3377 54.6731C49.1113 56.9606 45.188 59.1695 41.9725 62.3381C38.754 65.4896 36.2975 69.7755 36.3201 75.7302C36.2982 81.6207 38.451 85.2551 40.7205 87.2306C41.3666 87.7983 42.0077 88.2312 42.5995 88.567V140.8H45.7229V89.6555L79.2009 89.6574V111.454H82.3242V88.5572C82.9103 88.2238 83.5423 87.794 84.1807 87.2333C86.4502 85.2575 88.6021 81.6223 88.581 75.7325C88.6002 70.711 86.8538 66.8802 84.3759 63.9115V52.2241L113.101 52.2225V64.4316C110.849 67.3241 109.299 70.9999 109.317 75.7325C109.296 81.6223 111.448 85.2575 113.718 87.2333C114.356 87.794 114.988 88.223 115.574 88.5572V111.454H118.697V89.6574L152.175 89.6555V140.8H155.299V88.567C155.891 88.2324 156.531 87.7983 157.178 87.2306C159.447 85.2551 161.599 81.6207 161.578 75.7302C161.601 69.7755 159.145 65.49 155.926 62.3381ZM85.4577 75.7321C85.4398 80.7423 83.8203 83.2882 82.2669 84.7526C80.923 86.0074 79.5152 86.4342 79.1158 86.5333L45.7924 86.5314C45.7666 86.5247 45.7354 86.5173 45.701 86.5072C45.5448 86.4666 45.3016 86.3912 45.0045 86.271C44.4095 86.0285 43.5978 85.6045 42.7877 84.8893C41.1855 83.4483 39.4649 80.9012 39.4446 75.7302C39.4669 70.6227 41.3705 67.3612 44.1702 64.5584C46.9753 61.7736 50.7295 59.6228 54.1402 57.2249C58.3469 54.2464 60.9818 50.7167 62.433 48.3351C63.8974 50.7143 66.5527 54.2468 70.7621 57.2272C74.1728 59.6252 77.9278 61.776 80.7325 64.5608C83.5318 67.3636 85.4355 70.6247 85.4577 75.7321ZM113.044 49.5423L84.4504 49.5439C84.1077 49.4588 82.8997 49.0926 81.7464 48.0162C80.4132 46.7587 79.0233 44.5747 79.0081 40.2758C79.0272 35.8934 80.6599 33.0949 83.0629 30.69C85.4694 28.3002 88.6911 26.4547 91.6181 24.3973C95.2302 21.84 97.5083 18.8089 98.765 16.7674C100.01 18.8108 102.271 21.8396 105.881 24.3953C108.808 26.4532 112.029 28.2983 114.436 30.688C116.838 33.093 118.472 35.8915 118.491 40.2739C118.474 44.7109 116.998 46.8965 115.622 48.1329C114.927 48.7466 114.231 49.1105 113.721 49.3186C113.466 49.4217 113.257 49.4865 113.123 49.522C113.093 49.5302 113.066 49.5368 113.044 49.5423ZM155.112 84.8893C154.302 85.6045 153.491 86.0285 152.896 86.271C152.599 86.3916 152.355 86.4666 152.199 86.508C152.164 86.5169 152.134 86.5247 152.108 86.5318L118.784 86.5337C118.385 86.4345 116.977 86.0078 115.633 84.7534C114.08 83.2878 112.46 80.7427 112.442 75.7325C112.465 70.6251 114.368 67.364 117.168 64.5612C119.973 61.7763 123.728 59.6255 127.138 57.2276C131.348 54.2472 134.003 50.7147 135.468 48.3355C136.919 50.7171 139.554 54.2468 143.76 57.2253C147.171 59.6232 150.926 61.7736 153.73 64.5588C156.53 67.3616 158.434 70.6231 158.456 75.7305C158.434 80.9012 156.714 83.4483 155.112 84.8893Z" fill="#BF271A"/>
<path d="M135.583 103.255C134.056 103.255 132.818 104.493 132.818 106.02C132.818 107.548 132.802 121.141 132.802 121.141L138.341 121.149C138.341 121.149 138.349 107.548 138.349 106.02C138.349 104.493 137.11 103.255 135.583 103.255ZM62.3159 103.255C60.7886 103.255 59.5502 104.493 59.5502 106.02C59.5502 107.548 59.5584 121.149 59.5584 121.149L65.0976 121.141C65.0976 121.141 65.0808 107.548 65.0808 106.02C65.0808 104.493 63.8428 103.255 62.3159 103.255ZM155.926 62.3381C152.711 59.1695 148.787 56.9606 145.561 54.6731C142.433 52.4669 140.255 49.8765 138.868 47.8456C138.175 46.8309 137.68 45.9567 137.363 45.3469C137.204 45.0408 137.09 44.8019 137.017 44.6434C137.003 44.6145 136.992 44.5911 136.982 44.5673V38.5111H142.383V35.3878H136.982V29.726H133.858V35.3878H128.848V38.5111H133.858V44.7996C133.194 46.1734 130.584 50.9806 125.334 54.6755C122.375 56.774 118.83 58.8084 115.782 61.5761V51.2882C116.29 51.0005 116.84 50.6288 117.394 50.1416C119.341 48.4464 121.188 45.3278 121.17 40.2735C121.19 35.1641 119.081 31.4868 116.32 28.7824C113.562 26.0635 110.195 24.1681 107.426 22.2055C104.743 20.3123 102.873 18.0897 101.684 16.3469C101.089 15.4763 100.664 14.7263 100.391 14.2027C100.254 13.9404 100.157 13.735 100.095 13.5992C100.083 13.5742 100.074 13.5543 100.065 13.534V8.33754H104.699V5.65774H100.065V0.799805H97.3845V5.65774H93.0852V8.33754H97.3845V13.7335C96.8145 14.9125 94.5758 19.0373 90.0709 22.2078C87.3028 24.1704 83.9355 26.0659 81.1772 28.7847C78.4146 31.4887 76.3072 35.1661 76.3271 40.2758C76.3087 45.3293 78.1554 48.4491 80.1028 50.1443C80.6501 50.6249 81.1928 50.9935 81.6957 51.2797V61.1985C78.7461 58.6202 75.3874 56.6779 72.5631 54.6755C67.3136 50.9806 64.7036 46.1734 64.0392 44.7996V38.5111H69.0498V35.3878H64.0392V29.726H60.9166V35.3878H55.516V38.5111H60.9166V44.5673C60.9061 44.5911 60.8952 44.6145 60.8815 44.6434C60.8085 44.8019 60.6949 45.0412 60.536 45.3469C60.2186 45.9567 59.7235 46.8309 59.0309 47.8456C57.6442 49.8769 55.4661 52.4669 52.3377 54.6731C49.1113 56.9606 45.188 59.1695 41.9725 62.3381C38.754 65.4896 36.2975 69.7755 36.3201 75.7302C36.2982 81.6207 38.451 85.2551 40.7205 87.2306C41.3666 87.7983 42.0077 88.2312 42.5995 88.567V140.8H45.7229V89.6555L79.2009 89.6574V111.454H82.3242V88.5572C82.9103 88.2238 83.5423 87.794 84.1807 87.2333C86.4502 85.2575 88.6021 81.6223 88.581 75.7325C88.6002 70.711 86.8538 66.8802 84.3759 63.9115V52.2241L113.101 52.2225V64.4316C110.849 67.3241 109.299 70.9999 109.317 75.7325C109.296 81.6223 111.448 85.2575 113.718 87.2333C114.356 87.794 114.988 88.223 115.574 88.5572V111.454H118.697V89.6574L152.175 89.6555V140.8H155.299V88.567C155.891 88.2324 156.531 87.7983 157.178 87.2306C159.447 85.2551 161.599 81.6207 161.578 75.7302C161.601 69.7755 159.145 65.49 155.926 62.3381ZM85.4577 75.7321C85.4398 80.7423 83.8203 83.2882 82.2669 84.7526C80.923 86.0074 79.5152 86.4342 79.1158 86.5333L45.7924 86.5314C45.7666 86.5247 45.7354 86.5173 45.701 86.5072C45.5448 86.4666 45.3016 86.3912 45.0045 86.271C44.4095 86.0285 43.5978 85.6045 42.7877 84.8893C41.1855 83.4483 39.4649 80.9012 39.4446 75.7302C39.4669 70.6227 41.3705 67.3612 44.1702 64.5584C46.9753 61.7736 50.7295 59.6228 54.1402 57.2249C58.3469 54.2464 60.9818 50.7167 62.433 48.3351C63.8974 50.7143 66.5527 54.2468 70.7621 57.2272C74.1728 59.6252 77.9278 61.776 80.7325 64.5608C83.5318 67.3636 85.4355 70.6247 85.4577 75.7321ZM113.044 49.5423L84.4504 49.5439C84.1077 49.4588 82.8997 49.0926 81.7464 48.0162C80.4132 46.7587 79.0233 44.5747 79.0081 40.2758C79.0272 35.8934 80.6599 33.0949 83.0629 30.69C85.4694 28.3002 88.6911 26.4547 91.6181 24.3973C95.2302 21.84 97.5083 18.8089 98.765 16.7674C100.01 18.8108 102.271 21.8396 105.881 24.3953C108.808 26.4532 112.029 28.2983 114.436 30.688C116.838 33.093 118.472 35.8915 118.491 40.2739C118.474 44.7109 116.998 46.8965 115.622 48.1329C114.927 48.7466 114.231 49.1105 113.721 49.3186C113.466 49.4217 113.257 49.4865 113.123 49.522C113.093 49.5302 113.066 49.5368 113.044 49.5423ZM155.112 84.8893C154.302 85.6045 153.491 86.0285 152.896 86.271C152.599 86.3916 152.355 86.4666 152.199 86.508C152.164 86.5169 152.134 86.5247 152.108 86.5318L118.784 86.5337C118.385 86.4345 116.977 86.0078 115.633 84.7534C114.08 83.2878 112.46 80.7427 112.442 75.7325C112.465 70.6251 114.368 67.364 117.168 64.5612C119.973 61.7763 123.728 59.6255 127.138 57.2276C131.348 54.2472 134.003 50.7147 135.468 48.3355C136.919 50.7171 139.554 54.2468 143.76 57.2253C147.171 59.6232 150.926 61.7736 153.73 64.5588C156.53 67.3616 158.434 70.6231 158.456 75.7305C158.434 80.9012 156.714 83.4483 155.112 84.8893Z" stroke="#BF271A" stroke-width="0.6" mask="url(#path-3-outside-1_810_7)"/>
</svg>
