<svg width="84" height="71" viewBox="0 0 84 71" fill="none" xmlns="http://www.w3.org/2000/svg">
<path d="M17.893 24.4748H6.38C2.871 24.4748 0 27.3458 0 30.8558V46.8048C0 50.3138 2.871 53.1848 6.38 53.1848V57.9688C6.38 59.4048 8.134 60.0428 9.092 59.0858L14.993 53.1848H18.339C18.06 52.1068 17.895 50.9818 17.893 49.8168V24.4748ZM78.269 50.5438H47.249C41.359 50.5398 36.59 45.7728 36.587 39.8808L36.586 22.1558C36.601 18.5538 38.368 15.3938 41.083 13.4668H31.395C25.683 13.4668 21.01 18.1398 21.01 23.8528V49.8168C21.01 55.5288 25.683 60.2028 31.395 60.2028H58.918L68.524 69.8098C70.082 71.3678 72.938 70.3288 72.938 67.9918V60.2028C78.65 60.2028 83.323 55.5288 83.323 49.8168V49.2678C81.819 50.0798 80.098 50.5428 78.269 50.5438Z" fill="#76B043"/>
<path d="M47.2504 44.312H78.2694C80.7164 44.312 82.7004 42.329 82.7004 39.881V22.156C82.7004 19.709 80.7174 17.725 78.2694 17.725H76.0533V13.294C76.0533 5.952 70.1014 0 62.7594 0C55.4174 0 49.4664 5.952 49.4664 13.294V17.725H47.2504C44.8124 17.725 42.8184 19.719 42.8184 22.156V39.881C42.8194 42.329 44.8034 44.312 47.2504 44.312ZM64.9754 32.636V37.665H60.5434V32.636C59.8704 32.247 59.3104 31.687 58.9224 31.014C57.6984 28.895 58.4244 26.184 60.5434 24.961C62.6634 23.737 65.3734 24.463 66.5974 26.583C67.8214 28.702 67.0954 31.413 64.9754 32.636ZM56.1134 13.294C56.1134 9.623 59.0894 6.647 62.7594 6.647C66.4294 6.647 69.4064 9.623 69.4064 13.294V17.725H56.1124L56.1134 13.294Z" fill="#3E8500"/>
</svg>
