<svg width="89" height="71" viewBox="0 0 89 71" fill="none" xmlns="http://www.w3.org/2000/svg">
<path d="M25.372 28.0943C26.798 27.1168 28.5119 26.3778 29.9499 26.4059C31.3925 26.3825 33.0991 27.1102 34.5297 28.0962C33.1037 29.0728 31.3897 29.8109 29.9499 29.7837C28.5128 29.8072 26.8026 29.0794 25.372 28.0943ZM61.8329 28.0943C63.2589 27.1177 64.9738 26.3778 66.4127 26.4059C67.8534 26.3825 69.5618 27.1102 70.9915 28.0962C69.5646 29.0728 67.8516 29.8109 66.4127 29.7837C64.9728 29.8072 63.2644 29.0785 61.8329 28.0943ZM12.6959 0H63.4813C70.4636 0 76.1768 5.81269 76.1768 12.9184V14.0584C73.2362 12.8752 69.9624 12.0742 66.4127 12.0602C58.9136 12.1099 52.6411 15.5778 48.1831 18.9049C43.7233 15.5788 37.4499 12.1099 29.9508 12.0602C22.4655 12.0911 16.182 15.5994 11.7333 18.888C7.27809 22.2065 4.58672 25.4434 4.4575 25.5927L2.37621 28.0962L4.4575 30.5988C4.58672 30.7481 7.27809 33.985 11.7333 37.3045C16.182 40.594 22.4655 44.0994 29.9508 44.1314C37.4518 44.0816 43.7233 40.6137 48.1822 37.2885C52.6411 40.6137 58.9136 44.0816 66.4127 44.1314C69.9615 44.1173 73.2362 43.3163 76.1768 42.1331V45.2122C76.1768 52.3151 70.4636 58.1288 63.4813 58.1288H29.8354L18.0916 70.0791C16.1875 72.0163 12.695 70.7242 12.695 67.8169V58.1269C5.71365 58.1269 -0.000442505 52.3142 -0.000442505 45.2103V12.9184C0.000480652 5.81269 5.71457 0 12.6959 0Z" fill="#76B043"/>
<path d="M48.1826 32.3717C44.0727 35.8743 37.4393 40.2549 29.9503 40.2549C17.4773 40.2549 7.36437 28.0952 7.36437 28.0952C7.36437 28.0952 17.4773 15.9355 29.9503 15.9355C37.4393 15.9355 44.0736 20.3162 48.1826 23.8198C52.2917 20.3162 58.926 15.9355 66.4131 15.9355C78.887 15.9355 89 28.0952 89 28.0952C89 28.0952 78.887 40.2549 66.4131 40.2549C58.9251 40.2549 52.2917 35.8743 48.1826 32.3717ZM29.9494 22.5314C24.2427 22.5314 19.614 28.0962 19.614 28.0962C19.614 28.0962 24.2436 33.661 29.9494 33.661C35.6598 33.661 40.2857 28.0962 40.2857 28.0962C40.2857 28.0962 35.6598 22.5314 29.9494 22.5314ZM76.7485 28.0952C76.7485 28.0952 72.1208 22.5305 66.4131 22.5305C60.7055 22.5305 56.0777 28.0952 56.0777 28.0952C56.0777 28.0952 60.7055 33.66 66.4131 33.66C72.1217 33.66 76.7485 28.0952 76.7485 28.0952Z" fill="#3E8500"/>
</svg>
