<svg width="1066" height="868" viewBox="0 0 1066 868" fill="none" xmlns="http://www.w3.org/2000/svg">
<path d="M1018.64 57.7413C1010.68 48.5967 1001.58 41.14 991.565 34.3518C986.679 31.0307 981.743 27.7727 977.041 24.1734C971.051 19.5969 965.798 15.9539 961.559 9.66997C959.503 6.63258 954.694 -0.802045 950.124 0.520813C947.27 1.35996 947.715 4.09696 948.698 6.29091C950.133 9.44569 953.523 11.4716 955.417 14.3351C957.364 17.2889 957.771 20.3319 958.029 23.7877C958.47 29.736 959.677 36.1022 957.884 41.9044C953.624 55.5487 943.657 68.635 933.619 78.5445C929.624 82.4864 911.188 68.3808 907.025 66.4148C899.044 62.6522 890.695 59.6795 882.004 58.0224C852.232 52.3389 810.251 60.7443 799.458 93.2265C794.766 107.327 796.807 125.446 807.793 136.231C812.451 140.811 819.564 147.036 833.854 148.153C837.533 148.445 842.832 143.32 845.74 140.772C848.926 137.977 850.284 132.375 850.349 128.345C850.402 124.891 849.807 121.268 848.718 117.982C847.157 113.283 842.76 111.658 838.388 110.776C834.728 110.025 830.605 110.513 827.129 109.44C828.564 93.6161 841.962 79.9164 857.618 77.6199C869.391 75.8973 881.093 78.8955 891.685 83.903C897.064 86.4401 902.714 89.0277 907.583 92.4533C910.398 94.4236 917.174 100.689 914.544 105.072C906.204 118.922 901.239 143.574 913.129 156.908C918.502 162.933 926.755 166.797 934.317 169.226C944.092 172.356 955.267 174.351 963.164 166.366C964.161 167.451 965.226 168.342 965.966 169.446C973.866 181.204 980.594 196.875 994.083 203.28C1001.84 206.966 1011.45 207.506 1018.32 212.985C1026.76 219.7 1028.68 232.392 1030.46 242.309C1035.2 268.824 1034.49 318.978 1032.98 323.919C1030.45 332.239 1024.95 323.039 1022.88 319.669C1019.85 314.735 1016.27 310.397 1012.58 305.976C1006.96 299.284 1001.26 292.561 994.58 286.894C991.368 284.163 978.872 277.614 980.168 272.47C980.741 270.246 986.365 267.351 988.125 265.749C999.846 254.971 1004.85 241.936 1000.49 226.223C998.484 218.961 995.943 211.773 989.638 206.785C988.678 206.032 987.973 204.959 987.175 204.026C972.18 186.462 953.467 179.83 930.832 181.692C915.812 182.915 901.564 187.427 886.762 189.953C868.07 193.159 850.6 201.656 835.894 213.539C832.867 215.984 830.375 217.836 826.679 218.929C823.665 219.818 820.094 220.04 820.503 224.174C825.846 225.889 829.92 225.257 835.317 225.306C841.032 225.37 846.253 228.704 851.22 231.213C865.539 238.429 874.657 250.612 878.649 266.046C879.554 269.55 878.745 270.25 875.093 270.793C862.229 272.725 850.024 275.084 838.164 280.677C824.493 287.127 813.569 297.557 804.265 309.305C797.29 318.142 776.145 354.478 774.669 360.027C774.493 360.645 767.627 362.477 766.954 362.667C745.113 368.957 719.494 369.273 700.934 383.777C697.456 386.499 693.848 386.389 690.061 384.688C688.291 383.903 686.558 383.002 684.752 382.273C676.656 379.025 668.558 375.399 659.649 375.735C651.45 376.048 643.063 378.388 635.631 381.802C618.881 389.488 607.932 406.238 603.328 423.635C597.557 445.491 605.026 467.96 600.825 489.899C599.741 495.558 597.704 507.153 593.042 511.101C589.606 514.015 584.772 510.784 581.33 509.546C576.785 507.903 572.004 506.999 567.207 506.603C557.698 505.823 547.359 506.899 538.83 511.437C519.638 521.66 502.996 549.51 504.963 571.345C506.225 585.328 515.165 598.009 527.828 604.04C538.501 609.129 548.669 607.533 559.035 602.794C557.173 598.467 552.655 593.341 554.246 588.826C558.842 575.839 568.133 580.979 572.933 584.745C581.726 591.66 583.241 605.635 577.055 615.66C563.748 637.205 530.458 638.492 515.359 619.036C498.6 597.449 496.961 563.104 507.117 538.398C516.689 515.078 542.128 493.03 560.199 498.683C563.026 499.571 574.606 493.718 567.009 491.705C557.192 489.097 542.481 494.892 534.01 499.173C508.199 512.22 497.361 542.509 494.694 569.756C492.306 594.193 504.33 630.283 530.205 638.397C553.496 645.715 592.908 627.17 586.095 596.364C583.623 585.187 572.537 567.956 560.532 573.582C548.794 579.087 547.856 585.582 548.401 594.645C549.134 606.774 522.33 598.199 514.347 581.232C507.683 567.056 513.432 551.656 519.717 538.348C525.053 527.059 536.634 517.333 548.36 512.506C550.855 511.478 553.826 511.26 556.584 511.224C561.855 511.131 567.123 511.478 572.394 511.532C578.766 511.603 584.231 513.824 589.112 517.853C588.768 518.612 588.628 519.131 588.343 519.545C582.914 527.068 576.066 532.52 566.752 534.492C565.612 534.737 563.996 535.842 563.819 536.788C563.507 538.362 564.588 539.578 566.463 540.113C570.298 541.228 574.138 541.247 577.937 540.421C586.371 538.579 594.751 536.467 603.152 534.463C604.162 534.215 605.257 533.548 606.157 533.751C627.316 538.644 628.125 556.373 632.245 574.47C635.533 588.849 633.305 603.256 628.318 616.95C624.304 627.966 615.103 635.586 607.843 644.407C594.402 660.773 583.497 677.808 565.118 689.317C551.997 697.539 538.012 704.368 523.826 710.522C509.572 716.706 494.535 721.639 481.233 729.785C468.337 737.68 456.254 748.22 445.988 759.285C441.104 764.548 436.905 770.312 432.789 776.19C427.904 783.15 424.026 791.257 416.206 795.429C415.055 796.042 409.053 793.873 407.621 793.538C404.159 792.742 400.716 791.891 397.287 790.928C390.056 788.91 380.674 784.804 374.288 780.852C355.746 769.407 342.262 758.886 329.048 743.184C314.191 725.532 302.286 704.635 297.431 681.913C294.845 669.762 298.806 639.96 299.498 637.255C301.399 629.747 302.873 622.065 305.536 614.832C308.995 605.418 313.396 596.355 317.456 587.162C321.333 578.427 325.773 569.996 331.693 562.43C338.744 553.411 347.049 545.819 358.017 541.988C369.961 537.809 385.995 536.508 398.666 537.518C413.806 538.737 425.683 544.078 438.416 551.901C445.632 556.337 451.852 562.192 457.831 568.254C464.389 574.903 469.305 582.595 472.606 591.201C476.039 600.154 480.015 611.925 479.106 621.466C476.875 644.908 474.61 662.408 466.406 676.954C463.828 681.531 456.848 691.627 453.314 695.518C444.781 704.92 433.398 709.687 421.642 713.611C414.434 716.027 407.415 714.643 400.489 712.38C399.301 711.99 398.291 711.016 396.052 709.582C397.209 710.334 403.75 708.148 405.165 707.873C408.563 707.201 411.968 706.499 415.341 705.635C422.375 703.827 429.314 701.377 435.486 697.451C453.535 685.995 460.787 662.381 453.257 642.476C449.248 631.869 440.63 624.156 430.374 619.729C425.264 617.526 419.904 615.916 414.419 615.074C412.023 614.694 401.926 615.191 400.341 613.25C398.257 610.685 399.285 604.913 399.189 601.871C399.056 597.663 398.737 593.52 397.377 589.496C395.984 585.371 383.84 553.573 375.84 560.457C373.738 562.255 374.494 566.542 374.463 568.917C374.376 580.892 365.252 593.354 358.023 602.347C349.26 613.258 337.477 621.413 329.952 633.364C323.222 644.056 319.503 657.371 320.099 669.992C320.637 681.829 324.317 693.951 330.026 704.299C338.094 718.955 352.567 731.934 367.229 739.804C373.917 743.401 381.147 745.402 388.774 744.336C404.309 742.144 415.462 734.834 422.076 720.605C424.36 715.681 432.081 715.3 436.726 713.228C442.864 710.509 448.712 707.02 453.954 702.823C462.361 696.092 469.573 685.819 473.817 676.021C481.912 657.339 485.375 636.73 485.284 616.625C485.164 592.716 479.742 564.841 462.103 546.705C442.836 526.885 409.575 513.788 381.896 514.707C369.808 515.124 348.834 519.786 341.181 530.46C338.484 534.221 339.673 537.56 342.819 534.204C345.88 530.939 358.949 524.759 367.856 522.514C378.7 519.78 390.928 522.466 401.866 523.694C408.124 524.399 414.442 525.835 420.346 528C433.151 532.684 444.616 539.829 455.415 548.235C465.199 555.852 475.184 575.569 477.121 588.517C475.032 581.206 466.546 567.97 463.05 563.407C458.168 557.039 436.432 532.614 387.973 530.057C379.385 529.605 371.417 531.927 363.096 534.203C355.303 536.337 345.393 541.819 339.594 547.956C336.725 550.989 333.567 553.742 330.531 556.605C330.213 556.427 329.899 556.256 329.575 556.082C329.972 554.683 330.245 553.234 330.772 551.898C334.535 542.325 335.934 532.398 333.986 522.321C332.864 516.491 330.866 510.736 328.576 505.236C326.358 499.935 323.917 494.488 320.436 489.994C307.623 473.468 285.808 463.387 265.737 459.096C239.599 453.508 207.318 458.867 189.084 480.014C181.115 489.245 156.163 459.863 152.444 454.646C145.14 444.411 147.076 435.309 148.163 423.531C130.652 425.909 149.312 459.337 154.452 464.499C155.668 465.724 156.802 467.048 157.89 468.381C163.894 475.694 171.172 481.592 180.166 484.355C186.491 486.295 192.566 489.514 199.444 489.552C200.306 489.553 201.217 489.835 202.006 490.189C210.665 494.084 219.197 498.147 226.857 503.962C234.743 509.946 239.291 517.747 241.04 527.285C241.412 529.299 241.77 532.035 240.757 533.454C237.706 537.72 234.58 542.407 230.354 545.235C224.363 549.236 217.223 551.398 209.756 550.832C206.654 550.585 205.07 551.611 204.237 555.25C203.75 557.355 224.739 552.048 226.13 551.537C234.232 548.493 241.808 543.721 245.324 535.463C251.793 520.267 237.714 502.518 224.944 495.585C223.996 495.075 223.33 494.057 222.401 493.148C229.431 488.219 237.113 486.923 244.878 486.887C256.261 486.843 266.716 490.527 276.259 496.639C295.467 508.939 311.657 530.536 298.944 553.631C298.374 554.657 297.095 555.301 295.66 556.525C295.385 554.947 295.171 554.278 295.163 553.595C295.184 545.736 290.304 541.129 284.194 537.535C282.45 536.511 280.156 535.892 278.127 535.954C271.764 536.153 265.393 537.277 259.889 540.498C254.269 543.787 249.237 547.631 248.963 555.515C248.409 571.389 254.456 581.353 268.849 587.908C273.894 590.208 280.999 595.078 286.763 593.066C280.326 599.915 275.077 606.706 271.499 615.586C268.113 623.994 266.876 627.29 262.069 642.773C260.844 641.097 259.901 638.304 259.496 636.172C258.876 632.848 258.097 629.563 257.533 626.233C256.443 619.713 255.725 613.985 253.166 607.797C247.487 594.059 240.856 583.099 228.76 574.16C223.154 570.024 216.493 568.278 209.851 566.505C200.654 564.047 191.556 561.61 181.845 561.763C177.4 561.827 172.647 560.717 168.542 558.958C156.644 553.862 145.741 547.451 137.839 536.494C132.26 528.755 128.199 519.684 128.733 509.972C128.968 505.835 130.2 501.846 131.296 497.875C132.204 494.589 132.28 487.361 133.96 484.73C123.984 500.274 120.908 515.325 129.866 532.357C137.877 547.57 151.775 559.315 168.332 564.061C184.159 568.6 201.066 567.724 216.453 574.108C240.172 583.941 250.03 608.265 254.2 631.977C254.722 634.937 260.015 672.049 259.182 672.23C243.827 675.496 228.162 677.092 212.528 675.031C203.164 673.788 193.424 670.733 185.232 666.051C170.075 657.4 158.18 644.49 149.833 629.29C148.637 627.116 136.818 602.599 142.995 601.51C144.134 601.308 145.342 601.075 146.551 600.875C157.674 599.072 168.263 596.045 176.958 588.323C182.861 583.081 186.497 576.834 186.718 568.8C182.743 568.024 181.981 568.344 181.604 571.891C181.096 576.718 179.182 581.076 175.639 583.939C171.153 587.537 166.074 590.616 160.824 592.994C141.547 601.7 112.334 595.032 97.0696 581.143C68.5378 555.171 73.917 510.036 95.6105 481.592C107.089 466.549 120.51 453.068 131.537 437.675C143.285 421.281 147.426 405.227 152.237 386.119C152.738 384.126 153.189 382.403 151.413 380.951C143.728 382.662 143.666 382.732 143.989 390.323C144.018 391.029 144.024 391.74 144.133 392.434C145.826 403.097 142.018 412.815 137.7 421.934C132.636 432.636 123.986 441.046 115.714 449.411C111.127 454.056 106.455 458.406 103.58 464.42C102.82 465.995 101.027 467.09 99.748 468.362C98.8572 467.758 98.3599 467.538 98.0043 467.175C90.9892 459.81 81.919 455.515 72.5546 452.931C56.5097 448.491 41.1847 450.691 28.465 462.631C23.5929 467.2 18.1283 471.517 14.594 477.017C9.14118 485.526 4.26515 494.467 2.00546 504.677C0.0417516 513.537 0.558827 521.911 4.55495 529.858C8.46337 537.624 13.7599 544.218 21.894 548.322C30.2486 552.539 38.1484 554.137 47.4067 550.296C56.3035 546.604 61.3721 540.364 63.9338 531.735C64.962 528.242 66.653 524.392 64.3438 520.572C62.7943 518.008 61.2052 515.45 59.9019 512.762C57.4417 507.652 52.5977 506.251 47.8303 505.623C41.9625 504.848 36.4142 506.831 31.3496 509.919C28.1907 511.838 26.4046 515.106 26.0008 518.325C25.5442 521.944 27.2001 525.556 30.0745 528.284C33.1624 531.232 35.4496 531.245 39.3101 527.949C38.1602 526.479 37.1501 524.834 35.8033 523.53C34.113 521.899 33.8948 520.046 33.6749 517.833C33.2904 513.994 36.609 513.842 38.4949 512.4C41.8045 509.878 49.576 509.674 52.3281 512.533C56.1218 516.45 59.6392 521.155 57.8856 527.072C55.9283 533.709 53.0161 540.062 46.7288 543.908C42.9497 546.228 39.0271 547.659 34.2651 547.011C-2.93595 541.884 7.03801 494.397 24.1224 475.059C34.8103 462.967 53.232 451.098 70.4279 457.084C77.7509 459.634 84.7255 462.773 91.1332 467.255C94.1369 469.357 94.3586 472.154 94.2879 475.086C94.2538 476.516 93.0755 477.902 92.2582 479.631C89.2843 476.969 87.2504 474.341 84.5725 472.936C78.4809 469.718 71.8671 467.859 64.9787 466.985C57.0436 465.966 50.9206 470.991 43.9116 473.051C43.4917 473.173 43.2481 473.839 42.8801 474.215C41.6568 475.463 40.5684 476.9 39.1554 477.88C32.3407 482.616 28.2394 489.01 26.1463 497.05C24.8903 501.862 24.4506 506.315 26.9412 511.209L30.5669 509.115C30.624 505.847 30.2513 503.146 30.7877 500.633C35.6429 478.084 71.8174 459.043 87.0604 483.278C88.3413 485.317 88.5344 487.141 87.273 489.143C85.9694 491.221 84.4861 493.196 83.3039 495.35C78.2644 504.515 75.1103 514.337 73.3989 524.617C72.9429 527.358 73.1761 530.235 72.6248 532.945C69.6469 547.751 71.5269 562.358 82.4868 573.098C87.3916 577.896 90.4039 583.693 96.1222 587.755C96.9974 588.377 97.8553 589.654 97.92 590.675C98.606 601.024 100.14 611.607 102.896 621.621C106.556 634.916 113.467 646.928 121.066 658.344C133.328 676.746 150.912 691.016 171.692 698.709C199.413 708.975 232.001 709.392 259.982 699.953C261.349 699.49 262.77 699.134 264.462 698.638C265.061 702.491 265.632 705.611 266.008 708.749C266.407 712.003 266.605 715.279 266.871 718.317C258.859 716.079 250.967 713.839 243.06 711.678C232.764 708.866 222.221 707.22 211.632 708.697C198.036 710.613 185.34 715.399 174.422 724.009C170.825 726.852 166.795 729.601 165.63 734.378C168.222 737.183 170.974 737.598 174.178 737.038C187.194 734.787 199.028 741.976 208.492 750.259C217.754 758.357 225.84 767.995 235.736 775.357C246.83 783.619 258.598 786.864 272.312 787.521C279.095 787.854 285.659 788.064 292.157 785.937C297.165 784.301 302.22 782.776 307.207 781.057C309.718 780.192 311.517 780.237 313.879 782.168C326.749 792.7 340.619 800.761 356.774 804.974C371.576 808.84 385.457 812.602 400.81 813.207C400.239 814.81 399.902 816.132 399.317 817.339C397.986 820.026 396.504 822.629 395.156 825.3C392.174 831.22 392.222 837.232 395.002 843.163C400.181 854.231 412.719 861.685 424.274 864.398C433.652 866.605 442.737 867.871 452.304 867.946C462.439 868.021 473.531 866.64 483.596 865.224C493.41 863.849 502.702 860.677 511.856 856.939C526.15 851.076 540.001 845.684 553.224 837.566C566.972 829.119 579.952 819.403 591.997 808.678C603.492 798.461 613.298 787.017 622.639 774.842C636.316 757.007 653.266 741.919 666.303 723.558C673.916 712.829 683.383 703.645 692.386 694.118C701.449 684.531 709.681 674.22 718.106 664.08C720.076 661.712 722.459 659.699 723.958 658.214C731.498 658.205 738.263 658.315 745.02 658.156C748.149 658.078 750.988 657.109 751.472 653.285C747.061 648.984 740.054 649.469 735.823 644.66C736.194 643.559 736.296 642.365 736.93 641.646C740.756 637.32 744.412 632.628 748.754 629.019C804.465 582.744 845.548 577.938 845.36 578.296C841.826 585.465 836.059 595.635 830.421 601.842C824.539 608.327 819.454 615.015 813.327 621.254C801.046 633.759 788.627 646.101 775.91 658.134C763.078 670.268 749.787 682.142 738.726 695.972C728.448 708.833 718.481 725.361 720.846 742.535C722.942 757.74 735.225 771.441 749.738 774.985C759.318 777.333 780.832 772.367 782.901 760.1C784.859 748.473 765.407 746.165 761.923 735.573C753.423 709.801 792.679 671.739 812.563 651.601C824.851 639.153 835.677 625.528 846.758 612.031C852.234 605.35 857.858 598.807 863.701 592.447C866.711 589.169 869.777 585.927 872.869 582.73C878.116 577.291 879.619 573.025 887.767 572.595C888.276 572.568 904.175 573.074 903.529 574.101C902.971 574.982 902.55 575.982 901.833 576.706C896.297 582.39 890.693 588.001 885.116 593.656C882.753 596.045 880.161 598.247 878.051 600.834C862.434 620.048 846.867 639.302 831.356 658.609C829.295 661.193 827.721 664.158 825.833 666.892C814.672 682.947 803.594 698.534 798.352 717.718C795.738 727.298 794.914 743.406 803.308 750.431C820.485 764.816 847.906 742.64 861.645 731.84C883.188 714.917 901.907 694.462 922.532 676.442C942.757 658.757 963.655 641.449 978.01 618.412C1004.13 576.504 1007.69 540.134 997.581 529.757C992.721 524.769 986.771 521.348 980.076 518.977C980.332 517.9 980.37 516.983 980.746 516.233C982.985 511.679 1005.86 473.554 1009.32 468.085C1016.05 457.506 1023.87 447.564 1028.72 435.85C1041.3 405.396 1053.47 376.092 1059.21 343.457C1064.72 312.16 1068.9 281.064 1062.1 249.646C1060.37 241.672 1058.49 233.671 1056.01 225.899C1051.43 211.598 1045.66 198.553 1037.55 185.903C1033.44 179.491 1028.8 174.567 1022.97 169.717C1017.53 165.184 1017.93 164.292 1023.66 161.224C1027.95 158.92 1031.79 155.004 1034.63 151.068C1040.42 143.016 1043.86 133.17 1044.81 123.319C1047.2 98.5821 1034.37 75.8079 1018.64 57.7413ZM403.609 734.556C393.424 741.694 377.061 740.174 370.984 735.863C366.12 732.4 360.714 729.715 356.104 725.933C306.903 685.562 331.26 640.472 340.214 628.728C343.162 624.866 347.167 621.805 350.65 618.331C354.012 614.961 357.2 611.425 360.681 608.202C371.436 598.282 376.434 585.141 381.472 570.686C386.17 575.32 387.324 580.908 389.557 585.624C391.891 590.53 392.586 596.427 393.079 601.958C393.556 607.266 392.833 612.674 392.631 618.641C398.289 618.367 427.95 618.72 439.922 632.867C453.824 649.281 450.281 662.469 448.797 670.088C443.361 695.579 399.452 704.461 392.48 705.304C386.937 705.985 369.209 677.447 367.743 672.435C365.259 663.993 365.552 655.263 365.871 646.595C365.927 645.083 366.938 643.631 367.324 642.109C367.638 640.835 368.233 638.693 367.73 638.329C366.552 637.496 364.763 637.496 362.96 637.101C362.041 642.794 357.283 654.755 360.224 667.967C370.166 698.455 385.926 710.371 386.856 710.849C390.357 712.682 393.825 714.559 397.094 716.853C392.594 717.284 388.807 715.435 385.252 713.419C379.1 709.917 373.809 705.195 369.228 699.84C365.368 695.332 361.508 690.747 358.424 685.706C355.424 680.779 353.389 675.244 350.985 669.964C349.743 667.232 349.084 666.374 346.335 664.58C344.508 665.824 344.164 667.27 345.012 669.482C348.996 679.897 352.987 690.265 360.185 699.048C367.029 707.399 374.25 715.196 384.436 719.663C391.727 722.86 399.142 724.377 407.058 722.756C408.955 722.375 410.919 722.35 413.514 722.091C411.404 727.585 410.084 729.947 403.609 734.556ZM903.566 85.3181C892.914 78.3148 881.928 70.6875 868.774 71.3582C848.462 72.3859 838.994 80.3485 833.091 84.1448C830.855 85.591 829.201 88.2239 827.727 90.5889C822.798 98.529 819.748 107.027 820.958 116.601C820.995 116.949 820.897 117.315 820.937 117.653C821.259 120.341 822.748 121.623 825.068 121.29C828.05 120.867 827.386 118.868 826.557 116.137C830.649 115.908 833.99 115.407 837.273 115.61C841.602 115.88 843.447 118.092 843.865 122.376C844.386 127.866 844.837 133.206 841.159 138.084C838.241 141.954 835.13 143.793 830.001 142.807C819.266 140.755 812.487 134.484 807.126 125.2C802.54 117.274 802.058 109.543 804.203 101.146C805.032 97.8881 810.789 82.1745 815.029 79.0724C838.974 60.3825 873.14 60.5514 883.563 63.1357C885.098 63.5141 894.745 66.3654 897.729 68.1353C904.368 72.0787 910.986 76.0601 917.57 80.0869C920.54 81.9077 923.399 83.8787 926.71 86.0361C924.387 89.0898 922.099 92.1146 919.668 95.3249C913.597 92.8861 908.796 88.7588 903.566 85.3181ZM866.914 234.315C861.179 229.315 854.232 225.524 846.87 222.876C843.951 221.843 841.201 220.359 837.32 218.6C846.196 212.726 853.588 206.547 862.029 202.601C877.462 195.375 894.745 192.26 911.283 188.645C935.726 183.314 961.474 184.206 980.255 202.843C987.81 210.353 993.612 220.251 994.187 231.078C995.075 247.798 986.756 257.764 975.879 269.036C972.3 272.746 963.363 259.341 961.117 257.3C955.296 251.972 949.749 246.865 944.504 240.971C942.815 239.074 935.706 232.321 933.18 236.706C931.212 240.122 937.242 243.531 939.289 245.214C943.669 248.836 947.596 253.072 951.645 257.075C952.632 258.07 953.394 259.403 954.546 260.131C960.66 264.016 960.985 269.628 959.342 275.781C956.273 287.241 949.78 295.826 939.897 302.488C926.912 311.243 909.657 314.54 899.182 300.587C883.805 280.069 887.304 252.058 866.914 234.315ZM963.54 302.729C961.344 300.952 958.32 300.186 955.212 298.737C960.458 291.509 964.202 283.376 966.116 273.194C969.335 278.769 971.953 282.944 974.225 287.31C978.581 295.703 982.74 304.185 986.964 312.646C987.66 314.06 988.406 315.487 988.87 316.974C990.472 322.192 992.006 327.44 993.467 332.696C994.46 336.218 995.285 339.777 995.29 343.748C993.908 341.355 992.4 339.042 991.177 336.582C984.498 323.199 975.109 312.05 963.54 302.729ZM792.995 337.967C796.92 330.358 801.396 322.869 806.409 315.922C821.925 294.434 850.65 271.669 879.186 277.91C880.211 278.136 881.456 279.086 881.891 280.047C883.066 282.544 883.842 285.227 884.902 288.194C883.005 288.799 881.573 289.506 880.085 289.686C865.456 291.527 854.621 298.79 841.93 305.612C828.34 312.901 816.67 321.653 807.58 334.233C803.545 339.833 800.034 345.835 797.644 352.317C794.969 359.618 794.079 367.298 792.241 374.812C791.441 378.105 790.936 380.255 791.393 381.462C791.919 382.836 793.673 382.967 797.631 382.119C802.021 381.2 807.053 382.897 810.053 386.379C812.42 389.107 814.228 393.861 812.222 397.136C809.15 402.154 798.432 405.255 792.95 404.627C781.371 403.287 776.418 390.644 777.385 380.252C778.803 365.099 786.131 351.257 792.995 337.967ZM738.014 376.18C747.359 373.949 756.617 371.313 766.063 369.54C767.878 369.198 769.7 368.868 772.242 368.398C770.407 368.735 770.842 385.071 771.02 386.809C771.734 393.676 774.349 400.081 779.377 404.886C789.169 414.244 810.377 414.678 817.2 400.989C819.941 395.501 819.378 389.253 816.789 384.278C813.82 378.525 808.465 377.015 802.01 376.802C800.837 376.766 799.639 376.941 798.468 377.015C797.724 377.066 798.882 370.401 799.593 369.637C801.454 367.616 805.071 367.919 807.534 367.968C815.946 368.143 824.315 370.107 831.839 373.9C836.57 376.296 836.022 380.174 835.845 385.112C835.539 393.178 835.805 400.879 836.379 408.919C837.173 419.842 839.953 429.826 842.497 440.367C832.161 437.234 823.344 433.705 812.436 432.365C799.577 430.791 788.3 429.87 775.947 434.475C765.232 438.461 755.092 443.576 745.75 450.236C743.893 451.55 741.813 452.596 739.717 453.48C738.688 453.919 737.291 453.986 736.192 453.708C731.295 452.424 726.451 450.963 720.579 449.286C729.427 439.342 740.666 426.64 737.851 412.262C735.609 400.781 725.989 390.679 715.382 386.256C714.742 385.981 714.159 385.552 713.599 385.135C713.04 384.718 709.609 384.05 708.96 383.478C716.398 378.331 729.453 378.234 738.014 376.18ZM876.838 518.752C879.57 512.623 882.401 506.531 884.68 500.242C885.803 497.167 885.8 493.676 886.285 490.359C887.489 482.016 889.44 473.774 889.031 465.26C888.515 454.52 886.485 444.078 883.089 433.908C881.446 429.007 880.33 423.766 877.789 419.366C874.376 413.457 869.847 408.191 865.709 402.709C864.341 400.892 862.7 399.302 861.19 397.61C861.228 397.201 861.26 396.778 861.305 396.365C862.284 396.436 863.64 396.118 864.202 396.645C874.048 405.679 884.292 414.553 890.013 426.933C894.543 436.757 898.76 446.935 899.936 457.775C903.845 481.87 896.629 511.831 893.867 518.295C892.783 520.857 891.592 523.369 890.212 526.402C884.431 527.564 878.549 530.996 870.973 531.061C873.135 526.551 875.079 522.693 876.838 518.752ZM866.198 530.033C864.991 532.889 862.925 534.332 860.134 535.367C844.255 541.242 828.323 546.993 812.621 553.308C787.221 563.52 763.449 579.563 742.234 596.71C735.872 601.855 729.285 607.492 723.515 613.276C721.787 615.022 719.013 618.517 716.771 618.805C715.483 618.973 714.368 618.085 713.731 615.21C712.812 611.146 714.773 605.944 715.72 601.999C717.513 594.511 720.337 587.245 724.45 580.722C740.349 555.65 769.28 544.268 790.871 525.209C800.55 516.659 807.735 506.04 808.155 492.764C808.849 470.949 790.422 450.661 768.572 449.979C766.685 449.915 764.781 450.611 762.866 450.839C761.205 451.033 759.518 451.061 757.835 451.155C757.732 450.784 757.621 450.427 757.526 450.069C763.745 447.088 770.013 444.191 776.171 441.091C794.231 431.977 823.729 435.504 840.704 445.859C853.573 453.707 863.028 468.172 869.244 481.574C872.794 489.254 874.581 497.816 874.084 506.267C873.552 515.281 869.6 521.951 866.198 530.033ZM866.158 461.512C860.169 451.455 853.834 423.59 853.444 420.994C852.363 413.729 853.805 406.736 855.648 398.875C855.283 400.462 863.585 408.461 864.827 410.075C867.28 413.236 869.487 416.521 871.378 420.049C875.553 427.859 878.551 436.417 880.377 445.076C883.083 457.984 885.3 473.205 880.199 485.795C878.269 482.453 876.727 480.229 875.639 477.795C873.055 472.009 869.377 466.906 866.158 461.512ZM854.058 383.92C849.472 394.242 846.634 405.224 847.007 416.641C847.226 423.44 848.497 430.2 849.285 436.972C849.423 438.165 849.533 439.383 849.662 440.574C849.28 440.657 848.905 440.753 848.525 440.826C842.368 421.359 839.52 401.487 841.096 381.124C845.085 365.373 854.215 358.896 857.763 355.075C864.939 347.36 876.532 346.713 883.693 354.167C888.854 359.557 891.093 366.92 891.372 374.45C891.514 378.136 884.705 382.584 880.795 381.892C877.462 381.304 874.605 380.097 872.33 377.29C870.491 375.014 867.949 373.308 865.922 371.527C858.051 372.227 856.333 378.803 854.058 383.92ZM434.192 794.067C434.708 784.443 441.176 775.606 447.032 768.378C457.907 754.956 472.825 741.653 487.609 732.736C505.295 722.067 525.799 714.415 544.983 706.829C552.856 703.719 560.426 700.053 567.396 695.228C567.937 694.855 568.633 694.703 570.548 693.924C566.54 699.138 563.571 703.666 559.928 707.576C554.642 713.262 549.356 719.154 543.141 723.706C537.204 728.055 531.652 732.965 524.652 736.173C511.604 742.168 499.909 750.282 487.435 757.313C477.589 762.862 442.243 780.538 454.986 796.675C457.956 800.432 462.323 803.003 467.059 803.503C484.19 805.354 506.236 792.192 517.745 780.331C525.389 772.458 530.757 762.76 536.869 753.724C544.027 743.163 549.948 732.052 557.446 721.751C565.547 710.603 573.57 699.38 581.675 688.238C593.834 671.528 642.614 614.682 648.808 610.718C650.566 609.591 662.437 603.02 659.031 600.16C654.302 596.189 640.907 610.042 637.46 612.729C637.727 606.071 640.236 599.675 640.084 592.991C639.957 587.258 639.204 581.515 638.442 575.847C637.319 567.496 636.454 558.936 633.286 551.053C630.079 543.071 624.194 537.41 618.897 530.859C622.493 529.548 626.374 528.09 630.279 526.703C632.91 525.777 634.958 524.423 635.17 521.169C632.498 519.537 629.832 519.657 627.046 520.509C619.516 522.844 611.996 525.226 604.405 527.321C599.523 528.669 594.508 529.535 589.52 530.626C589.574 530.182 589.483 529.727 589.664 529.519C596.762 521.505 602.161 512.159 605.162 501.848C608.463 490.521 607.429 480.94 606.772 469.404C606.445 463.639 606.198 457.862 606.271 452.09C606.492 431.572 611.857 410.949 625.987 395.476C633.49 387.255 642.997 382.28 654.083 381.367C665.409 380.435 675.664 384.502 686.316 387.633C688.009 388.136 688.692 386.683 688.803 389.139C684.924 391.732 679.68 393.944 675.889 397.019C659.658 410.221 653.546 416.039 648.654 429.438C646.499 435.345 647.445 435.092 650.955 430.398C657.219 422.014 664.153 414.594 672.372 408.075C682.115 400.349 694.025 388.885 707.409 389.312C717.375 389.631 726.759 398.373 730.029 407.566C732.704 415.089 731.556 425.018 726.567 431.469C722.483 436.762 718.371 442.036 714.363 447.387C710.002 453.227 697.032 452.638 690.488 454.49C682.161 456.83 674.573 460.808 668.446 466.987C647.182 488.413 637.018 513.331 643.017 543.531C646.054 558.786 651.043 573.637 657.009 587.975C659.768 594.615 663.076 601.773 667.161 607.699C668.767 610.032 670.76 611.591 670.196 613.715C670.046 614.275 669.729 614.871 669.177 615.525C667.243 617.838 662.233 619.217 659.629 620.979C656.752 622.925 653.876 625.11 651.658 627.75C641.697 639.611 636.099 652.351 628.953 665.899C621.76 679.543 616.543 694.479 608.746 707.732C599.158 724.023 589.525 740.057 578.465 755.392C567.611 770.444 553.97 783.32 539.977 795.41C521.81 811.116 499.499 825.188 475.214 828.26C465.906 829.437 455.734 828.747 448.047 822.811C439.488 816.242 433.614 804.983 434.192 794.067ZM541.592 734.804C531.82 748.914 523.232 764.344 511.795 777.194C506.743 782.865 501.523 786.534 494.872 790.108C484.697 795.58 479.422 800.39 467.554 797.745C456.856 795.354 459.592 787.95 463.925 782.135C468.006 776.673 473.849 773.221 479.293 769.449C485.378 765.238 492.055 761.872 498.471 758.159C503.183 755.429 507.865 752.63 512.665 750.039C517.618 747.368 522.742 744.993 527.709 742.332C531.073 740.544 534.282 738.458 537.6 736.577C538.628 735.974 539.78 735.584 541.592 734.804ZM692.117 636.88C694.237 639.046 697.299 640.624 695.913 643.721C695.086 645.567 690.999 647.635 689.418 649.159C685.127 653.289 680.614 657.272 676.844 661.858C667.084 673.723 656.995 685.348 645.893 695.992C632.386 708.938 620.574 723.477 606.92 736.317C599.506 743.292 592.544 750.737 585.392 757.973C585.225 757.846 585.057 757.719 584.889 757.592C590.64 748.498 596.444 739.434 602.123 730.304C618.012 704.755 628.359 676.893 641.557 649.99C645.912 641.144 651.465 632.972 659.044 626.522C662.229 623.814 666.038 621.769 669.772 619.819C673.847 617.698 675.677 620.255 678.466 623.074C683.029 627.683 687.59 632.259 692.117 636.88ZM280.73 585.435C269.565 586.049 260.116 576.063 256.424 566.572C250.658 551.731 262.687 542.78 276.969 541.01C284.245 540.112 289.449 548.11 288.892 554.773C288.187 563.086 280.527 560.429 275.189 563.968C272.776 565.568 272.72 566.753 273.858 567.576C276.04 569.181 282.66 569.47 285.236 568.895C309.138 563.686 313.791 534.397 304.139 515.821C291.074 490.665 257.233 470.873 229.302 482.96C225.795 484.486 222.425 486.381 219.066 488.252C216.95 489.43 215.173 489.854 212.666 488.73C208.073 486.676 200.446 483.51 195.101 481.658C194.753 481.532 213.168 468.669 228.478 464.938C241.627 461.741 254.832 461.368 268.271 464.051C300.953 470.574 335.379 503.415 325.82 539.435C320.15 560.871 305.212 584.089 280.73 585.435ZM259.949 694.086C245.408 699.998 230.005 699.455 214.587 699.214C206.782 699.092 198.712 697.989 191.102 696.283C162.412 689.864 139.55 674.589 123.433 650.464C118.65 643.315 117.136 638.846 113.497 631.054C109.252 621.977 103.393 606.468 103.393 592.151C113.039 596.759 125.538 602.119 137.058 601.419C134.598 615.513 146.55 664.722 210.712 680.588C217.072 682.275 249.405 680.207 260.068 678.575C260.876 682.298 261.672 685.882 262.439 689.474C262.906 691.699 262.077 693.228 259.949 694.086ZM303.021 776.713C285.494 782.429 263.87 784.344 247.09 775.072C236.477 769.208 228.508 759.744 219.003 752.388C209.923 745.363 202.463 737.824 192.024 732.634C187.802 730.538 183.003 729.662 177.639 729.714C180.312 727.817 182.841 725.686 185.679 724.09C197.494 717.482 209.841 714.206 223.719 715.922C233.072 717.085 242.139 719.11 251.093 721.596C259.607 723.958 267.215 728.761 273.613 734.848C276.424 737.526 277.645 741.846 279.769 745.299C283.069 750.672 286.54 755.937 290.339 761.874C278.464 758.175 268.418 753.576 257.66 747.253C250.518 743.049 243.052 739.953 235.553 736.472C234.509 740.207 236.505 741.489 238.61 742.287C246.656 745.314 252.869 751.44 260.398 755.196C269.781 759.869 278.317 766.382 289.093 768.237C294.704 769.195 300.381 770.726 305.639 774.633C304.697 775.4 303.973 776.395 303.021 776.713ZM373.516 803.082C365.882 800.858 357.86 799.674 350.318 797.251C324.648 789.001 302.1 767.402 287.56 745.205C283.363 738.801 279.886 731.604 277.242 724.433C268.282 700.158 264.701 669.438 268.533 643.806C271.356 624.978 278.873 609.616 290.932 595.175C291.993 593.9 293.847 593.147 293.383 590.869C293.3 590.487 294.781 589.743 295.578 589.231C301.652 585.345 307.785 581.528 313.804 577.561C315.201 576.643 316.231 575.179 317.43 573.962C317.744 574.193 318.064 574.405 318.382 574.642C317.063 577.245 315.523 579.778 314.451 582.479C311.046 591.139 306.978 599.468 302.874 607.809C295.11 623.623 290.987 642.196 290.216 659.736C289.029 687.505 302.244 713.754 317.711 735.992C322.092 742.297 326.884 748.331 332.054 753.992C343.016 765.987 356.024 775.982 370.223 783.854C383.136 791.005 396.835 795.121 410.269 800.879C409.419 804.829 405.456 807.203 401.618 807.217C392.064 807.254 382.662 805.767 373.516 803.082ZM653.802 728.635C621.34 767.334 589.483 806.663 545.778 833.297C524.189 846.444 500.176 856.87 474.881 859.786C463.418 861.106 451.582 861.377 440.195 859.565C391.144 851.707 399.474 829.052 403.852 820.321C406.227 815.585 409.304 811.245 412.715 807.201C413.987 805.693 423.195 797.922 422.995 796.472C423.358 799.128 423.896 801.251 423.904 803.381C423.919 813.894 432.981 822.926 441.122 828.531C460.227 841.682 492.987 836.407 511.326 824.38C538.976 806.235 564.679 785.18 588.601 762.366C603.335 748.299 618.771 735.341 631.842 719.645C651.974 695.483 675.022 673.346 696.357 650.21C697.635 648.818 699.027 647.533 700.325 646.25C706.277 649.377 711.829 652.287 718.109 655.578C697.189 680.401 674.653 703.783 653.802 728.635ZM729.353 652.405C716.968 648.984 707.485 643.096 698.506 633.879C684.156 619.161 672.394 603.085 663.09 584.695C649.467 557.753 641.67 524.633 654.492 495.918C660.57 482.324 670.843 470.542 684.008 463.455C697.564 456.151 719.185 449.851 733.902 457.13C734.018 457.183 734.02 457.44 734.233 458.032C734.958 460.048 716.562 476.892 714.585 479.694C705.208 492.939 700.278 507.985 698.967 524.022C698.066 535.021 691.218 557.56 705.462 563.366C704.268 562.877 703.529 549.366 703.393 547.672C702.939 541.568 703.066 535.412 703.577 529.309C704.728 515.541 707.177 501.816 714.88 490.097C719.747 482.718 726.422 475.121 734.186 468.856C749.471 456.545 776.728 447.85 792.206 465.281C802.025 476.37 802.868 493.486 797.121 506.655C790.36 522.149 775.586 531.412 761.671 539.792C747.514 548.304 733.098 556.964 723.43 570.747C718.991 577.079 715.754 584.136 713.389 591.481C708.09 607.945 703.775 625.097 718.197 638.45C722.785 642.7 728.016 645.77 732.87 649.497C733.639 650.085 734.341 650.764 735.83 652.046C733.035 652.241 731.046 652.864 729.353 652.405ZM870.376 578.948C854.78 596.188 839.324 613.563 823.424 630.514C813.788 640.777 778.805 679.356 771.031 688.449C766.644 693.589 763.266 699.523 760.184 705.717C757.336 711.422 756.314 717.235 755.003 723.248C752.36 735.34 760.091 746.06 769.882 750.799C772.859 752.245 775.917 753.534 778.946 754.89C779.329 758.042 778.516 760.61 776.426 762.772C770.29 769.129 762.563 772.077 753.994 771.554C750.178 771.323 746.074 769.46 742.812 767.103C719.79 750.493 729.791 724.611 735.448 713.446C742.898 698.742 754.141 687.044 765.01 675.089C770.887 668.64 777.278 662.635 783.79 656.749C792.858 648.57 802.358 640.813 810.769 631.929C815.837 626.568 822.698 620.334 827.692 614.903C836.922 604.875 842.62 594.349 850.076 583.006C852.573 579.197 855.714 576.756 860.101 575.934C864.213 575.16 868.358 574.547 873.629 573.662C872.129 576.129 871.471 577.731 870.376 578.948ZM976.52 609.784C968.982 622.31 959.919 633.893 949.912 644.542C931.233 664.44 908.286 679.766 888.96 698.842C881.466 706.215 871.74 714.327 857.976 726.32C847.477 735.462 833.938 746.594 819.932 749.365C811.488 751.041 804.997 747.159 802.228 739.251C799.107 730.376 802.16 721.361 805.792 713.112C809.616 704.433 814.312 696.267 818.658 687.898C825.056 675.574 833.463 664.447 842.196 653.708C853.076 640.327 863.748 626.584 875.361 613.83C883.798 604.544 891.426 594.572 899.948 585.375C906.276 578.545 913.718 568.595 924.212 573.909C927.327 575.491 930.22 577.64 932.846 579.952C938.055 584.532 930.556 591.091 927.715 595.021C923.318 601.113 888.708 640.277 876.009 654.115C869.596 661.097 864.486 669.037 858.74 676.546C852.23 685.072 845.615 693.34 839.751 702.345C839.565 702.633 839.514 703.006 839.397 703.341C838.478 706.099 839.097 709.958 840.782 710.611C843.48 711.677 845.19 709.648 846.605 707.971C851.031 702.808 856.43 698.959 862.127 695.342C867.914 691.672 873.739 688.188 879.852 684.993C893.615 677.794 905.052 668.444 915.721 657.379C928.977 643.641 943.075 631.748 949.808 613.122C954.906 599.037 947.387 580.58 936.532 571.035C920.504 556.942 892.415 562.916 873.477 565.921C840.667 571.095 807.971 581.873 779.946 599.95C766.905 608.368 754.379 617.485 742.342 627.241C737.741 630.983 733.954 635.733 729.325 640.514C727.295 638.951 725.484 637.588 723.705 636.189C710.394 625.714 734.343 608.847 741.737 602.477C755.169 590.892 770.374 582.093 786.144 574.139C805.736 564.253 825.412 554.525 845.968 546.8C872.795 536.719 900.951 528.357 929.365 524.302C948.891 521.526 979.235 518.86 990.459 539.591C1002.2 561.252 987.773 591.059 976.52 609.784ZM943.941 590.166C957.28 617.195 903.501 660.917 895.703 668.002C888.051 674.967 879.58 679.696 870.548 684.568C863.446 688.42 856.749 692.941 849.878 697.193C849.705 697.086 849.548 696.979 849.365 696.87C850.566 695.196 851.718 693.481 852.964 691.84C865.597 675.176 878.711 659.033 892.932 643.689C908.447 626.951 921.603 608.452 936.578 591.33C938.433 589.209 942.726 587.719 943.941 590.166ZM1021.5 435.002C1014.08 452.828 1002.12 468.588 992.343 485.127C988.579 491.482 985.017 497.961 981.899 504.658C979.654 509.456 976.943 518.154 970.144 517.211C964.277 516.392 958.591 516.543 952.852 517.853C951.614 518.138 950.204 517.662 948.848 517.533C954.191 509.862 959.336 502.563 964.339 495.183C965.307 493.746 965.741 491.964 966.483 490.374C967.537 488.148 968.753 485.992 969.684 483.716C971.237 480.014 973.24 476.362 973.957 472.464C975.274 465.225 975.808 457.837 976.675 450.505C980.449 449.263 984.285 448.054 988.076 446.725C991.048 445.688 992.398 443.885 993.303 440.446C995.876 430.675 996.495 416.552 993.191 406.957C988.512 393.433 980.788 383.827 969.931 374.293C957.892 363.711 944.897 356.582 928.624 358.391C922.835 359.033 916.652 358.964 911.265 355.476C907.92 353.304 904.402 351.413 901.003 349.341C898.167 347.589 897.011 348.282 896.23 351.891C900.938 357.302 905.728 362.245 909.76 367.737C915.223 375.155 914.67 389.094 915.005 397.839C915.574 412.558 915.573 428.69 927.853 439.02C939.4 448.75 956.865 449.332 970.969 452.914C970.41 464.55 968.652 475.046 963.436 485.604C958.436 495.701 951.655 504.771 945.383 514.096C943.039 517.575 940.023 518.474 936.8 519.285C932.372 520.406 927.794 520.942 923.252 521.509C916.095 522.373 908.927 523.071 901.757 523.736C900.772 523.832 899.731 523.4 898.107 523.091C898.06 523.083 903.193 509.15 903.504 507.886C904.942 502.152 905.365 496.212 905.954 490.348C907.626 473.639 905.802 456.358 900.602 440.382C894.093 420.352 879.442 405.231 864.85 390.704C863.39 389.25 861.478 388.247 859.5 386.834C858.587 386.191 862.314 379.685 863.441 379.387C865.835 378.736 868.863 382.399 870.82 383.539C876.289 386.722 883.914 389.795 890.031 386.623C907.073 377.788 894.329 349.762 880.467 344.974C872.364 342.177 863.43 344.687 856.695 349.575C849.243 354.98 846.427 364.555 838.964 369.94C833.846 373.636 826.815 367.837 822.101 366.051C815.623 363.607 808.407 362.732 801.552 363.852C796.458 364.685 806.547 345.687 807.571 344.124C816.903 329.847 829.882 318.162 844.698 309.778C852.09 305.595 859.807 302.11 867.799 299.25C869.692 298.578 886.091 292.205 887.093 294.104C892.878 305.165 903.458 314.8 916.35 315.941C928.934 317.053 939.629 307.685 949.848 301.783C953.678 306.076 960.858 307.53 965.521 310.868C970.498 314.421 974.843 318.682 978.608 323.503C986.086 333.07 991.3 344.452 994.413 356.145C996.207 362.886 996.755 369.823 995.846 376.74C994.873 383.978 991.59 390.658 991.345 398.026C991.302 399.023 992.192 400.058 992.65 401.075C993.979 400.411 996.24 399.991 996.503 399.031C998.887 390.289 1002.1 381.781 1002.44 372.628C1002.96 358.751 1001.64 343.393 998.471 329.875C994.5 312.974 983.815 298.256 978.773 281.586C980.474 282.221 981.319 282.344 981.914 282.792C990.035 288.856 996.691 296.24 1003.36 303.817C1010.08 311.443 1016.11 320.61 1020.79 329.618C1037.18 361.19 1034.93 402.729 1021.5 435.002ZM960.175 401.659C957.306 398.343 954.913 394.589 952.431 390.946C949.74 386.986 945.572 385.013 941.64 382.733C940.839 382.284 939.587 382.619 938.637 382.583C937.068 384.9 938.599 386.33 940.057 387.097C948.956 391.706 952.173 401.075 957.761 408.353C963.52 415.867 965.832 425.114 967.826 434.287C968.519 437.5 970.606 440.502 969.403 444.036C969.182 444.68 969.005 445.341 968.59 446.708C966.352 446.245 964.194 445.831 962.068 445.338C959.002 444.631 956.001 443.456 952.908 443.212C945.948 442.645 939.437 440.874 933.646 437C928.46 433.516 925.373 428.261 923.434 422.55C921.402 416.557 920.531 410.298 920.502 403.871C920.463 395.625 920.31 387.316 919.263 379.171C918.68 374.587 916.186 370.254 914.579 365.788C914.209 364.745 913.98 363.648 913.568 362.13C916.418 362.566 918.633 363.154 920.859 363.194C925.929 363.303 943.643 360.429 967.54 379.82C980.537 391.139 988.671 405.119 988.438 422.994C988.388 426.482 988.32 429.971 988.284 433.468C988.238 438.037 986.447 441.222 981.712 442.408C980.026 442.84 978.437 443.679 976.612 444.407C975.956 443.271 975.078 442.316 974.829 441.229C973.686 436.271 972.928 431.22 971.648 426.307C969.334 417.414 966.37 408.81 960.175 401.659ZM1018.56 157.785C1016.98 158.878 1014.58 158.809 1012.21 159.362C1011.18 156.637 1010.02 153.983 1005.82 154.596C1006 156.368 1006.18 158.162 1006.41 160.472C999.361 162.231 992.32 161.539 985.343 159.916C983.989 159.597 982.868 158.326 981.163 157.177C980.116 157.256 978.376 157.297 976.66 157.557C974.331 157.904 973.778 159.093 974.823 161.259C975.612 162.894 976.604 164.12 978.643 164.508C986.976 166.096 995.352 167.162 1003.81 166.039C1007.19 165.588 1009.86 165.959 1012.1 168.925C1013.43 170.717 1015.31 172.267 1017.27 173.397C1026.16 178.567 1032.42 189.48 1037.28 198.189C1042.97 208.352 1047.34 219.278 1050.66 230.427C1058.54 256.953 1061.7 286.917 1056.58 314.292C1054.22 326.887 1046.53 373.475 1043.12 383.294C1041.17 388.902 1039.1 394.467 1036.54 400.078C1036.29 395.103 1035.88 390.131 1035.8 385.146C1035.55 371.232 1034.85 357.382 1032.21 343.675C1031.9 342.031 1032.21 340.173 1032.6 338.498C1033.16 335.954 1033.77 333.38 1034.81 331.008C1039.28 320.829 1040.38 308.143 1040.21 297.191C1039.47 243.753 1034.31 234.811 1029.1 221.249C1024.44 209.125 1014.38 204.527 1006.81 202.501C999.659 200.585 992.18 197.944 987.742 191.809C981.979 183.84 977.372 175.506 971.855 167.353C970.561 165.424 965.925 145.285 966.694 138.767C967.454 132.366 969.434 126.112 970.725 119.766C972.336 111.815 976.779 105.713 982.685 100.418C984.959 98.3821 987.819 93.16 982.296 94.8438C978.233 96.0895 975.083 102.778 972.699 105.979C969.565 110.189 967.392 114.188 966.087 119.287C964.519 125.406 963.063 131.719 962.092 137.949C961.047 144.764 964.773 156.877 959.926 162.472C955.064 168.102 948.887 169.174 942.176 167.148C930.873 163.738 916.917 158.059 913.574 145.492C908.301 125.592 922.128 101.759 934.59 87.3615C942.558 78.1572 951.097 69.199 957.264 58.6344C963.735 47.5675 965.621 36.4125 966.354 23.7979C973.595 28.3226 980.253 32.2382 986.64 36.5505C996.714 43.3282 1006.63 53.51 1014.53 62.5681C1019.8 68.6266 1022.54 74.4931 1026.76 81.3288C1041.55 105.267 1044.59 139.704 1018.56 157.785ZM705.14 713.372C704.417 713.609 703.602 713.718 702.988 714.116C693.586 720.285 687.08 729.472 679.142 737.179C672.482 743.657 666.564 750.913 660.434 757.937C657.776 760.977 655.415 764.277 652.944 767.476C647.14 774.975 641.091 782.228 635.174 789.62C630.794 795.1 625.724 802.545 629.13 809.784C632.777 817.528 643.966 820.144 651.713 819.808C661.307 819.395 669.442 813.682 676.332 807.44C682.727 801.664 690.133 793.439 684.66 783.677C678.111 772.025 665.806 773.556 665.158 770.988C663.465 764.317 677.628 749.41 681.196 744.519C686.764 736.881 693.093 729.277 699.616 722.8C702.095 720.344 703.679 716.995 705.662 714.052C705.488 713.825 705.32 713.595 705.14 713.372ZM679.663 784.575C681.966 786.85 682.019 788.936 680.617 791.113C676.422 797.658 671.735 803.814 665.4 808.531C661.506 811.442 657.156 813.085 652.419 814.074C647.395 815.117 642.97 813.741 638.775 811.32C636.002 809.721 634.436 804.715 636.045 801.884C643.111 789.346 651.034 777.398 660.826 766.779C661.042 766.542 661.431 766.472 662.012 766.197C661.771 767.85 661.393 769.325 661.355 770.809C661.218 776.455 662.975 778.426 668.594 779.112C672.926 779.656 676.459 781.41 679.663 784.575Z" fill="#E8F1F7"/>
</svg>
