<svg width="313" height="526" viewBox="0 0 313 526" fill="none" xmlns="http://www.w3.org/2000/svg">
<path d="M239.446 524.498C245.042 523.407 250.225 521.448 255.345 518.967C257.848 517.757 260.339 516.513 262.911 515.444C266.183 514.081 268.906 512.798 272.464 512.547C274.183 512.427 278.345 512.215 278.88 510.043C279.207 508.683 277.988 508.223 276.864 508.103C275.241 507.95 273.618 508.854 272.006 508.952C270.346 509.05 269.008 508.5 267.538 507.793C265.01 506.574 262.13 505.568 260.191 503.47C255.633 498.522 252.647 491.382 250.969 484.957C250.302 482.405 260.389 478.212 262.171 476.977C265.581 474.612 268.76 471.907 271.48 468.757C280.802 457.965 287.253 438.876 276.561 426.834C271.919 421.607 264.058 418.176 257.077 420.111C254.117 420.933 249.907 422.364 246.087 427.925C245.103 429.356 245.945 432.722 246.298 434.504C246.689 436.459 248.65 438.335 250.278 439.306C251.674 440.142 253.29 440.75 254.885 441.082C257.167 441.551 258.864 440.144 260.252 438.569C261.419 437.251 262.191 435.458 263.445 434.295C269.556 438.608 271.984 447.286 269.237 454.206C267.169 459.409 263.195 463.469 258.659 466.61C256.36 468.203 253.977 469.896 251.434 471.076C249.966 471.761 245.823 473.048 244.656 470.943C240.975 464.282 232.101 456.459 223.87 458.17C220.15 458.942 216.636 461.396 213.868 463.905C210.29 467.151 206.847 471.237 208.244 476.333C207.567 476.482 206.954 476.709 206.328 476.75C199.679 477.202 191.71 476.255 185.926 480.245C182.599 482.542 180.119 486.329 176.269 487.837C171.546 489.695 165.924 487.492 161.465 485.884C149.545 481.571 129.276 469.483 127.616 467.708C124.823 464.721 129.861 464.645 131.726 464.592C134.448 464.52 137.055 464.086 139.73 463.617C143.779 462.902 147.858 462.16 151.739 460.775C153.607 460.105 159.215 456.555 161.004 458.294C161.777 459.053 161.633 462.027 161.87 463.118C163.502 470.43 167.638 475.537 175.064 477.459C178.498 478.349 182.021 479.006 185.54 477.607C186.073 477.394 186.677 477.361 187.244 477.254C197.929 475.277 205.035 469.213 209.605 459.555C212.642 453.146 214.156 446.278 216.608 439.653C219.701 431.284 220.349 422.166 218.968 413.376C218.684 411.57 218.514 410.117 218.937 408.352C219.284 406.917 220.033 405.407 218.255 404.602C216.298 406.376 215.595 408.186 214.304 410.372C212.934 412.691 210.347 414.028 208.156 415.464C201.845 419.6 194.74 420.449 187.508 418.442C185.867 417.986 185.774 417.491 186.408 415.876C188.649 410.18 190.56 404.65 191.073 398.5C191.662 391.41 189.984 384.503 187.384 377.95C185.427 373.024 175.595 355.862 173.684 353.953C173.472 353.739 174.342 350.506 174.423 350.19C176.999 339.81 182.901 329.295 181.358 318.32C181.068 316.262 181.96 314.82 183.544 313.675C184.281 313.138 185.052 312.643 185.774 312.083C189.002 309.548 192.386 307.098 194.347 303.391C196.149 299.979 197.168 296.011 197.526 292.176C198.335 283.544 194.088 275.136 188.082 269.167C180.536 261.671 169.621 259.427 161.672 252.553C159.621 250.779 155.376 247.223 154.863 244.394C154.482 242.308 156.938 241.095 158.253 239.987C159.992 238.521 161.484 236.787 162.774 234.926C165.33 231.235 167.324 226.769 167.479 222.225C167.828 211.998 160.398 198.662 151.039 194.327C145.044 191.552 137.773 192.211 132.337 195.952C127.753 199.105 126.012 203.623 125.502 208.961C127.701 209.218 130.853 208.586 132.319 210.298C136.532 215.226 132.254 217.801 129.584 218.872C124.701 220.826 118.645 218.156 116.017 213.278C110.368 202.783 117.677 188.919 129.16 187.342C141.896 185.594 156.279 193.009 163.956 202.957C171.203 212.345 174.203 227.901 167.647 233.933C166.62 234.876 166.279 240.973 168.886 238.351C172.261 234.963 173.361 227.604 173.607 223.145C174.364 209.559 164.573 198.012 154.1 190.516C144.706 183.792 127.173 180.199 117.777 188.832C109.313 196.605 107.596 217.026 121.75 221.498C126.885 223.121 136.517 222.659 137.049 216.444C137.57 210.364 135.142 208.455 131.32 206.546C126.207 203.989 136.006 195.084 144.802 195.826C152.143 196.443 157.067 202.414 161.011 208.106C164.353 212.938 165.594 219.945 164.8 225.859C164.632 227.118 164.021 228.379 163.389 229.513C162.187 231.684 160.804 233.748 159.543 235.886C158.018 238.466 155.823 240.17 153.035 241.209C152.806 240.888 152.625 240.709 152.529 240.497C150.742 236.514 150.132 232.441 151.519 228.183C151.685 227.659 151.617 226.743 151.275 226.444C150.705 225.946 149.957 226.104 149.296 226.738C147.939 228.041 147.025 229.603 146.469 231.339C145.238 235.211 144.126 239.121 142.967 243.019C142.83 243.488 142.843 244.093 142.548 244.411C135.576 251.883 128.163 248.037 119.817 245.46C113.187 243.414 107.838 239.116 103.433 233.863C99.8884 229.635 98.9481 224.092 97.0611 219.059C93.5575 209.731 89.1813 201.282 88.817 191.081C88.5552 183.799 89.0635 176.493 89.8947 169.266C90.728 162.001 92.2551 154.71 92.0675 147.374C91.8843 140.262 90.4357 132.858 88.3436 126.073C87.3466 122.844 85.9875 119.775 84.5608 116.714C82.8723 113.086 80.4835 109.598 80.6231 105.429C80.6449 104.816 82.9421 102.881 83.4111 102.375C84.5499 101.153 85.7105 99.9513 86.9081 98.782C89.43 96.3125 93.3132 93.4546 96.4262 91.7814C105.451 86.9209 112.914 83.9017 122.417 82.2088C133.107 80.3086 144.425 80.3763 154.824 83.7424C160.385 85.5487 171.596 94.1746 172.534 95.093C175.145 97.6345 177.929 100.045 180.25 102.831C183.274 106.457 185.931 110.381 188.719 114.199C191.367 117.833 193.756 121.625 195.444 125.818C197.46 130.816 198.601 135.986 197.58 141.355C196.47 147.208 193.23 154.045 189.833 158.971C185.776 164.85 180.804 168.437 174.619 171.783C171.116 173.679 167.265 174.833 163.389 175.847C159.137 176.955 154.844 177.147 150.561 176.469C146.104 175.762 140.376 174.608 136.7 171.995C127.673 165.57 121.078 160.526 117.081 153.763C115.82 151.632 113.351 146.414 112.596 144.06C110.774 138.375 111.509 132.613 112.679 126.896C113.39 123.394 115.604 120.853 118.157 118.566C118.595 118.174 119.226 117.993 120.34 117.419C119.762 117.716 119.114 120.892 118.892 121.533C118.364 123.078 117.849 124.631 117.411 126.204C116.49 129.498 115.855 132.901 116.001 136.339C116.42 146.388 124.335 154.902 134.222 156.519C139.488 157.383 144.656 155.685 148.875 152.546C150.971 150.984 152.893 149.178 154.527 147.142C155.245 146.255 157.418 142.02 158.581 141.837C160.114 141.59 162.224 143.366 163.489 144.045C165.234 144.981 166.999 145.825 168.958 146.218C170.967 146.621 186.781 149.154 185.859 144.274C185.619 142.991 183.697 142.289 182.733 141.721C177.872 138.866 174.944 132.216 172.981 127.155C170.597 121.018 170.047 114.297 166.949 108.416C164.176 103.16 159.626 98.5115 154.344 95.7802C149.39 93.2147 143.587 91.8599 138.026 91.7487C130.157 91.5916 121.466 94.4298 114.806 98.5529C111.765 100.431 109.249 102.907 107.89 106.265C105.126 113.113 105.484 119.376 109.727 125.419C111.195 127.509 109.535 130.742 109.284 133.124C108.95 136.263 108.994 139.463 109.47 142.592C110.235 147.601 112.722 152.958 115.715 156.994C121.425 164.686 129.008 170.95 137.219 175.644C146.99 181.223 159.621 185.573 171.162 182.654C183.769 179.466 196.932 168.997 203.071 157.5C205.748 152.479 208.78 142.832 206.234 137.203C205.338 135.218 203.697 134.919 204.323 136.992C204.932 139.005 204.376 145.788 203.195 149.944C201.76 155.009 197.787 159.355 194.709 163.526C192.947 165.91 190.876 168.146 188.605 170.044C183.682 174.161 178.073 177.152 172.106 179.573C166.703 181.768 156.318 181.196 150.587 178.939C154.06 179.807 161.447 179.466 164.131 179.113C167.876 178.622 182.94 175.513 195.383 156.368C197.591 152.974 198.518 149.18 199.55 145.255C200.514 141.577 200.612 136.25 199.478 132.443C198.917 130.565 198.54 128.626 198.086 126.714C198.23 126.625 198.379 126.538 198.525 126.448C199 126.939 199.526 127.391 199.947 127.923C202.964 131.708 206.679 134.614 211.241 136.193C213.883 137.105 216.695 137.646 219.476 138.008C222.157 138.351 224.95 138.639 227.605 138.277C237.352 136.944 246.595 130.427 253.066 123.259C261.493 113.926 266.905 99.5062 262.579 87.1042C260.692 81.6808 278.535 78.4281 281.535 78.1424C287.423 77.5773 290.678 80.5072 295.22 83.7206C298.372 76.0241 280.359 75.7645 277.047 76.6415C276.264 76.8509 275.457 76.9992 274.656 77.1323C270.263 77.8566 266.148 79.4338 262.907 82.4487C260.627 84.5692 257.885 86.2904 256.253 89.0828C256.05 89.4319 255.721 89.7373 255.389 89.9751C251.763 92.5864 248.1 95.1061 243.929 96.86C239.636 98.6664 235.389 98.6838 231.089 97.148C230.181 96.8273 228.981 96.3277 228.641 95.5817C227.622 93.3347 226.446 90.9546 226.289 88.568C226.069 85.1822 226.867 81.7637 228.857 78.8579C229.688 77.6515 229.642 76.7658 228.357 75.5682C227.611 74.8766 224.839 84.6739 224.719 85.3633C224.051 89.3817 224.215 93.5899 226.752 96.9669C231.422 103.18 241.968 101.62 247.797 98.0468C248.227 97.7807 248.798 97.7479 249.387 97.5821C249.741 101.607 248.463 105.039 246.647 108.213C243.986 112.862 240.026 116.256 235.29 118.706C225.759 123.638 213.152 125.152 206.732 114.537C206.446 114.064 206.487 113.392 206.324 112.517C207.031 112.777 207.358 112.844 207.637 113.008C210.833 114.866 213.861 113.961 216.762 112.318C217.589 111.845 218.381 111.058 218.833 110.218C220.249 107.576 221.291 104.718 221.272 101.718C221.254 98.6555 220.87 95.6973 217.725 93.7339C211.387 89.7722 205.905 89.8922 199.847 94.2116C197.72 95.7278 194.068 97.4752 193.529 100.3C192.251 96.0638 190.721 92.3268 187.944 88.7818C185.315 85.4266 184.262 84.146 179.085 78.5416C180.056 78.4347 181.413 78.7096 182.381 79.0433C183.882 79.5713 185.405 80.0316 186.893 80.5857C189.807 81.6765 192.31 82.728 195.431 83.1425C202.364 84.0631 208.392 83.9387 214.88 81.1136C217.886 79.8003 220.161 77.4966 222.448 75.2082C225.613 72.0428 228.748 68.9057 230.969 64.9157C231.987 63.0897 233.56 61.4165 235.242 60.1533C240.116 56.5058 245.293 53.5694 251.621 52.9302C256.087 52.4743 260.738 52.9608 264.573 55.4608C266.203 56.5276 267.538 57.9718 268.899 59.3505C270.025 60.4915 272.953 62.2258 273.627 63.5304C269.643 55.8099 264.233 51.0127 255.186 50.6549C247.101 50.3386 239.049 53.2422 233.218 58.8706C227.642 64.2525 224.025 71.3447 217.801 76.1135C208.211 83.4632 195.983 81.7594 185.337 77.8762C184.011 77.3919 167.643 70.8167 167.765 70.435C170.047 63.4082 173.081 56.652 177.602 50.7618C180.311 47.2408 183.847 43.9903 187.685 41.7542C194.775 37.6158 202.835 35.8051 210.994 35.9818C212.162 36.0058 224.935 36.9613 223.924 39.7319C223.737 40.2446 223.549 40.79 223.346 41.331C221.466 46.2853 220.205 51.3159 221.307 56.6716C222.055 60.3104 223.743 63.262 226.963 65.2451C228.216 63.8074 228.266 63.4213 226.911 62.4331C225.063 61.0892 223.737 59.2851 223.407 57.1646C222.997 54.4901 222.936 51.6955 223.205 48.9991C224.193 39.0971 233.785 28.7609 243.037 25.8093C260.334 20.2943 277.457 33.1065 283.945 48.6413C287.373 56.857 289.707 65.4981 293.385 73.6135C297.301 82.2568 302.866 87.7237 309.52 94.1811C310.213 94.8552 310.809 95.442 311.821 95.0603C312.934 91.5262 312.918 91.4825 309.749 89.8311C309.452 89.674 309.162 89.5126 308.854 89.3926C304.112 87.5732 301.049 83.7315 298.348 79.8309C295.178 75.2475 293.786 69.7456 292.325 64.4073C291.511 61.4448 290.837 58.5172 289.065 55.9277C288.601 55.247 288.579 54.261 288.361 53.4385C288.817 53.216 289.024 53.0655 289.255 53.0088C293.908 51.8809 297.789 49.1954 301.049 45.9886C306.636 40.4933 309.343 33.7348 307.469 25.7395C306.753 22.6809 306.278 19.4348 304.871 16.7013C302.689 12.4778 300.189 8.38746 296.561 5.06278C293.413 2.17878 289.879 0.41606 285.701 0.178271C281.62 -0.0551539 277.684 0.549155 274.1 2.89868C270.418 5.31147 267.907 8.14966 267.291 12.8291C266.7 17.3252 268.053 20.8572 270.967 23.9288C272.148 25.1701 273.321 26.767 275.42 26.7234C276.829 26.6928 278.245 26.6513 279.648 26.7539C282.311 26.9546 284.02 25.3097 285.398 23.5121C287.096 21.3044 287.593 18.5775 287.53 15.7873C287.49 14.0486 286.576 12.552 285.363 11.6314C283.996 10.593 282.135 10.4185 280.346 10.9486C278.419 11.5158 277.876 12.4429 278.31 14.7925C279.179 14.6681 280.088 14.6463 280.935 14.4042C281.995 14.0987 282.802 14.4478 283.756 14.8775C285.409 15.6236 284.691 17.0133 284.833 18.1193C285.082 20.0631 283.335 23.2743 281.524 23.7237C279.033 24.3455 276.292 24.677 274.292 22.5675C272.049 20.207 270.147 17.5281 270.06 14.0595C270.005 11.9761 270.343 10.0367 271.731 8.25218C282.573 -5.70099 299.576 9.5393 303.435 21.0513C305.848 28.2526 306.35 38.5495 299.864 44.1495C297.102 46.5339 294.183 48.6348 290.848 50.1924C289.286 50.921 288.092 50.3517 286.917 49.6339C286.343 49.2849 286.053 48.4755 285.542 47.7382C287.325 47.1535 288.873 46.9419 290.078 46.1827C292.822 44.4571 295.135 42.1992 297.115 39.5988C299.397 36.6036 298.791 32.9255 299.602 29.5855C299.65 29.3892 299.439 29.1296 299.371 28.894C299.151 28.1043 298.819 27.3189 298.754 26.5139C298.429 22.622 296.788 19.4479 294.002 16.7013C292.338 15.0564 290.625 13.8326 288.047 13.693L288.047 15.6607C289.364 16.4504 290.553 16.9347 291.452 17.7441C299.498 25.0304 298.743 44.2499 285.285 44.7582C284.153 44.8018 283.363 44.4484 282.844 43.4667C282.303 42.4457 281.847 41.3789 281.249 40.3863C278.701 36.1781 275.44 32.5808 271.655 29.4634C270.644 28.63 269.421 28.0519 268.443 27.188C263.109 22.4911 256.715 19.8188 249.763 21.7582C246.652 22.6264 243.582 22.4911 240.581 23.8677C240.12 24.0771 239.4 24.1273 238.966 23.9113C234.588 21.756 229.917 19.8907 225.188 18.6582C218.909 17.022 212.388 17.0111 205.951 17.4234C195.567 18.091 185.614 21.8978 177.588 28.5536C166.884 37.4347 159.045 50.6135 156.305 64.2372C156.17 64.9048 155.985 65.5614 155.786 66.3708C154.074 65.7076 152.669 65.2058 151.301 64.6233C149.881 64.0212 148.502 63.3297 147.197 62.7232C149.996 59.9854 152.765 57.2977 155.509 54.5839C159.078 51.0519 162.23 47.1448 164.115 42.4828C166.535 36.4923 167.573 30.1898 166.633 23.715C166.319 21.5814 166.148 19.2908 164.477 17.6917C162.726 18.0866 161.908 19.1098 161.382 20.5496C159.237 26.3809 153.522 29.5114 147.922 31.4202C142.439 33.2854 136.612 34.3129 131.283 36.6145C125.306 39.1931 121.215 43.2224 117.718 48.6566C115.988 51.3421 114.356 53.9665 113.693 57.1145C113.178 59.5425 112.615 61.964 112.138 64.3965C111.9 65.6247 111.457 66.3489 110.113 66.8551C102.796 69.6234 96.2474 73.3757 90.728 78.9692C85.6669 84.0914 80.8718 88.8625 77.0105 94.9774C76.4913 94.3665 76.031 93.9171 75.6797 93.3958C74.9009 92.2199 74.1854 91.0026 73.4153 89.8245C71.705 87.2176 69.2442 85.8214 66.1747 85.5596C60.446 85.0644 54.4598 88.4196 50.6356 92.4882C47.5291 95.7911 44.8763 99.1943 42.5922 103.077C40.1751 107.19 38.1288 112.033 36.3377 116.47C34.5881 120.792 33.6937 125.325 33.0654 129.934C32.0903 137.136 31.0257 144.051 31.222 151.349C31.4271 158.938 32.3346 166.512 33.8682 173.947C35.3277 181.033 37.6838 187.721 40.4478 194.39C44.4967 204.162 46.6543 214.618 51.0697 224.251C53.6505 229.878 55.1645 235.899 56.9272 241.808C58.7008 247.76 60.9674 253.541 63.1119 259.361C63.6114 260.716 63.8732 262.16 64.1263 263.124C62.3549 266.2 60.7187 268.934 59.1938 271.724C58.487 273.02 58.2143 274.401 59.6607 275.498C62.4487 274.715 63.9016 271.744 66.8554 271.148C67.2132 271.56 67.6822 271.881 67.824 272.311C68.6879 274.889 69.7372 277.479 70.1844 280.099C75.9306 313.686 68.2232 331.557 68.1207 331.396C66.0351 328.272 63.2471 323.527 62.0429 319.768C60.7841 315.844 59.2549 312.2 58.1532 308.234C55.9498 300.291 53.8381 292.324 51.9292 284.309C50.0029 276.227 48.2948 268.011 45.2581 260.251C42.4373 253.037 38.0503 245.087 30.4934 242.011C23.8048 239.284 15.3316 241.067 10.4712 246.148C7.25992 249.498 4.22103 259.433 8.73465 263.161C13.0105 266.693 18.5276 259.313 23.6651 260.384C36.1654 262.987 42.4352 287.944 45.9627 300.782C48.1443 308.721 51.1461 316.334 54.0388 324.029C55.4721 327.829 56.8137 331.66 58.031 335.541C58.6571 337.539 59.2571 339.55 59.833 341.562C60.8147 344.978 62.1978 346.595 60.4526 350.02C60.3457 350.229 56.3992 356.59 56.1309 356.087C55.904 355.652 55.5943 355.242 55.4677 354.782C54.4533 351.187 53.4847 347.585 52.4965 343.981C52.0798 342.456 51.7896 340.883 51.2312 339.413C47.0819 328.527 42.8977 317.656 38.6785 306.792C38.1113 305.344 37.2693 304.007 36.6061 302.591C32.688 294.266 28.9467 286.085 22.3649 279.434C19.0752 276.111 12.7072 271.986 7.86857 273.753C-2.03565 277.365 0.551669 293.762 1.71661 301.899C3.54693 314.657 7.47153 327.103 9.96068 339.745C12.4062 352.149 14.5397 364.734 20.5499 376.004C31.4794 396.506 45.4632 406.52 52.0667 404.842C55.2452 404.033 58.0398 402.414 60.5791 400.25C60.9587 400.603 61.3208 400.839 61.539 401.166C62.8675 403.151 73.0226 421.443 74.4297 424.14C77.161 429.371 79.3709 434.899 83.0054 439.629C92.4537 451.922 101.529 463.774 113.475 473.796C124.933 483.404 136.619 492.424 151.022 497.047C154.676 498.219 158.38 499.34 162.132 500.154C169.037 501.65 175.708 502.374 182.772 502.045C186.35 501.879 189.45 501.146 192.798 499.909C195.924 498.76 196.195 499.131 196.099 502.189C196.031 504.482 196.718 506.969 197.654 509.05C199.572 513.306 202.779 517.021 206.564 519.729C216.084 526.522 228.384 526.653 239.446 524.498ZM108.394 114.62C107.886 108.791 112.352 102.48 115.541 101.018C118.093 99.851 120.463 98.2781 123.087 97.2898C151.115 86.7442 163.757 107.277 166.434 113.691C167.316 115.802 167.621 118.154 168.214 120.388C168.795 122.552 169.488 124.681 169.981 126.861C171.491 133.575 175.671 138.709 180.376 144.162C177.383 144.985 174.833 144.138 172.388 143.942C169.84 143.737 167.272 142.633 164.901 141.534C162.625 140.48 160.59 138.916 158.21 137.426C156.988 139.797 149.868 151.8 141.285 153.351C131.324 155.153 126.787 150.605 124.032 148.209C114.924 139.994 121.638 120.011 122.932 116.974C123.96 114.555 139.756 114.046 142.149 114.627C146.174 115.602 149.656 117.775 153.116 119.945C153.716 120.325 154.071 121.08 154.602 121.594C155.049 122.02 155.777 122.77 156.046 122.65C156.663 122.365 157.084 121.636 157.669 120.992C155.568 119.28 151.809 114.526 145.734 112.615C130.973 109.491 122.408 113.11 121.992 113.374C120.421 114.371 118.839 115.342 117.136 116.136C118.019 114.201 119.664 113.093 121.324 112.118C124.2 110.436 127.367 109.391 130.631 108.784C133.375 108.272 136.152 107.779 138.931 107.711C141.648 107.65 144.379 108.119 147.097 108.383C148.506 108.52 149.006 108.453 150.387 107.757C150.308 106.718 149.802 106.238 148.7 106.064C143.521 105.237 138.353 104.423 133.083 105.292C128.07 106.114 123.192 107.222 118.975 110.325C115.953 112.543 113.593 115.202 112.391 118.815C112.098 119.679 111.647 120.484 111.141 121.603C109.398 119.437 108.75 118.342 108.394 114.62ZM255.286 471.117C260.646 468.43 266.338 465.74 269.161 460.227C273.52 451.706 272.505 445.971 272.348 442.676C272.287 441.424 271.602 440.133 270.985 438.979C268.912 435.098 266.166 431.854 261.979 430.095C261.827 430.032 261.702 429.904 261.554 429.84C260.385 429.341 259.508 429.644 259.102 430.667C258.574 431.985 259.543 432.183 260.849 432.486C259.983 434.208 259.401 435.687 258.541 436.978C257.413 438.678 256.078 438.909 254.231 438.069C251.87 436.996 249.588 435.918 248.467 433.272C247.577 431.171 247.559 429.472 249.167 427.613C252.529 423.723 256.678 422.436 261.724 422.436C266.035 422.432 269.294 424.055 272.213 426.91C273.345 428.014 278.393 434.055 278.662 436.514C280.643 450.667 272.534 464.551 269.03 468.19C268.515 468.726 265.082 471.986 263.659 472.786C260.489 474.56 257.311 476.322 254.119 478.057C252.679 478.836 251.203 479.54 249.545 480.378C248.846 478.716 248.153 477.066 247.415 475.325C249.841 473.428 252.653 472.439 255.286 471.117ZM203.202 421.121C206.588 419.962 209.766 418.023 212.578 415.645C213.689 414.703 214.939 413.928 216.566 412.761C216.872 417.759 217.65 422.229 217.269 426.596C216.581 434.585 213.785 442.362 211.365 449.95C207.788 461.169 201.365 471.447 189.349 474.715C184.511 476.028 179.113 476.061 174.567 473.748C167.545 470.177 165.442 464.442 163.408 457.356C162.739 455.026 170.304 454.54 171.663 454.106C175.204 452.984 178.59 451.928 182.224 451.178C183.396 450.936 187.818 449.627 186.629 447.565C185.699 445.964 182.892 447.611 181.725 448.052C179.218 448.986 176.568 449.585 173.985 450.292C173.345 450.462 172.625 450.458 172.056 450.757C169.035 452.334 166.67 451.15 164.552 449.027C160.601 445.081 158.635 440.416 158.245 434.821C157.732 427.471 160.45 419.661 168.601 418.677C180.584 417.235 191.177 425.255 203.202 421.121ZM152.59 444.393C153.831 443.916 154.852 442.868 156.177 441.939C157.889 445.779 160.319 449.217 164.021 452.395C160.991 452.395 158.677 452.48 156.364 452.378C151.92 452.177 147.483 451.878 143.042 451.606C142.302 451.56 141.547 451.525 140.832 451.363C138.329 450.787 135.829 450.179 133.342 449.54C131.673 449.114 130.029 448.615 128.41 447.681C129.71 447.681 131.006 447.613 132.297 447.69C139.315 448.117 146.072 446.913 152.59 444.393ZM178.361 366.613C180.538 370.005 182.536 373.587 184.185 377.265C189.29 388.646 191.806 405.706 182.549 415.863C182.216 416.23 181.535 416.511 181.044 416.463C179.75 416.352 178.474 416.038 177.015 415.769C177.215 414.857 177.263 414.107 177.538 413.455C180.228 407.058 179.822 400.937 180.03 394.161C180.257 386.91 179.438 380.097 176.45 373.428C175.119 370.467 173.498 367.625 171.419 365.123C169.074 362.315 166.153 360.146 163.524 357.631C162.372 356.527 161.611 355.82 161.013 355.718C160.33 355.607 159.863 356.294 159.277 358.104C158.62 360.112 156.746 361.761 154.617 362.164C152.95 362.483 150.583 362.105 149.726 360.519C148.404 358.083 149.665 352.987 151.207 350.903C154.477 346.496 160.797 347.456 164.802 350.295C170.647 354.439 174.56 360.685 178.361 366.613ZM175.728 335.214C174.438 339.546 173.334 343.94 171.834 348.205C171.546 349.027 171.251 349.845 170.845 350.99C171.14 350.164 164.379 346.494 163.631 346.163C160.668 344.839 157.44 344.393 154.298 345.31C148.183 347.099 143.015 355.637 146.986 361.641C148.576 364.049 151.255 365.288 153.893 365.408C156.936 365.552 158.812 363.726 160.415 361.148C160.708 360.674 160.917 360.146 161.164 359.651C161.318 359.339 163.76 361.377 163.906 361.846C164.292 363.081 163.315 364.483 162.715 365.476C160.664 368.86 157.896 371.811 154.58 373.98C152.492 375.347 151.041 374.209 149.071 372.974C145.856 370.949 142.655 369.25 139.243 367.588C134.608 365.343 129.885 364.123 124.989 362.679C128.696 359.206 132.212 356.447 135.325 352.312C138.993 347.448 142.018 343.071 143.052 336.948C143.947 331.647 144.25 326.308 143.735 320.935C143.637 319.871 143.698 318.776 143.833 317.713C143.897 317.19 144.196 316.601 144.571 316.221C146.244 314.53 147.981 312.898 150.046 310.902C152.012 316.847 154.547 324.417 161.068 326.651C166.273 328.44 172.654 326.902 176.949 323.616C177.211 323.42 177.525 323.285 177.824 323.156C178.125 323.023 179.205 321.784 179.591 321.653C179.94 325.901 176.908 331.239 175.728 335.214ZM84.971 358.231C86.8274 360.783 88.6403 363.373 90.6648 365.781C91.6552 366.966 93.0776 367.788 94.3167 368.759C97.4298 371.213 100.331 373.949 103.9 375.786C108.396 378.105 113.126 379.737 118.072 380.74C120.456 381.227 122.851 382.006 125.244 382.006C128.456 382.006 131.665 381.401 134.874 381.004C135.932 380.871 136.968 380.579 138.013 380.361C138.172 380.476 138.334 380.587 138.495 380.701C138.233 381.085 138.046 381.711 137.701 381.818C131.704 383.705 125.676 385.788 119.289 385.206C114.219 384.741 109.077 384.065 104.387 381.992C93.647 377.915 83.1406 367.924 81.1554 365.282C80.3701 364.235 79.6262 363.155 78.7099 361.881C79.5956 359.252 79.5825 356.047 81.3387 352.945C82.6607 354.887 83.7776 356.586 84.971 358.231ZM82.8788 351.244C81.9997 350.076 81.8971 348.896 82.1328 347.511C83.4722 339.657 84.8793 331.819 86.0028 323.931C87.8179 311.177 86.8754 297.717 84.8771 285.038C84.2816 281.233 83.5355 277.224 82.5342 273.513C82.2287 272.396 81.4608 270.446 81.8666 269.462C82.1022 268.899 82.7261 268.652 84.0482 269.069C85.9177 269.654 87.5757 271.672 88.9632 272.989C91.5919 275.483 93.8913 278.341 95.5754 281.554C102.05 293.932 99.8818 308.402 102.567 321.684C103.772 327.644 106.409 333.069 111.719 336.363C120.447 341.778 133.046 339.044 138.467 330.301C138.936 329.546 139.102 328.606 139.459 327.774C139.774 327.05 140.16 326.356 140.513 325.647C140.688 325.691 140.858 325.733 141.03 325.776C140.781 329.014 140.485 332.249 140.301 335.486C139.763 344.987 131.386 356.18 123.172 360.659C116.946 364.056 108.831 364.503 101.902 363.886C97.9381 363.528 94.0309 362.236 90.7019 360.046C87.159 357.712 85.3702 354.529 82.8788 351.244ZM110.807 367.354C116.315 367.282 129.16 371.253 130.31 371.709C133.526 372.978 136.032 375.208 138.805 377.81C138.242 377.287 133.03 378.79 132.081 378.919C130.214 379.174 128.358 379.298 126.475 379.237C122.312 379.1 118.12 378.308 114.16 377.012C108.268 375.081 101.542 372.398 97.613 367.361C99.4281 367.361 100.698 367.254 101.948 367.383C104.91 367.69 107.851 367.391 110.807 367.354ZM145.271 380.677C142.145 376.381 138.336 372.64 133.595 370.105C130.775 368.598 127.723 367.522 124.778 366.248C124.256 366.021 123.737 365.784 123.218 365.554C123.275 365.38 123.327 365.205 123.384 365.031C132.764 367.101 141.53 370.622 149.457 376.054C154.935 381.384 155.431 386.63 156.15 388.973C157.603 393.712 155.14 398.59 150.42 399.752C147.01 400.588 143.484 399.765 140.349 398.107C138.811 397.298 138.602 393.476 139.804 392.054C140.829 390.83 141.992 389.953 143.668 389.685C145.027 389.471 146.323 388.836 147.522 388.428C149.091 385.057 146.82 382.808 145.271 380.677ZM76.9494 113.078C80.7496 115.552 82.8243 120.266 84.3928 124.354C87.303 131.944 89.214 141.152 89.3668 149.276C89.5544 158.99 87.8484 169.148 86.4238 178.749C85.837 182.691 85.5512 186.635 85.8741 190.612C85.9003 190.924 85.7977 191.24 85.6647 192.202C84.4845 189.34 83.337 187.067 82.604 184.665C81.5328 181.17 80.3744 177.63 79.9796 174.03C79.6043 170.585 78.9128 167.169 79.2509 163.561C79.877 156.833 79.3229 150.155 79.3949 143.421C79.4473 138.102 80.5642 119.544 70.9872 120.936C68.7599 121.261 66.6852 122.436 65.3632 124.252C60.5791 130.796 60.7536 142.875 62.8762 150.358C64.2877 155.328 66.9754 159.795 69.2158 164.412C71.8359 169.813 74.9707 174.839 77.4032 180.317C80.0406 186.245 82.7218 192.152 85.3571 198.077C89.3057 206.963 100.988 240.218 101.145 243.674C101.191 244.653 101.077 251.041 103.041 250.325C105.772 249.333 103.281 240.617 102.995 238.578C105.645 240.253 107.663 242.781 110.421 244.291C112.786 245.589 115.301 246.63 117.792 247.657C121.459 249.16 125.148 250.823 129.106 251.39C133.111 251.959 136.804 250.895 140.723 250.277C140.408 252.051 140.092 253.975 139.734 255.893C139.492 257.184 139.566 258.336 140.84 259.187C142.136 258.486 142.712 257.372 143.022 256.032C143.844 252.415 144.643 248.792 145.574 245.203C146.172 242.897 146.999 240.648 147.727 238.359C147.898 238.488 148.105 238.556 148.144 238.678C149.739 243.458 152.28 247.856 155.771 251.503C159.613 255.515 163.76 257.345 168.614 259.791C171.039 261.019 173.45 262.276 175.784 263.663C184.092 268.585 191.232 275.625 194.214 285.025C195.798 290.014 195.586 295.06 193.35 299.79C191.064 304.626 186.995 307.846 183.215 311.452C182.613 312.024 183.045 312.645 182.015 312.113C181.873 309.923 182.205 307.264 181.842 304.997C180.28 295.274 179.347 291.412 175.04 286.271C173.138 284 173.02 284.451 174.107 286.982C176.048 291.506 177.438 296.079 178.16 300.961C179.015 306.751 180.885 314.297 177.562 319.653C175.086 323.636 169.318 325.405 164.8 324.574C161.107 323.896 157.328 321.092 155.871 317.539C154.678 314.628 153.498 311.714 152.259 308.821C150.906 305.669 154.198 300.52 154.983 297.418C155.989 293.476 156.155 289.447 155.081 285.496C151.353 271.789 143.589 261.783 129.872 257.123C122.945 254.769 115.718 253.31 108.468 252.363C105.113 251.929 101.422 251.588 98.0449 251.859C96.7186 251.964 95.6103 252.409 94.8795 251.682C94.6876 251.49 94.5196 251.22 94.38 250.838C93.8957 249.507 94.513 247.142 94.4061 245.665C94.2905 244.036 94.0767 242.35 93.5226 240.825C91.0356 233.972 87.159 228.691 83.3217 222.596C79.456 216.455 74.5955 210.813 71.0309 204.517C66.6481 196.779 62.3832 189.078 58.7379 180.963C55.1601 172.998 53.1226 164.409 51.4864 155.864C49.3616 144.765 48.8773 132.363 53.3429 121.743C55.0554 117.674 57.73 113.691 61.9556 111.954C66.6678 110.015 72.6408 110.272 76.9494 113.078ZM75.8259 170.786C72.3769 163.484 68.112 156.357 65.5683 148.67C64.4448 145.277 64.1764 142.286 64.2855 138.733C64.4491 133.301 63.7314 130.02 67.6037 125.805C71.0963 122.009 73.4698 124.865 74.8202 127.999C76.0855 130.951 76.1182 134.143 76.3735 137.247C76.6592 140.718 76.4585 144.228 76.4629 147.718C76.4673 150.284 76.5044 152.849 76.4302 155.415C76.3538 158.063 76.116 160.707 76.031 163.36C75.9699 165.151 76.0593 166.951 76.0484 168.746C76.0462 169.305 75.9306 169.863 75.8259 170.786ZM80.3046 255.166C78.9215 255.522 77.558 256.394 76.6222 255.103C76.0637 254.331 76.1837 252.18 75.935 251.178C75.2587 248.46 74.7024 245.681 73.7207 243.067C71.1814 236.298 68.8166 229.452 67.0954 222.423C64.9989 213.872 61.8553 205.643 59.833 197.054C58.7379 192.394 57.3417 187.807 56.0742 183.188C56.168 183.147 56.2574 183.107 56.3469 183.073C58.7008 187.556 61.0285 192.052 63.4107 196.517C70.0819 209.005 79.0001 219.777 86.8558 231.483C89.4409 235.338 91.461 239.529 92.3031 244.132C92.6543 246.067 92.5933 248.1 92.5082 250.083C92.4144 252.241 90.9397 252.385 89.1377 252.858C86.1926 253.628 83.2519 254.407 80.3046 255.166ZM198.071 99.6415C200.449 94.9512 206.74 93.4481 211.477 94.1767C218.881 95.3199 219.699 102.327 217.057 108.564C215.711 111.743 211.228 111.98 208.643 110.187C205.418 107.942 208.309 105.447 208.121 102.438C208.038 101.079 207.567 100.778 206.967 101.044C205.8 101.557 204.125 104.186 203.75 105.37C200.248 116.335 211.088 125.124 220.929 125.563C234.254 126.16 250.28 117.028 251.927 102.8C252.132 101.011 252.154 99.1921 252.18 97.3858C252.2 96.2448 252.442 95.4246 253.491 94.6632C255.409 93.2779 258.493 90.9132 260.507 89.1701C260.64 89.0567 261.55 99.587 259.466 106.705C257.675 112.814 254.719 118.285 250.463 123.128C240.116 134.908 218.632 141.207 206.204 128.837C198.804 121.481 192.857 109.93 198.071 99.6415ZM158.688 65.605C159.7 58.286 163.546 52.1362 167.274 45.9166C169.159 42.7642 171.511 39.7341 173.993 37.0377C183.361 26.8542 194.962 21.1364 208.586 20.2442C212.624 19.9802 214.803 20.4121 218.833 20.7655C223.53 21.1735 231.228 22.4322 237.06 25.8006C232.915 28.6453 227.788 32.4804 225.362 37.3366C220.198 33.0171 197.336 26.3045 175.771 48.7177C173.59 50.9123 166.82 64.5732 164.979 69.3027C163.273 68.7574 161.626 68.2382 159.981 67.7059C158.965 67.3699 158.537 66.674 158.688 65.605ZM114.889 63.7114C116.682 55.2209 120.993 45.9624 128.717 41.3048C133.604 38.3597 139.337 37.3409 144.573 35.1987C149.571 33.1524 154.399 31.8849 158.971 28.8547C160.819 27.6265 162.302 25.8791 163.546 23.6823C163.685 25.2159 163.963 26.7495 163.945 28.2788C163.856 34.6489 162.287 40.4496 158.321 45.7028C155.646 49.2391 152.684 52.459 149.567 55.5198C146.602 58.4321 142.852 60.3999 138.868 61.5757C137.114 62.0949 135.068 61.5713 133.161 61.6237C130.199 61.7066 127.234 61.8811 123.922 62.0317C128.224 58.0634 132.461 55.0529 137.568 52.158C140.962 50.2361 143.982 47.9258 147.162 45.6875C145.888 44.383 144.896 44.8978 144.078 45.5675C140.949 48.133 136.99 49.2238 133.689 51.4054C129.577 54.1279 124.917 56.0761 121.623 60.0334C119.911 62.0949 117.952 64.0431 115.124 65.2669C115.028 64.7041 114.79 64.1739 114.889 63.7114ZM87.5539 86.2294C90.2568 83.6442 92.6282 80.6533 95.3922 78.1489C104.795 69.6322 118.901 65.5265 131.366 64.8262C134.963 64.6211 138.711 64.896 142.258 65.509C154.257 67.5706 167.619 73.3408 177.159 80.9326C184.166 86.5152 188.658 93.1907 191.703 101.502C191.971 102.235 191.84 103.167 192.883 103.514C193.058 103.57 193.014 104.347 193.032 104.794C193.187 108.187 193.298 111.577 193.501 114.969C193.546 115.752 193.9 116.518 194.111 117.29C193.944 117.367 193.782 117.445 193.612 117.519C192.859 116.37 192.194 115.146 191.343 114.072C188.616 110.647 186.179 107.028 183.747 103.394C179.131 96.511 172.529 90.4572 165.566 86.0178C154.53 78.9997 140.727 78.2078 128.026 79.2768C124.426 79.58 120.84 80.1123 117.317 80.8867C109.849 82.5316 102.718 85.4789 96.1688 89.41C90.2154 92.9878 85.3156 97.6018 79.8072 101.721C78.3979 100.446 78.3652 98.2715 79.2618 96.7052C81.4892 92.8111 84.3099 89.3272 87.5539 86.2294ZM51.9336 217.96C43.8008 195.625 35.2731 173.391 34.7081 149.313C34.4289 137.424 35.836 125.183 40.5961 114.19C42.7537 109.205 45.4282 104.321 48.8489 100.108C63.594 81.9732 70.8651 90.6972 73.3913 94.5345C74.7613 96.6157 75.8084 98.8911 76.6505 101.232C76.9647 102.104 77.966 107.687 78.6008 107.942C77.4337 107.469 76.4411 107.187 75.5728 106.69C71.2839 104.223 65.4723 105.789 61.2728 107.79C51.4188 112.48 45.858 127.068 46.4427 137.374C47.3262 152.908 49.8568 168.341 53.5283 183.454C55.7949 192.77 57.442 202.109 60.7601 211.127C65.8693 225.019 69.4667 239.618 73.8734 253.755C74.1396 254.603 74.3337 255.471 74.5541 256.305C71.8795 257.993 69.3882 259.571 66.5674 261.355C61.3775 246.994 57.1562 232.306 51.9336 217.96ZM65.2171 266.682C69.5234 262.444 74.157 259.963 80.021 258.471C89.3951 256.084 98.7147 255.074 108.394 255.611C122.579 256.399 137.908 261.015 146.593 273C150.703 278.677 153.088 285.638 152.876 292.669C152.662 299.912 150.14 310.202 143.711 314.484C143.665 314.519 143.559 314.463 143.268 314.408C142.276 314.229 139.741 302.767 139.065 301.301C135.873 294.368 130.901 288.816 124.675 284.506C120.406 281.552 112.831 273.458 107.114 277.898C107.596 277.523 113.272 280.402 113.996 280.749C116.59 282.001 119.069 283.502 121.433 285.147C126.776 288.853 131.791 293.081 134.749 298.982C136.613 302.698 138.137 307.207 138.862 311.845C140.282 320.968 137.411 334.125 126.662 336.328C119.834 337.727 112.661 334.035 108.652 328.595C103.931 322.194 103.632 313.998 103.49 306.358C103.353 298.583 103.217 290.675 99.8774 283.487C98.3438 280.188 96.2277 277.211 93.7909 274.519C88.3283 268.484 82.3553 262.69 73.52 265.426C70.708 266.298 68.2254 267.706 65.5683 268.809C65.1451 268.984 64.7044 269.108 63.8296 269.409C64.4186 268.223 64.6324 267.267 65.2171 266.682ZM61.9644 341.435C58.6091 331.023 55.1667 320.634 52.0034 310.165C50.088 303.825 42.6031 280.492 40.727 275.188C39.6668 272.189 38.0437 269.416 36.2418 266.704C34.586 264.198 32.459 262.418 30.3167 260.465C26.0103 256.545 19.8213 257.167 15.5869 260.044C14.2954 260.917 13.0541 261.859 11.7888 262.775C10.4144 262.191 9.56145 261.255 9.16877 259.896C8.02346 255.899 8.64084 252.055 10.8704 248.687C11.863 247.186 13.5886 245.953 15.312 245.179C27.4959 239.708 35.6942 249.871 38.9098 254.804C43.1463 261.303 45.2712 268.635 47.5836 275.88C48.8293 279.791 49.7695 283.81 50.6356 287.848C51.8354 293.463 52.7626 299.161 54.4031 304.678C55.3936 308.01 56.3207 312.27 57.3569 315.582C59.2702 321.705 62.2174 326.503 65.0862 332.212C66.0482 334.125 66.3056 335.979 65.6097 337.96C64.9575 339.819 64.2332 341.649 63.3518 344.005C62.7017 342.812 62.2 342.168 61.9644 341.435ZM24.4243 377.431C21.0931 371.41 18.508 364.994 16.5228 358.41C12.812 346.113 11.9655 333.156 8.74338 320.796C7.49989 316.003 6.48766 310.13 4.83623 301.703C3.57965 295.274 2.23146 287.134 4.39773 280.777C5.70448 276.942 8.811 275.208 12.6876 275.941C17.0376 276.759 19.9914 280.125 22.498 283.546C25.1355 287.145 27.3585 290.981 29.7451 294.722C33.2596 300.23 35.8164 306.273 38.1375 312.362C41.0303 319.943 44.115 327.526 46.5801 335.259C48.3799 340.879 50.6487 346.337 52.3917 351.974C53.6854 356.159 55.9869 361.527 51.3533 364.558C49.9768 365.452 48.4192 366.126 46.8572 366.65C43.7659 367.697 42.8584 363.096 41.9225 361.012C40.474 357.786 32.6618 334.467 30.0113 326.04C28.6762 321.784 26.6408 317.833 24.9326 313.725C22.991 309.063 21.176 304.423 18.8897 299.916C18.8156 299.772 18.676 299.661 18.5691 299.537C17.6615 298.509 15.9447 297.857 15.2793 298.387C14.2103 299.24 14.6357 300.411 14.9826 301.382C16.0428 304.399 16.3417 307.506 16.477 310.68C16.6122 313.902 16.6602 317.096 16.5228 320.34C16.2174 327.644 17.3365 334.498 19.3348 341.453C21.813 350.089 23.3379 358.632 29.3459 365.757C33.8857 371.148 43.1769 372.431 49.619 370.254C59.1327 367.036 63.3082 354.191 66.5434 345.761C72.1522 331.171 75.4572 315.318 74.6871 299.641C74.3272 292.346 73.5549 285.095 72.4118 277.898C71.9711 275.136 70.9262 272.479 70.0688 269.466C71.1836 269.006 72.1631 268.589 73.1513 268.192C80.5555 265.234 81.7881 278.965 82.6476 283.476C84.2096 291.674 84.2161 299.94 83.7471 308.241C83.1624 318.553 82.4971 328.854 80.8064 339.051C78.6008 352.358 75.3874 365.797 70.348 378.327C66.8859 386.938 60.8343 399.929 49.7455 399.628C38.155 399.31 29.4048 386.421 24.4243 377.431ZM40.0813 368.768C25.9318 367.843 20.7702 335.639 19.7209 330.796C18.6825 326.036 18.7501 321.474 18.8876 316.646C18.9923 312.846 18.7239 309.055 18.6061 305.257C18.6912 305.211 18.7719 305.167 18.8592 305.119C19.2606 306.005 19.6882 306.875 20.0634 307.77C23.8789 316.836 27.3716 325.981 30.2774 335.384C33.4472 345.648 37.8866 355.362 41.3422 365.491C41.7676 366.75 41.3662 368.849 40.0813 368.768ZM85.056 436.887C79.5367 429.668 75.9306 421.088 71.4912 413.208C69.7874 410.178 67.9854 407.205 65.9915 404.358C64.5626 402.311 61.6568 399.159 63.642 396.615C65.3567 394.416 66.6329 392.065 67.451 389.414C67.6255 388.842 68.1512 388.382 68.5221 387.859C70.3873 391.838 72.1522 395.651 73.9825 399.432C74.3359 400.16 74.962 400.756 75.4354 401.439C76.0986 402.39 76.6876 403.391 77.3923 404.305C78.5354 405.808 79.552 407.488 80.97 408.695C83.6118 410.935 86.4959 412.896 89.2795 414.971C88.8977 416.803 88.492 418.649 88.1386 420.51C87.8615 421.963 88.2782 422.938 89.4671 424.114C92.842 427.462 98.4485 431.038 103.141 431.95C109.749 433.228 115.482 432.342 121.922 430.161C129.067 427.746 135.031 424.127 138.122 417.072C139.226 414.563 140.707 412.056 143.395 410.684C145.066 409.827 146.665 408.839 148.312 407.944C149.691 407.198 149.68 406.568 148.397 405.4C145.083 406.044 141.944 406.832 138.757 407.185C134.451 407.663 128.899 404.155 125.258 402.237C119.123 399.004 112.552 395.206 105.451 397.776C98.7692 400.191 94.4236 407.172 89.646 412.076C85.0364 409.111 81.1729 405.924 78.1013 401.312C75.1627 396.903 73.0619 392.001 70.7407 387.256C69.8747 385.481 70.2172 384.039 70.6426 382.536C71.2294 380.47 72.0867 378.476 72.9288 376.493C74.2596 373.373 75.6645 370.288 77.0759 367.208C77.2679 366.787 77.689 366.462 78.1994 365.875C78.2125 365.858 82.6847 371.226 83.1275 371.652C85.1258 373.587 87.4448 375.158 89.6962 376.779C96.1099 381.392 103.582 384.713 111.313 386.358C121.006 388.419 130.615 386.009 139.97 383.478C140.906 383.227 141.761 382.686 142.804 382.208C143.279 381.99 145.053 385.038 144.911 385.566C144.61 386.696 142.409 387.069 141.484 387.599C138.897 389.078 135.853 391.46 135.707 394.702C135.297 403.727 149.715 405.123 154.929 400.603C157.976 397.961 159.056 393.731 158.648 389.831C158.201 385.522 154.961 382.123 154.521 377.819C154.218 374.863 158.236 373.362 160.075 371.859C162.597 369.798 164.65 367.062 165.806 364.006C166.665 361.73 172.032 370.312 172.429 371.1C176.05 378.262 177.754 386.299 177.687 394.309C177.65 398.306 177.257 402.272 176.541 406.201C176.369 407.126 175.108 415.311 174.096 415.272C168.227 415.025 161.814 417.069 158.315 422.054C154.9 426.917 156.198 433.477 156.198 439.033C153.548 439.583 151.266 442.166 148.807 443.281C146.187 444.47 143.428 445.235 140.581 445.637C134.924 446.433 129.06 445.879 123.56 444.398C120.391 443.54 117.437 442.135 114.832 440.133C112.109 438.036 110.159 435.126 107.218 433.289C106.819 433.038 106.189 433.156 105.665 433.106C105.624 433.804 105.262 434.823 105.591 435.155C108.595 438.185 111.3 441.494 114.952 443.791C120.484 447.269 127.053 450.34 133.307 452.232C141.13 454.588 149.639 453.702 157.619 455.567C156.955 456.113 156.709 456.429 156.388 456.564C152.008 458.447 147.435 459.424 142.78 460.356C138.089 461.298 132.937 461.599 128.163 461.383C111.442 460.642 95.0453 449.95 85.056 436.887ZM113.074 419.742C115.1 419.354 117.192 419.264 119.258 419.111C121.505 418.946 123.292 417.709 125.142 416.644C125.517 416.426 125.672 415.835 125.91 415.455C125.334 414.275 124.394 414.561 123.739 414.977C119.769 417.517 115.194 416.622 110.91 417.185C106.494 417.765 102.179 416.533 97.9708 415.182C96.4982 414.709 94.7857 414.855 93.6295 413.533C93.4179 413.291 93.191 413.064 92.7307 412.571C93.4463 411.771 94.1247 410.985 94.8228 410.237C95.8329 409.159 97.0196 408.208 97.8464 407.008C99.7138 404.307 101.97 402.069 104.91 400.621C107.548 399.325 110.416 399.303 113.2 399.857C116.121 400.442 118.879 401.557 121.503 403.057C124.871 404.984 128.29 406.875 131.859 408.367C133.866 409.207 136.218 409.212 138.414 409.611C138.927 409.705 139.429 409.87 140.144 410.058C139.294 411.114 138.534 411.877 137.993 412.776C136.759 414.818 133.759 422.713 120.233 427.886C112.561 430.519 104.952 430.545 97.7264 426.241C96.315 425.401 94.9101 424.55 93.4942 423.714C91.6421 422.624 90.7651 421.145 91.3978 418.935C91.6203 418.152 91.6508 417.303 91.7861 416.387C92.4035 416.387 92.999 416.254 93.503 416.408C95.7914 417.111 98.0275 417.99 100.331 418.625C104.498 419.766 108.7 420.584 113.074 419.742ZM198.701 500.922C198.625 500.018 199.218 499.059 199.552 497.966C200.905 498.188 202.26 498.341 202.999 496.482C202.233 496.142 201.461 495.788 200.464 495.341C201.409 492.051 203.346 489.346 205.65 486.888C206.097 486.41 206.878 486.253 207.748 485.827C207.962 485.385 208.355 484.665 208.654 483.906C209.059 482.874 208.704 482.368 207.578 482.287C206.727 482.224 205.994 482.337 205.355 483.079C202.746 486.1 200.342 489.257 198.808 492.968C198.198 494.455 197.417 495.457 195.682 495.664C194.637 495.788 193.564 496.192 192.641 496.72C188.442 499.128 182.523 499.107 177.833 499.041C172.351 498.965 166.875 498.177 161.55 496.903C148.886 493.873 135.938 488.109 125.988 479.58C121.409 475.655 104.236 461.56 101.038 457.858C99.2121 455.744 97.4276 453.593 95.7456 451.228C97.8333 452.293 99.956 453.303 102.004 454.442C107.731 457.616 113.543 460.585 119.745 462.742C120.489 463.002 121.172 463.565 121.767 464.115C122.67 464.941 123.573 465.801 124.293 466.778C127.391 470.997 132.302 474.427 136.802 476.94C158.753 489.211 163.611 489.211 170.363 490.28C176.4 491.235 180.643 488.214 183.245 485.609C185.708 483.142 188.544 480.723 192.089 480.356C196.69 479.883 201.173 479.963 205.791 479.636C206.88 479.56 216.18 482.409 218.654 484.263C221.082 486.078 223.165 488.354 225.447 490.374C228.309 492.9 229.749 496.151 230.517 499.802C230.814 501.212 232.267 503.603 232.88 500.956C233.329 499.008 231.344 496.151 230.6 494.425C229.623 492.154 228.504 490.33 226.737 488.596C224.612 486.521 222.384 484.442 220.072 482.579C217.541 480.546 211.73 479.217 210.589 475.923C209.439 472.616 210.453 469.848 212.86 467.59C216.906 463.789 222.509 459.439 228.414 461.032C237.762 463.563 244.219 474.806 247.154 483.273C249.03 488.683 250.67 494.27 253.524 499.277C256.51 504.517 260.612 507.909 265.579 511.173C262.032 513.06 258.869 514.851 255.609 516.439C250.476 518.948 243.999 520.593 238.445 521.679C234.736 522.403 231.702 522.139 227.923 522.251C214.69 522.648 199.943 515.789 198.701 500.922Z" fill="#E2F3E6"/>
<path d="M46.0735 242.471C46.1433 242.12 46.2916 241.764 46.2742 241.42C45.9753 236.136 43.7632 231.321 42.4914 226.278C41.4203 222.039 39.8539 217.92 38.4337 213.769C37.8207 211.971 37.0288 210.232 36.3089 208.472C34.616 204.342 33.0846 200.171 31.4659 196.02C30.2638 192.946 28.4204 189.128 24.6747 188.812C20.6628 188.476 16.9629 192.42 15.2766 195.655C13.1889 199.663 13.6034 204.323 14.524 208.601C15.3726 212.564 16.9826 217.519 22.2445 217.582C28.536 217.656 30.8092 212.283 32.0069 212.623C35.1243 213.505 37.8643 222.781 39.0184 225.385C40.8203 229.452 42.4281 233.821 43.532 238.001C43.9487 239.592 44.9413 241.023 45.6743 242.521C45.8052 242.506 45.9382 242.489 46.0735 242.471ZM23.0538 215.335C21.5835 215.739 20.7217 215.267 20.1633 214.185C18.4835 210.937 17.0807 207.577 16.6488 203.886C16.3805 201.611 16.7339 199.456 17.4451 197.291C18.1999 194.997 19.8011 193.52 21.7754 192.381C23.0822 191.624 25.4862 192.169 26.2651 193.489C29.7119 199.32 32.7137 205.359 34.7382 211.847C34.784 211.991 34.7207 212.165 34.6967 212.466C34.0815 211.978 33.5667 211.478 32.9711 211.114C30.7001 209.731 29.4872 209.979 27.8838 212.109C26.6468 213.745 25.0979 214.777 23.0538 215.335Z" fill="#E2F3E6"/>
</svg>
