<svg width="18" height="18" viewBox="0 0 18 18" fill="none" xmlns="http://www.w3.org/2000/svg">
<path d="M16 2V16H2V2H16ZM17.1 0H0.9C0.4 0 0 0.4 0 0.9V17.1C0 17.5 0.4 18 0.9 18H17.1C17.5 18 18 17.5 18 17.1V0.9C18 0.4 17.5 0 17.1 0Z" fill="#81747F"/>
<rect x="8" y="5" width="2" height="8" fill="#81747F"/>
<rect x="12" y="7" width="2" height="6" transform="rotate(90 12 7)" fill="#81747F"/>
</svg>
