<svg width="14" height="17" viewBox="0 0 14 17" fill="none" xmlns="http://www.w3.org/2000/svg">
<path d="M6.98892 14.286C6.98892 14.286 3.15806 14.286 2.01773 14.286C0.877399 14.286 0.904027 13.1505 1.1113 12.5581C1.82473 10.5193 3.05453 10.8855 3.05453 9.23819C3.05453 8.10826 3.05453 7.00112 3.05453 5.45879C3.05453 2.27112 6.22096 1.85742 7 1.85742C7.77904 1.85742 10.9455 2.27112 10.9455 5.45879C10.9455 7.00112 10.9455 8.10826 10.9455 9.23819C10.9455 10.8855 12.1753 10.5193 12.8887 12.5581C13.096 13.1505 13.1226 14.286 11.9823 14.286C10.8419 14.286 7.01108 14.286 7.01108 14.286H6.98892Z" stroke="white" stroke-width="1.5" stroke-miterlimit="10" stroke-linecap="round" stroke-linejoin="round"/>
<path d="M8.71422 14.7148C8.71422 15.6614 7.94669 15.4291 6.99993 15.4291C6.05317 15.4291 5.28564 15.6616 5.28564 14.7148" stroke="white" stroke-width="1.5" stroke-miterlimit="10" stroke-linecap="round" stroke-linejoin="round"/>
<path d="M6 1.85714C6 1.85714 6.30851 1 7.10969 1C7.91109 1 8.14286 1.823 8.14286 1.823" stroke="white" stroke-width="1.5" stroke-miterlimit="10" stroke-linecap="round" stroke-linejoin="round"/>
</svg>
