<svg width="10" height="10" viewBox="0 0 10 10" fill="none" xmlns="http://www.w3.org/2000/svg">
<rect x="0.90918" width="12.8563" height="1.28563" transform="rotate(45 0.90918 0)" fill="#81747F"/>
<rect x="10" y="0.90918" width="12.8563" height="1.28563" transform="rotate(135 10 0.90918)" fill="#81747F"/>
</svg>
