<svg width="30" height="18" viewBox="0 0 30 18" fill="none" xmlns="http://www.w3.org/2000/svg">
<path d="M18.5003 1.91602H10.6255V16.0673H18.5003V1.91602Z" fill="#FF5F00"/>
<path d="M11.1241 9.00031C11.1228 7.63743 11.4316 6.29214 12.0272 5.06627C12.6227 3.8404 13.4893 2.76608 14.5615 1.92465C13.2338 0.881083 11.6393 0.232103 9.96025 0.0518887C8.2812 -0.128326 6.58531 0.16749 5.06643 0.90554C3.54755 1.64359 2.26696 2.79409 1.37104 4.22553C0.475109 5.65698 0 7.31161 0 9.00031C0 10.689 0.475109 12.3436 1.37104 13.7751C2.26696 15.2065 3.54755 16.357 5.06643 17.0951C6.58531 17.8331 8.2812 18.1289 9.96025 17.9487C11.6393 17.7685 13.2338 17.1195 14.5615 16.076C13.4893 15.2345 12.6227 14.1602 12.0272 12.9343C11.4317 11.7085 11.1228 10.3632 11.1241 9.00031Z" fill="#EB001B"/>
<path d="M29.1245 8.99982C29.1245 10.6885 28.6495 12.3431 27.7536 13.7746C26.8577 15.206 25.5772 16.3565 24.0583 17.0946C22.5395 17.8326 20.8436 18.1284 19.1646 17.9482C17.4856 17.768 15.8911 17.119 14.5635 16.0755C15.6346 15.2332 16.5006 14.1587 17.096 12.933C17.6915 11.7073 18.0009 10.3625 18.0009 8.99982C18.0009 7.63716 17.6915 6.29229 17.096 5.06661C16.5006 3.84093 15.6346 2.76644 14.5635 1.92416C15.8911 0.880591 17.4856 0.23161 19.1646 0.0513981C20.8436 -0.128814 22.5395 0.167015 24.0583 0.905072C25.5772 1.64313 26.8577 2.79363 27.7536 4.22507C28.6495 5.65652 29.1245 7.31114 29.1245 8.99982Z" fill="#F79E1B"/>
<path d="M28.2608 14.569V14.2793H28.3776V14.2203H28.0801V14.2793H28.197V14.569H28.2608ZM28.8384 14.569V14.2197H28.7472L28.6423 14.46L28.5374 14.2197H28.4461V14.569H28.5105V14.3055L28.6089 14.5327H28.6757L28.774 14.305V14.569H28.8384Z" fill="#F79E1B"/>
</svg>
