<svg width="40" height="40" viewBox="0 0 40 40" fill="none" xmlns="http://www.w3.org/2000/svg">
<path d="M0.388618 9.97243C-2.32181 20.3498 9.63716 39.9415 20.9792 39.8305C31.099 39.7305 39.3257 26.7252 39.9753 15.966C41.0852 -2.41547 4.45772 -5.61197 0.388618 9.97243Z" fill="#76B043"/>
</svg>
