<svg width="339" height="165" viewBox="0 0 339 165" fill="none" xmlns="http://www.w3.org/2000/svg">
<path d="M332.965 148.814C332.13 146.191 331.307 143.534 330.142 141.053C328.331 137.193 326.559 133.289 324.144 129.757C322.737 127.7 321.315 125.607 319.596 123.828C316.203 120.314 312.591 117.015 309.086 113.61C308.32 112.867 300.084 105.012 298.699 102.934C292.515 93.6611 292.71 84.6559 293.904 81.9487C294.33 80.9792 294.715 79.9713 295.291 79.094C296.233 77.6559 297.251 76.8707 299.059 76.376C300.546 75.9673 302.346 76.4113 303.834 76.8615C306.47 77.6574 308.223 79.6533 309.826 81.7797C310.329 82.4465 310.51 83.0857 310.232 83.9845C309.458 86.4889 308.979 88.9795 310.17 91.4209C310.556 92.2153 311.213 93.1279 312.292 93.3492C313.661 93.6303 314.864 93.3415 315.804 92.3566C316.86 91.2519 317.116 89.8875 316.545 88.4525C316.204 87.6044 315.74 86.8054 315.302 85.9973C314.578 84.6636 313.834 83.3407 313.11 82.0378C314.212 80.7426 315.61 80.8655 316.931 81.0161C318.718 81.2204 320.4 81.8089 321.7 83.1395C322.199 83.6496 322.688 83.6281 323.154 83.2409C323.704 82.783 323.625 82.1469 323.257 81.7536C322.768 81.225 322.048 80.6996 321.401 80.4399C318.296 79.1769 315.146 78.2674 311.986 80.2402C310.723 78.5624 309.368 77.0244 307.564 76.1148C304.291 74.4677 300.838 73.5597 297.179 74.7397C296.465 74.9686 295.38 75.6247 294.842 76.1501C293.392 77.5729 288.936 81.8796 291.682 92.7638C292.597 96.3929 294.128 99.4274 295.928 102.749C273.133 94.7765 254.38 90.7065 234.841 100.214C220.313 107.283 219.387 115.483 212.205 128.543C209.659 133.171 203.601 133.435 201.508 133.106C198.538 132.639 196.754 130.8 196.8 127.803C196.817 126.822 196.973 125.845 196.977 124.865C196.98 123.977 196.636 122.405 195.45 123.139C194.898 123.479 194.902 124.346 194.779 124.982C194.477 126.578 194.339 128.184 194.339 129.825C194.339 131.255 194.843 140.126 201.746 142.122C205.073 143.086 209.901 142.635 216.845 138.633C219.099 137.335 220.541 135.247 222.632 133.635C222.612 133.618 222.753 133.676 222.791 133.776C224.308 137.67 226.742 140.683 230.319 142.635C232.954 144.075 235.264 144.745 239.768 144.364C245.32 143.272 249.168 140.151 250.262 139.043C250.792 138.505 250.74 137.793 250.126 137.462C249.079 136.898 247.934 136.162 246.822 136.145C243.507 136.089 240.513 135.525 238.235 133.226C236.882 131.857 235.783 129.794 236.248 127.497C236.703 125.249 237.406 123.17 238.738 121.279C240.519 118.748 242.733 116.743 245.228 114.919C250.867 110.908 262.323 108.21 267.035 107.758C280.941 106.234 303.29 110.524 310.059 117.338C311.619 118.797 313.104 120.338 314.589 121.876C315.458 122.778 316.264 123.743 317.098 124.679C315.849 123.877 313.421 122.533 311.135 121.451C308.504 120.323 301.067 117.058 296.41 115.938C293.432 115.088 290.433 114.654 287.385 114.603C284.007 114.549 277.249 115.425 271.013 119.515C265.69 123.172 265.567 127.554 265.351 130.341C265.142 132.99 266.519 134.973 268.391 136.671C269.778 137.928 271.613 138.141 273.38 138.117C274.242 138.104 274.757 137.814 274.855 136.94C274.855 135.462 273.49 135.886 272.095 135.861C271.68 135.854 271.24 135.758 270.855 135.598C268.644 134.684 267.302 132.421 267.542 130.02C268.149 123.938 273.533 120.343 274.638 119.756C277.916 118.015 281.535 117.25 285.167 116.883C289.014 116.494 295.764 117.568 300.682 119.521C306.717 121.73 314.649 125.707 316.771 126.739C319.199 127.922 321.522 129.274 322.875 131.787C323.626 133.182 324.449 134.541 325.148 135.963C326.549 138.811 330.551 146.722 330.788 147.657C327.467 144.968 323.337 142.207 319.236 141.133C314.304 139.841 309.543 141.065 305.286 144.04C303.827 145.06 302.152 146.099 300.297 145.865C297.671 145.535 295.617 143.918 294.146 141.695C293.199 140.263 292.646 138.773 293.178 137.021C293.404 136.267 292.98 135.671 292.358 135.348C292.04 135.185 291.351 135.182 291.193 135.385C290.854 135.826 290.528 136.479 290.594 136.994C290.931 139.59 292.048 141.876 293.634 143.948C295.331 146.166 296.946 147.242 299.56 147.913C300.651 148.193 302.38 148.124 303.321 147.675C304.85 146.948 306.312 146.077 307.803 145.267C309.016 144.608 310.245 143.992 311.543 143.777C311.724 145.011 311.76 146.146 312.068 147.202C312.649 149.207 313.685 150.917 315.763 151.727C317.792 152.518 320.062 152.61 321.939 153.885C322.177 154.048 322.854 153.928 323.041 153.701C323.225 153.478 323.197 152.765 322.99 152.593C322.212 151.945 321.383 151.29 320.463 150.897C319.407 150.444 318.238 150.252 317.11 149.969C315.821 149.646 314.778 148.806 314.413 147.663C313.561 144.991 313.497 143.471 316.79 143.244C319.561 143.052 321.738 144.126 325.672 146.292C327.275 147.176 328.693 148.432 329.906 149.772C330.536 150.468 333.531 156.228 336.114 164.995H339C336.481 155.563 333.589 150.765 332.965 148.814ZM312.301 85.2674C313.438 86.7778 314.306 88.2681 314.588 89.9905C314.707 90.7264 314.097 91.3195 313.328 91.5715C311.468 89.8707 311.184 88.328 312.301 85.2674ZM251.767 109.304C236.447 115.141 230.292 127.524 236.356 134.887C240.539 138.793 245.582 138.888 247.502 138.461C247.315 138.8 241.121 143.195 236.068 142.729C230.162 142.185 226.179 136.923 225.087 134.975C224.406 133.758 224.32 132.357 224.602 131.04C224.769 130.256 224.487 129.777 224.017 129.48C223.491 129.152 222.834 129.268 222.383 129.832C221.942 130.385 221.542 130.978 221.056 131.49C219.8 132.805 218.615 134.226 217.199 135.351C214.857 137.209 212.427 139 209.419 139.678C206.577 140.317 202.999 140.915 200.279 139.237C198.173 137.596 196.554 135.101 196.192 132.579C197.533 134.148 200.428 135.357 202.726 135.837C213.25 136.566 217.225 124.688 218.21 123.866C219.15 124.19 219.896 124.61 219.907 124.616L220.042 124.722C220.189 124.84 220.359 124.969 220.428 125.069C220.673 125.418 221.154 125.501 221.496 125.255C221.841 125.012 221.924 124.53 221.68 124.186C221.478 123.897 221.2 123.683 220.977 123.51L220.855 123.413C220.843 123.404 220.253 122.954 218.992 122.523C219.28 121.586 219.524 120.71 219.778 120.251C219.979 119.882 220.692 119.228 221.291 118.622C223.684 118.996 224.742 119.741 224.759 119.752L224.894 119.856C225.042 119.974 225.214 120.103 225.28 120.205C225.528 120.552 226.008 120.635 226.351 120.391C226.696 120.148 226.777 119.664 226.533 119.32C226.331 119.031 226.054 118.817 225.83 118.644L225.71 118.548C225.69 118.533 224.523 117.639 221.895 117.163C222.086 115.967 223.43 114.282 224.172 113.278C228.408 114.594 229.748 116.394 229.764 116.416L229.863 116.559C229.968 116.714 230.092 116.888 230.13 117.004C230.262 117.41 230.696 117.63 231.094 117.498C231.497 117.367 231.719 116.932 231.587 116.53C231.477 116.193 231.276 115.906 231.112 115.674L231.023 115.549C231.008 115.52 229.494 113.375 224.808 111.868C225.776 109.437 227.578 108.159 230.069 108.396C230.216 108.411 230.345 108.399 230.469 108.383C234.384 109.875 235.576 111.644 235.59 111.664L235.682 111.811C235.78 111.971 235.898 112.152 235.927 112.271C236.042 112.679 236.465 112.922 236.87 112.808C237.277 112.698 237.518 112.272 237.406 111.865C237.313 111.524 237.126 111.227 236.973 110.989L236.894 110.859C236.876 110.829 235.278 108.317 229.906 106.556C229.88 106.546 229.866 106.537 229.839 106.524C230.872 105.209 232.908 104.307 234.553 103.708C235.416 103.785 236.349 103.958 237.333 104.323C242.771 106.335 244.163 108.827 244.175 108.849L244.256 109.003C244.342 109.17 244.442 109.359 244.465 109.48C244.548 109.897 244.948 110.173 245.361 110.092C245.775 110.014 246.049 109.611 245.968 109.195C245.905 108.847 245.743 108.537 245.61 108.285L245.539 108.15C245.522 108.118 243.95 105.132 237.863 102.878C237.599 102.781 237.339 102.712 237.078 102.634C237.65 101.586 243.014 99.6963 246.163 101.286C249.583 103.018 250.55 104.731 250.562 104.753L250.642 104.906C250.728 105.074 250.829 105.263 250.851 105.384C250.932 105.801 251.333 106.077 251.747 105.996C252.162 105.917 252.435 105.513 252.355 105.098C252.291 104.75 252.129 104.441 251.995 104.189L251.925 104.052C251.913 104.026 250.788 101.913 246.82 99.9037C246.76 99.7884 246.696 99.6671 246.615 99.5411C248.442 99.2691 250.115 99.0064 251.788 98.7775C252.619 98.6607 253.819 98.8512 254.758 98.9649C259.875 100.952 261.212 103.322 261.227 103.345L261.307 103.5C261.392 103.668 261.494 103.855 261.515 103.977C261.596 104.395 261.998 104.67 262.412 104.59C262.827 104.51 263.1 104.107 263.02 103.691C262.956 103.344 262.793 103.033 262.66 102.783L262.589 102.645C262.577 102.619 261.458 100.52 257.518 98.5132C258.124 98.5117 258.731 98.5055 259.336 98.5163C261.016 98.547 262.694 98.5869 264.37 98.6515C265.492 98.6945 266.735 98.885 267.763 99.0417C270.704 100.661 271.56 102.175 271.571 102.195L271.651 102.35C271.737 102.517 271.838 102.705 271.859 102.826C271.94 103.244 272.342 103.519 272.756 103.439C273.171 103.359 273.444 102.957 273.364 102.54C273.3 102.193 273.137 101.883 273.004 101.632L272.934 101.494C272.924 101.475 272.311 100.315 270.387 98.8973C272.02 98.5285 273.422 98.968 274.73 99.3936C275.421 99.6179 277.059 100.268 278.447 100.75C280.253 102.001 280.821 103.012 280.83 103.027L280.91 103.181C280.996 103.348 281.097 103.537 281.118 103.659C281.2 104.075 281.601 104.352 282.015 104.27C282.43 104.192 282.703 103.788 282.623 103.373C282.559 103.024 282.397 102.715 282.263 102.463L282.193 102.327C282.187 102.314 281.963 101.89 281.367 101.245C286.444 101.661 299.802 108.483 303.531 110.753C295.761 109.305 277.819 100.406 251.767 109.304ZM143.556 123.138C142.37 122.403 142.028 123.975 142.031 124.863C142.034 125.844 142.191 126.821 142.206 127.801C142.25 130.799 140.47 132.638 137.498 133.105C135.405 133.434 129.347 133.169 126.801 128.542C119.617 115.482 118.693 107.282 104.165 100.212C84.6263 90.7049 65.8734 94.775 43.0778 102.748C44.8816 99.4258 46.411 96.3913 47.3258 92.7622C50.0705 81.878 45.6156 77.5698 44.1644 76.1486C43.6249 75.6231 42.5384 74.9671 41.8273 74.7381C38.1663 73.5566 34.7136 74.4647 31.4418 76.1133C29.6365 77.0229 28.2833 78.5608 27.0206 80.2386C23.8606 78.2658 20.7114 79.1754 17.6051 80.4384C16.9584 80.6996 16.2381 81.225 15.7492 81.752C15.383 82.1454 15.3017 82.7815 15.8519 83.2393C16.3193 83.6265 16.8066 83.648 17.3062 83.1379C18.6073 81.8074 20.2884 81.2189 22.0753 81.0145C23.3963 80.864 24.7939 80.7411 25.8957 82.0363C25.1709 83.3407 24.4276 84.6621 23.7043 85.9957C23.2675 86.8024 22.8001 87.6028 22.4615 88.451C21.8899 89.886 22.1473 91.2504 23.2017 92.3551C24.1426 93.3415 25.3456 93.6288 26.7141 93.3476C27.7929 93.1264 28.4504 92.2137 28.8366 91.4194C30.0273 88.978 29.5476 86.4874 28.7737 83.983C28.4948 83.0841 28.6772 82.445 29.1814 81.7782C30.7828 79.6517 32.5359 77.6543 35.1733 76.86C36.6614 76.4098 38.462 75.9658 39.947 76.3745C41.7553 76.8677 42.7729 77.6543 43.7153 79.0924C44.2915 79.9698 44.6762 80.9792 45.1022 81.9472C46.2945 84.6544 46.4891 93.6595 40.3071 102.932C38.9218 105.012 30.6863 112.865 29.92 113.609C26.4152 117.015 22.8017 120.312 19.4118 123.826C17.6909 125.605 16.2687 127.7 14.8619 129.755C12.4468 133.288 10.6752 137.192 8.86383 141.051C7.69915 143.533 6.87621 146.189 6.04101 148.812C5.42036 150.765 2.52705 155.563 0 165H2.88565C5.4694 156.233 8.46385 150.473 9.0937 149.777C10.3074 148.437 11.725 147.182 13.3279 146.297C17.2602 144.13 19.4394 143.056 22.2101 143.248C25.5019 143.476 25.4375 144.995 24.587 147.667C24.2238 148.81 23.1802 149.651 21.8899 149.974C20.762 150.258 19.5942 150.45 18.5353 150.902C17.6158 151.295 16.7867 151.949 16.0098 152.598C15.8029 152.768 15.7768 153.483 15.9592 153.706C16.1477 153.933 16.822 154.054 17.061 153.89C18.9398 152.615 21.2064 152.521 23.2384 151.731C25.3149 150.922 26.3509 149.21 26.9317 147.206C27.2397 146.149 27.2765 145.014 27.4589 143.782C28.7569 143.997 29.9844 144.613 31.1966 145.272C32.6877 146.082 34.1496 146.954 35.6791 147.68C36.62 148.128 38.3486 148.197 39.4397 147.918C42.0541 147.245 43.6694 146.171 45.3658 143.952C46.9519 141.88 48.0722 139.595 48.4062 136.998C48.4721 136.483 48.1457 135.831 47.807 135.39C47.6477 135.185 46.9596 135.188 46.6424 135.353C46.0202 135.675 45.5942 136.271 45.8225 137.026C46.3558 138.777 45.801 140.268 44.854 141.7C43.3828 143.923 41.3293 145.539 38.7042 145.87C36.8483 146.103 35.1749 145.066 33.7144 144.044C29.4587 141.07 24.6958 139.847 19.7643 141.137C15.6634 142.211 11.5334 144.972 8.21253 147.661C8.44699 146.727 12.4513 138.816 13.852 135.967C14.5524 134.546 15.3738 133.186 16.1247 131.791C17.4794 129.279 19.8011 127.925 22.2285 126.744C24.351 125.711 32.2846 121.734 38.3164 119.526C43.2341 117.573 49.9862 116.499 53.8327 116.888C57.4662 117.255 61.0844 118.02 64.3624 119.761C65.4673 120.348 70.8509 123.943 71.4592 130.024C71.6983 132.426 70.3574 134.689 68.143 135.603C67.7598 135.763 67.3216 135.858 66.9063 135.866C65.5117 135.892 64.1447 135.466 64.1447 136.944C64.2413 137.817 64.7562 138.109 65.6205 138.121C67.3875 138.146 69.2203 137.932 70.6087 136.676C72.4829 134.978 73.8576 132.994 73.6491 130.345C73.4331 127.56 73.3074 123.176 67.9867 119.52C61.7526 115.43 54.9928 114.554 51.6152 114.608C48.5687 114.658 45.5696 115.093 42.592 115.943C37.9348 117.063 30.4947 120.328 27.865 121.455C25.58 122.536 23.1526 123.88 21.9036 124.684C22.7358 123.748 23.5403 122.783 24.4108 121.881C25.8957 120.343 27.3807 118.802 28.9408 117.342C35.7097 110.527 58.0593 106.237 71.9634 107.763C76.6773 108.214 88.1341 110.912 93.7721 114.924C96.2669 116.748 98.4829 118.751 100.264 121.283C101.594 123.173 102.297 125.254 102.752 127.501C103.217 129.797 102.119 131.862 100.765 133.231C98.489 135.529 95.4946 136.093 92.1783 136.15C91.0626 136.169 89.9194 136.903 88.8758 137.467C88.2613 137.797 88.2076 138.512 88.7379 139.048C89.8336 140.156 93.6801 143.276 99.2323 144.369C103.736 144.75 106.047 144.08 108.681 142.64C112.255 140.687 114.692 137.676 116.209 133.781C116.247 133.683 116.388 133.623 116.368 133.64C118.459 135.251 119.902 137.339 122.152 138.638C129.099 142.639 133.927 143.089 137.253 142.127C144.155 140.131 144.659 131.26 144.659 129.829C144.659 128.188 144.521 126.583 144.22 124.986C144.106 124.344 144.109 123.477 143.556 123.138ZM25.6812 91.5715C24.9119 91.3195 24.302 90.7249 24.4215 89.9905C24.7065 88.2681 25.5709 86.7778 26.7079 85.2674C27.8251 88.328 27.5416 89.8707 25.6812 91.5715ZM138.729 139.24C136.01 140.918 132.43 140.32 129.589 139.681C126.581 139.003 124.15 137.212 121.809 135.354C120.393 134.231 119.21 132.81 117.951 131.493C117.466 130.981 117.066 130.388 116.624 129.835C116.174 129.271 115.515 129.155 114.992 129.483C114.52 129.778 114.238 130.259 114.405 131.043C114.687 132.358 114.601 133.761 113.921 134.978C112.828 136.926 108.845 142.187 102.939 142.732C97.8867 143.198 91.694 138.802 91.5055 138.464C93.4242 138.891 98.4706 138.796 102.651 134.89C108.715 127.528 102.561 115.142 87.2407 109.307C61.1886 100.409 43.2464 109.308 35.4768 110.756C39.2068 108.486 52.5638 101.664 57.6409 101.248C57.0448 101.893 56.8211 102.317 56.8149 102.33L56.7444 102.466C56.6111 102.718 56.4502 103.027 56.3843 103.376C56.3061 103.791 56.5789 104.195 56.9927 104.273C57.408 104.355 57.808 104.078 57.8892 103.662C57.9106 103.542 58.0118 103.353 58.0991 103.184L58.1773 103.03C58.1865 103.013 58.755 102.004 60.5603 100.753C61.9487 100.272 63.5869 99.621 64.2781 99.3966C65.5837 98.971 66.9875 98.5316 68.6211 98.9004C66.6963 100.32 66.0833 101.48 66.0741 101.497L66.0036 101.635C65.8703 101.886 65.7094 102.196 65.6435 102.543C65.5638 102.96 65.8381 103.362 66.2519 103.442C66.6657 103.522 67.0672 103.247 67.1484 102.829C67.1699 102.709 67.271 102.522 67.3583 102.353L67.4365 102.198C67.4488 102.178 68.3039 100.664 71.2447 99.0448C72.273 98.8881 73.5143 98.6976 74.6376 98.6545C76.3141 98.59 77.9922 98.5501 79.6718 98.5193C80.2771 98.5086 80.884 98.5147 81.4893 98.5163C77.5508 100.524 76.4306 102.623 76.4183 102.648L76.3478 102.786C76.2145 103.036 76.0536 103.347 75.9877 103.694C75.908 104.11 76.1823 104.513 76.5961 104.593C77.0099 104.673 77.4114 104.398 77.4926 103.98C77.514 103.86 77.6152 103.673 77.7025 103.504L77.7807 103.348C77.796 103.325 79.1308 100.955 84.2493 98.968C85.1887 98.8543 86.3886 98.6637 87.2207 98.7805C88.8942 99.0095 90.5661 99.2722 92.3928 99.5441C92.3116 99.6701 92.2472 99.7915 92.1875 99.9067C88.2199 101.918 87.0951 104.031 87.0828 104.055L87.0123 104.192C86.879 104.444 86.7181 104.753 86.6522 105.101C86.574 105.516 86.8468 105.92 87.2606 105.999C87.6759 106.08 88.0759 105.804 88.1571 105.387C88.1785 105.267 88.2797 105.078 88.367 104.909L88.4452 104.756C88.4574 104.734 89.4244 103.021 92.8449 101.29C95.9941 99.6993 101.359 101.589 101.929 102.637C101.669 102.715 101.408 102.785 101.145 102.881C95.0578 105.135 93.4855 108.119 93.4702 108.153L93.3981 108.288C93.2648 108.54 93.1024 108.85 93.0395 109.198C92.9583 109.614 93.2311 110.017 93.6464 110.095C94.0602 110.176 94.4617 109.9 94.5429 109.483C94.5659 109.364 94.6655 109.175 94.7513 109.006L94.8295 108.852C94.8463 108.829 96.2363 106.337 101.675 104.326C102.66 103.961 103.595 103.786 104.455 103.711C106.099 104.31 108.136 105.212 109.169 106.527C109.141 106.54 109.127 106.549 109.101 106.56C103.73 108.32 102.132 110.832 102.113 110.862L102.035 110.992C101.88 111.23 101.693 111.528 101.601 111.868C101.49 112.277 101.73 112.701 102.138 112.811C102.545 112.925 102.965 112.682 103.08 112.274C103.111 112.155 103.227 111.976 103.326 111.814L103.417 111.667C103.431 111.647 104.624 109.878 108.541 108.386C108.663 108.402 108.792 108.414 108.939 108.399C111.429 108.162 113.233 109.44 114.2 111.871C109.514 113.377 108 115.523 107.984 115.552L107.895 115.677C107.733 115.907 107.532 116.196 107.422 116.533C107.288 116.935 107.512 117.37 107.914 117.501C108.312 117.633 108.746 117.412 108.878 117.007C108.914 116.891 109.039 116.717 109.146 116.562L109.245 116.419C109.261 116.397 110.599 114.597 114.836 113.282C115.578 114.285 116.922 115.97 117.113 117.166C114.485 117.644 113.316 118.538 113.299 118.552L113.178 118.647C112.954 118.82 112.677 119.036 112.474 119.323C112.231 119.669 112.313 120.151 112.658 120.394C113.002 120.638 113.48 120.554 113.725 120.208C113.794 120.108 113.967 119.979 114.111 119.859L114.249 119.755C114.266 119.742 115.32 118.999 117.717 118.625C118.318 119.231 119.026 119.884 119.231 120.254C119.484 120.715 119.726 121.589 120.016 122.526C118.754 122.957 118.164 123.407 118.152 123.416L118.031 123.513C117.807 123.686 117.53 123.9 117.328 124.189C117.084 124.535 117.168 125.015 117.512 125.258C117.855 125.504 118.335 125.42 118.58 125.072C118.649 124.974 118.819 124.845 118.966 124.725L119.101 124.619C119.113 124.613 119.855 124.193 120.797 123.869C121.783 124.691 125.756 136.57 136.281 135.84C138.58 135.359 141.475 134.15 142.816 132.582C142.454 135.104 140.834 137.599 138.729 139.24ZM190.886 129.966C190.042 129.966 189.319 130.481 189.009 131.215H186.563C186.683 128.571 187.639 111.011 195.827 98.2289C205.119 83.7187 213.654 81.7444 214.612 81.0898C214.848 80.9285 215.168 80.8916 215.447 80.7979C213.437 82.7108 206.875 90.6758 213.543 101.443C214.175 102.466 214.89 103.139 216.013 103.396C217.09 102.119 217.109 101.583 215.953 100.912C214.346 99.5749 212.939 97.9047 212.747 95.8613C210.891 87.7888 215.812 83.0888 218.24 81.0176C219.223 80.1772 220.673 79.9283 221.323 78.5885C221.436 78.3611 221.968 78.292 222.319 78.2366C236.758 74.6075 240.401 78.7191 242.08 80.0189C244.414 81.8227 251.059 85.8743 256.643 85.6101C259.871 85.2982 261.408 84.6252 263.444 83.1779C265.234 82.0332 267.055 77.7081 267.415 75.1007C267.536 74.225 267.381 73.5382 266.853 73.1894C266.385 72.8837 265.524 72.9006 264.955 73.1049C264.283 73.3461 264.064 74.0959 264.289 74.8104C266.384 78.3826 258.211 89.3298 243.735 78.5393C239.929 75.3681 235.701 74.3955 230.961 74.8211C230.299 74.881 188.353 75.2267 184.38 131.215H170.767C170.722 114.99 170.659 83.9722 170.714 70.2072C171.392 69.8753 171.614 70.3224 172.037 70.6865C173.517 71.9572 181.652 82.0209 197.039 80.8809C206.297 79.6655 218.748 71.1075 222.546 68.7736C225.983 66.6626 237.985 59.8131 239.671 58.9865C273.409 42.4066 285.992 68.5294 287.503 71.3426C287.964 71.1413 288.482 70.9139 288.949 70.7096C288.72 69.2684 288.294 68.01 288.362 66.7778C288.537 63.5144 289.625 52.2645 277.621 42.4696C246.402 24.0168 232.864 35.5402 229.397 37.9063C228.596 38.4533 227.672 38.819 226.668 39.3399C226.809 37.7542 227.284 36.2731 228.499 34.9287C231.008 32.1523 233.633 29.462 237.953 30.4315C238.105 30.4669 238.294 30.3485 238.453 30.304C238.813 29.6111 238.903 28.935 238.166 28.5279C237.051 27.9102 235.934 27.1389 234.724 26.89C231.905 26.3123 228.768 26.7102 226.092 27.8426C216.583 31.8666 196.667 60.4876 184.715 59.7239C182.203 59.9114 180.852 59.3644 178.968 58.4272C181.048 57.3763 183.377 56.3637 185.173 55.3435C187.864 53.8163 195.053 47.9901 197.167 44.023C200.947 36.9169 199.773 28.9243 199.424 27.0098C199.108 25.2767 198.682 23.5528 199.735 21.9565C198.362 20.9378 197.199 21.3342 196.12 22.1977C193.001 24.6929 184.525 28.2267 183.704 27.6306C184.634 25.3244 186.248 19.7762 183.106 14.7597C180.729 10.9632 171.272 3.45144 171.067 1.15445C171.036 0.824114 170.875 0.552162 170.675 0.317085C170.672 -0.105439 168.333 -0.105439 168.331 0.315549C168.131 0.550626 167.97 0.824114 167.939 1.15445C167.732 3.45144 158.277 10.9647 155.9 14.7597C152.76 19.7762 154.372 25.3244 155.302 27.6306C154.484 28.2267 146.006 24.6929 142.886 22.1977C141.809 21.3327 140.643 20.9378 139.271 21.9565C140.326 23.5528 139.896 25.2767 139.582 27.0098C139.231 28.9243 138.056 36.9169 141.841 44.023C143.953 47.9901 151.142 53.8163 153.83 55.3435C155.629 56.3637 157.957 57.3763 160.039 58.4272C158.156 59.3629 156.803 59.9114 154.292 59.7239C142.336 60.4876 122.423 31.8666 112.916 27.8426C110.238 26.7102 107.102 26.3123 104.282 26.89C103.073 27.1389 101.955 27.9102 100.84 28.5279C100.104 28.9366 100.19 29.6111 100.555 30.304C100.713 30.3485 100.901 30.4669 101.053 30.4315C105.373 29.462 107.998 32.1523 110.507 34.9287C111.722 36.2731 112.199 37.7542 112.34 39.3399C111.334 38.819 110.407 38.4549 109.609 37.9063C106.144 35.5402 92.6058 24.0168 61.3848 42.4696C49.3809 52.2645 50.469 63.5144 50.6437 66.7778C50.7111 68.01 50.2881 69.2684 50.0567 70.7096C50.5241 70.9139 51.0436 71.1413 51.5034 71.3426C53.0144 68.5294 65.5975 42.4066 99.3349 58.9865C101.021 59.8131 113.023 66.6626 116.459 68.7736C120.258 71.1075 132.709 79.6655 141.967 80.8809C157.354 82.0209 165.49 71.9572 166.968 70.6865C167.392 70.3239 167.611 69.8768 168.292 70.2072C168.347 83.9722 168.282 114.99 168.24 131.215H154.627C150.651 75.2267 108.706 74.881 108.046 74.8211C103.304 74.3955 99.0775 75.3666 95.2708 78.5393C80.7951 89.3298 72.6224 78.3826 74.7173 74.8104C74.9441 74.0944 74.7234 73.3461 74.0522 73.1049C73.4836 72.9006 72.6193 72.8821 72.1519 73.1894C71.6247 73.5397 71.47 74.225 71.591 75.1007C71.9512 77.7081 73.7717 82.0332 75.5617 83.1779C77.5983 84.6252 79.1354 85.2982 82.3628 85.6101C87.9487 85.8743 94.5935 81.8227 96.9274 80.0189C98.607 78.7191 102.251 74.6075 116.689 78.2366C117.04 78.2904 117.573 78.3596 117.682 78.5885C118.335 79.9283 119.783 80.1772 120.768 81.0176C123.197 83.0903 128.116 87.7888 126.26 95.8613C126.07 97.9047 124.664 99.5749 123.051 100.912C121.899 101.585 121.917 102.119 122.995 103.396C124.12 103.139 124.832 102.466 125.464 101.443C132.134 90.6758 125.569 82.7123 123.56 80.7979C123.841 80.8932 124.159 80.9285 124.392 81.0898C125.35 81.7444 133.889 83.7187 143.182 98.2289C151.369 111.009 152.325 128.571 152.446 131.215H149.995C149.689 130.481 148.966 129.966 148.121 129.966C146.996 129.966 146.086 130.88 146.086 132.006C146.086 133.132 146.996 134.047 148.121 134.047C148.799 134.047 149.369 133.693 149.738 133.182H152.193C152.118 134.591 152.096 137.88 152.058 138.687C151.957 140.69 151.644 144.742 153.126 144.8C153.428 144.813 153.917 143.743 154.037 142.207C154.26 139.346 154.455 134.947 154.622 133.18H167.961C168.079 133.238 168.168 133.314 168.236 133.406C168.223 138.088 168.214 141.13 168.209 141.503C168.204 142.03 168.21 142.878 168.597 143.428C168.735 143.766 168.966 143.981 169.361 143.969C169.415 143.969 169.455 143.949 169.504 143.943C169.553 143.949 169.593 143.969 169.646 143.969C170.042 143.983 170.273 143.766 170.413 143.428C170.799 142.88 170.805 142.03 170.799 141.503C170.796 141.131 170.785 138.086 170.771 133.404C170.84 133.312 170.928 133.238 171.047 133.18H184.386C184.551 134.947 184.747 139.346 184.971 142.207C185.091 143.742 185.578 144.811 185.881 144.8C187.362 144.742 187.054 140.689 186.95 138.687C186.908 137.88 186.89 134.591 186.815 133.182H189.267C189.637 133.692 190.209 134.047 190.886 134.047C192.008 134.047 192.922 133.132 192.922 132.006C192.922 130.88 192.008 129.966 190.886 129.966ZM256.558 51.6806C252.955 52.2445 244.292 54.248 234.459 60.0097C231.681 61.6384 212.646 72.4673 207.998 74.7873C191.996 84.4009 176.587 72.0494 175.165 70.8955C174.276 70.1703 173.45 69.356 172.662 68.5186C172.238 68.0653 171.953 67.4769 171.605 66.9499C171.731 66.8392 171.856 66.7271 171.98 66.6149C172.36 66.7932 172.791 66.9038 173.108 67.1604C175.96 69.4681 188.232 71.8051 189.504 71.9172C198.124 72.8775 209.618 67.2433 226.538 54.9517C246.143 40.8686 253.037 45.733 256.421 46.6303C259.785 48.0608 263.374 50.6067 264.402 51.4317C263.766 51.3027 258.706 51.3441 256.558 51.6806ZM152.907 51.464C153.05 51.7237 152.993 52.0924 153.047 52.5195C141.556 46.4229 138.375 33.7395 142.068 24.782C142.391 24.9387 142.718 25.0831 143.032 25.2521C146.321 27.0206 149.718 28.5217 153.304 29.5895C154.76 30.0213 156.214 30.4745 157.644 30.9969C158.821 31.4271 158.803 31.4763 159.927 30.0874C159.34 29.4467 158.634 28.8536 158.153 28.113C157.049 26.4229 155.25 20.5429 157.549 16.5097C158.513 14.8166 165.906 8.12072 169.504 5.02938C173.101 8.12072 180.493 14.8166 181.46 16.5097C183.759 20.5429 181.958 26.4229 180.856 28.113C180.374 28.8536 179.667 29.4467 179.08 30.0874C180.205 31.4748 180.188 31.4271 181.365 30.9969C182.795 30.4745 184.248 30.0213 185.705 29.5895C189.29 28.5217 192.689 27.0206 195.976 25.2521C196.29 25.0847 196.616 24.9387 196.941 24.782C200.63 33.7395 197.453 46.4229 185.963 52.5195C186.012 52.0939 185.96 51.7237 186.101 51.464C188.413 47.2203 185.797 41.5662 182.393 38.9942C179.545 36.8416 173.387 36.0058 169.997 35.7615C169.838 35.7492 169.669 35.7676 169.504 35.7814C169.338 35.7676 169.171 35.7492 169.012 35.7615C165.621 36.0042 159.465 36.8401 156.614 38.9942C153.214 41.5646 150.596 47.2203 152.907 51.464ZM166.342 68.5186C165.558 69.356 164.732 70.1703 163.843 70.8955C162.421 72.0494 147.015 84.4009 131.011 74.7873C126.363 72.4673 107.33 61.6368 104.55 60.0097C94.7176 54.248 86.053 52.2445 82.4486 51.6806C80.3016 51.3441 75.2414 51.3027 74.6039 51.4317C75.6322 50.6067 79.2212 48.0608 82.585 46.6303C85.9687 45.733 92.8648 40.8686 112.468 54.9517C129.39 67.2433 140.883 72.8775 149.504 71.9172C150.775 71.8066 163.046 69.4681 165.898 67.1604C166.212 66.9038 166.646 66.7932 167.026 66.6149C167.151 66.7271 167.277 66.8392 167.401 66.9499C167.055 67.4769 166.77 68.0653 166.342 68.5186ZM169.564 62.2284C169.544 62.2253 169.524 62.2284 169.504 62.2268C169.484 62.2284 169.464 62.2253 169.444 62.2284C169.039 62.2038 168.669 62.3574 168.434 62.7431C168.186 62.9613 167.962 63.2271 167.803 63.5559C167.489 63.9261 167.184 64.3594 166.773 64.5807C164.795 65.6485 159.233 69.9337 148.61 70.1872C132.446 70.5728 111.426 51.0338 102.242 46.4459C91.4611 41.0591 87.8843 43.4913 84.4163 44.3118C80.3507 45.7315 74.2514 48.6354 72.7818 50.5129C72.1887 51.2704 71.5818 51.8727 70.6976 52.1923C65.5914 54.0375 60.9051 56.5788 56.9743 60.4061C55.6886 61.6553 54.3216 62.8153 52.7891 64.1996C52.829 63.3408 51.0743 47.0283 72.6255 38.2413C99.6353 27.2311 111.733 41.8443 112.556 42.8076C113.146 43.5036 113.756 43.6327 114.48 43.3485C115.178 43.0734 115.447 42.4604 115.358 41.6968C115.325 41.3956 115.401 41.0668 115.316 40.7841C114.298 37.493 113.187 34.2388 110.404 31.9465C108.868 30.682 107.252 29.5127 105.756 28.3665C113.205 25.9666 127.808 43.0842 128.628 43.9738C131.601 47.2019 134.769 50.221 138.14 53.0173C140.425 54.9118 147.781 60.6335 152.722 61.3941C155.042 61.729 157.319 61.285 159.573 60.7457C159.633 60.7303 159.705 60.7303 159.753 60.6981C160.566 60.1157 161.857 59.8883 161.992 58.7606C162.114 57.7373 160.81 57.6974 160.228 57.1181C160.059 56.9507 159.828 56.8477 159.488 56.628C159.996 55.846 159.814 55.1561 159.104 54.5922C158.674 54.2496 158.311 53.7763 157.833 53.5459C154.627 52.0094 154.124 49.0134 154.42 46.1033C154.639 43.9538 155.617 41.6722 157.762 40.4507C160.098 39.1217 165.558 37.8464 168.359 37.8664C168.722 37.8695 169.09 37.9048 169.458 37.9571V37.9647C169.473 37.9632 169.49 37.9632 169.507 37.9601C169.524 37.9632 169.539 37.9632 169.556 37.9647V37.9571C169.921 37.9063 170.292 37.8695 170.655 37.8664C173.456 37.8449 178.916 39.1201 181.252 40.4507C183.393 41.6722 184.375 43.9523 184.594 46.1033C184.89 49.0134 184.387 52.0094 181.183 53.5459C180.703 53.7748 180.34 54.2496 179.909 54.5922C179.2 55.1561 179.017 55.846 179.526 56.628C179.184 56.8493 178.955 56.9507 178.785 57.1181C178.204 57.6974 176.901 57.7373 177.022 58.7606C177.157 59.8868 178.447 60.1157 179.263 60.6981C179.309 60.7303 179.379 60.7303 179.437 60.7457C181.695 61.285 183.972 61.729 186.294 61.3941C191.234 60.6335 198.587 54.9118 200.875 53.0173C204.245 50.2225 207.413 47.2019 210.387 43.9738C211.206 43.0842 225.808 25.9666 233.258 28.3665C231.761 29.5127 230.144 30.682 228.607 31.9465C225.827 34.2388 224.713 37.493 223.698 40.7841C223.611 41.0668 223.689 41.3941 223.655 41.6968C223.563 42.4604 223.838 43.0734 224.535 43.3485C225.258 43.6342 225.867 43.5052 226.46 42.8076C227.283 41.8443 239.38 27.2311 266.388 38.2413C287.94 47.0283 286.185 63.3408 286.225 64.1996C284.692 62.8168 283.322 61.6568 282.038 60.4061C278.109 56.5804 273.421 54.0375 268.316 52.1923C267.43 51.8727 266.824 51.2704 266.232 50.5129C264.762 48.6354 258.665 45.7315 254.597 44.3118C251.13 43.4913 247.553 41.0591 236.77 46.4459C227.585 51.0338 206.567 70.5728 190.404 70.1872C179.781 69.9337 174.219 65.6485 172.241 64.5807C171.83 64.3594 171.525 63.9261 171.211 63.5559C171.052 63.2271 170.826 62.9566 170.58 62.7415C170.336 62.3574 169.97 62.2053 169.564 62.2284Z" fill="#B0890C" fill-opacity="0.2"/>
</svg>
