<svg width="70" height="70" viewBox="0 0 70 70" fill="none" xmlns="http://www.w3.org/2000/svg">
<circle cx="35" cy="35" r="35" fill="#5D3F8D"/>
<circle cx="35" cy="35" r="33" stroke="#BEA1D6" stroke-width="4"/>
<circle cx="35" cy="35" r="31" stroke="white" stroke-width="2"/>
<path d="M45.5 28.5H24.5C22.01 28.5 20 30.51 20 33V42H26V48H44V42H50V33C50 30.51 47.99 28.5 45.5 28.5ZM41 45H29V37.5H41V45ZM45.5 34.5C44.675 34.5 44 33.825 44 33C44 32.175 44.675 31.5 45.5 31.5C46.325 31.5 47 32.175 47 33C47 33.825 46.325 34.5 45.5 34.5ZM44 21H26V27H44V21Z" fill="white"/>
</svg>
