<svg width="70" height="70" viewBox="0 0 70 70" fill="none" xmlns="http://www.w3.org/2000/svg">
<circle cx="35" cy="35" r="35" fill="#5D3F8D"/>
<circle cx="35" cy="35" r="33" stroke="#BEA1D6" stroke-width="4"/>
<circle cx="35" cy="35" r="31" stroke="white" stroke-width="2"/>
<path d="M47.196 25.8057H23.196C21.546 25.8057 20.211 27.1357 20.211 28.7613L20.196 43.5397C20.196 45.1653 21.546 46.4953 23.196 46.4953H47.196C48.846 46.4953 50.196 45.1653 50.196 43.5397V28.7613C50.196 27.1357 48.846 25.8057 47.196 25.8057ZM33.696 30.2392H36.696V33.1948H33.696V30.2392ZM33.696 34.6727H36.696V37.6283H33.696V34.6727ZM29.196 30.2392H32.196V33.1948H29.196V30.2392ZM29.196 34.6727H32.196V37.6283H29.196V34.6727ZM27.696 37.6283H24.696V34.6727H27.696V37.6283ZM27.696 33.1948H24.696V30.2392H27.696V33.1948ZM41.196 43.5397H29.196V40.584H41.196V43.5397ZM41.196 37.6283H38.196V34.6727H41.196V37.6283ZM41.196 33.1948H38.196V30.2392H41.196V33.1948ZM45.696 37.6283H42.696V34.6727H45.696V37.6283ZM45.696 33.1948H42.696V30.2392H45.696V33.1948Z" fill="white"/>
</svg>
