<svg width="70" height="70" viewBox="0 0 70 70" fill="none" xmlns="http://www.w3.org/2000/svg">
<circle cx="35" cy="35" r="35" fill="#5D3F8D"/>
<circle cx="35" cy="35" r="33" stroke="#BEA1D6" stroke-width="4"/>
<circle cx="35" cy="35" r="31" stroke="white" stroke-width="2"/>
<path d="M47 23H23C21.35 23 20.015 24.35 20.015 26L20 44C20 45.65 21.35 47 23 47H47C48.65 47 50 45.65 50 44V26C50 24.35 48.65 23 47 23ZM47 29L35 36.5L23 29V26L35 33.5L47 26V29Z" fill="white"/>
</svg>
